{
  "run_info": {
    "set": "spie-hdr-4k-svt",
    "run_id": "spie-hdr-4k-svt-t3-proxy",
    "extra_options": " --color-primaries=bt2020  --transfer-characteristics=smpte2084 --matrix-coefficients=bt2020ncl  --chroma-sample-position=colocated --cpu-used=2 ",
    "qualities": [
      "27",
      "39",
      "49",
      "59",
      "63"
    ],
    "cost_method": "metrics",
    "optimiser_mode": "proxy_opt",
    "lambda_opt": true,
    "tune_type": 3,
    "optimiser_method": "brent",
    "opt_space": "top",
    "slots": 30,
    "work_root": "/home/mindfreeze/visp/lambda_tune/work_slot1/",
    "init_range": [
      1.0,
      1.0
    ],
    "metrics": "MS-SSIM (libvmaf)"
  },
  "svt_forest_lake_3840x2160_50_10bit_420p.y4m": {
    "brent_data": [
      1.9362464984229726,
      -0.7643243088271912,
      1,
      25
    ],
    "total_encodes": 13,
    "bd_rate_data": {
      "3.5": {
        "0": -0.4934934682053459,
        "1": -7.6340302292869975,
        "2": -1.6047262352045233,
        "3": 10.790464030466174,
        "4": 39.527364841116295,
        "5": 1.2838526031216935,
        "6": -0.9794728375043582,
        "7": 0.12426257719808653,
        "8": -2.8229900501833827,
        "9": 12.614083644480957,
        "10": 38.47295246520286,
        "11": -2.4697330052560917,
        "12": -4.067693603011069,
        "13": -3.9406043459957463,
        "14": -2.5581405846130556,
        "15": 9.760147085446658,
        "16": 39.38560778713265
      },
      "5.6": {
        "0": 1.114159675357642,
        "1": -3.810794603446551,
        "2": -1.3958836380985717,
        "3": 19.739753640776357,
        "4": 32.97364112036447,
        "5": 2.384167873336218,
        "6": 0.5633080779211097,
        "7": 2.0226336205923623,
        "8": -2.653991468496464,
        "9": 19.54751522404583,
        "10": 33.12484160783165,
        "11": -2.2810480621258344,
        "12": -4.913363134759152,
        "13": -4.811393989505708,
        "14": -2.6994787911031826,
        "15": 18.545699193169995,
        "16": 32.95926497447279
      },
      "2.2": {
        "0": -0.7507337285687793,
        "1": -2.656347461448591,
        "2": -1.4218224942712299,
        "3": 5.335167635897697,
        "4": 20.612505792314195,
        "5": 0.43264498765478443,
        "6": -1.360451306901611,
        "7": -0.685177386205249,
        "8": -2.2691485195098893,
        "9": 5.9820284578713245,
        "10": 19.189870060923788,
        "11": -2.0960045647110737,
        "12": -2.9697731011778417,
        "13": -2.8653479824416572,
        "14": -1.9970599062325234,
        "15": 4.68558680281006,
        "16": 20.41152257950436
      },
      "1.4": {
        "0": -0.6412967042520185,
        "1": -2.9738622707456264,
        "2": -0.7646666021098092,
        "3": 1.3945742866146027,
        "4": 6.3275047419225405,
        "5": -0.0301490439782226,
        "6": -0.7828084266538915,
        "7": -0.5437889046647881,
        "8": -1.1141648652588265,
        "9": 1.9577238152229892,
        "10": 5.74944806580997,
        "11": -1.0525066009224981,
        "12": -1.4054642795592986,
        "13": -1.3633453654204875,
        "14": -0.9827982348346032,
        "15": 1.1344883611936085,
        "16": 6.267454465068378
      },
      "2.03": {
        "0": -0.4772605928752002,
        "1": -2.777000750330666,
        "2": -1.3537234597832515,
        "3": 7.3477018851878295,
        "4": 17.28517479756302,
        "5": 0.6158161049279132,
        "6": -1.335083139839588,
        "7": -0.7275707363720185,
        "8": -2.1137392352798323,
        "9": 7.148394658102353,
        "10": 16.311130074125767,
        "11": -1.9464121722280847,
        "12": -2.643498978047798,
        "13": -2.5350404568602714,
        "14": -1.8652186761585199,
        "15": 6.775849191277938,
        "16": 17.063166924346863
      },
      "1.93": {
        "0": -0.03877488070697627,
        "1": 0.07010343313587984,
        "2": -1.2829522405022442,
        "3": 4.980699396454802,
        "4": 14.601981392338459,
        "5": 0.2714803957109213,
        "6": -1.3504874508226794,
        "7": -0.7576281727441514,
        "8": -1.9848383210952947,
        "9": 5.24338992343385,
        "10": 13.717442156911353,
        "11": -1.8477710223324006,
        "12": -2.4508136711661965,
        "13": -2.3802534426053734,
        "14": -1.753646632977257,
        "15": 4.421711273504325,
        "16": 14.339080270406956
      },
      "1.73": {
        "0": -0.5052708510382522,
        "1": -8.751624860894427,
        "2": -1.1399585351558383,
        "3": 2.0753271346340973,
        "4": 14.462948280770437,
        "5": 0.020595056737970907,
        "6": -1.141165378716813,
        "7": -0.7201529362106718,
        "8": -1.7384912801635122,
        "9": 3.2678274143289388,
        "10": 13.336899499497745,
        "11": -1.625950499216533,
        "12": -2.039033045924832,
        "13": -1.9704806194992375,
        "14": -1.5230495398191213,
        "15": 1.633347170009003,
        "16": 14.332586064990306
      },
      "1.89": {
        "0": 0.6275800087549956,
        "1": -6.4354217798789195,
        "2": -1.2432133946625679,
        "3": 3.581286773934478,
        "4": 14.147722704834308,
        "5": 0.11321988454193743,
        "6": -1.1914533938979899,
        "7": -0.712110687267753,
        "8": -1.9372075074540862,
        "9": 4.331723184286496,
        "10": 13.206065980848702,
        "11": -1.8082609978580133,
        "12": -2.4437534609045075,
        "13": -2.3396993082790307,
        "14": -1.6990667122589453,
        "15": 3.0913816134735095,
        "16": 13.986169045558405
      },
      "1.97": {
        "0": -0.9264248601057252,
        "1": -7.466741409533588,
        "2": -1.3128591102216203,
        "3": 4.512642802451738,
        "4": 16.96029355741313,
        "5": 0.32801672143736305,
        "6": -1.2731299000339868,
        "7": -0.7269903499152797,
        "8": -2.029766963131552,
        "9": 5.147423515211158,
        "10": 15.78756017460925,
        "11": -1.8815206387890693,
        "12": -2.5496970944433373,
        "13": -2.4421112049557214,
        "14": -1.803058945447411,
        "15": 3.9725920631789258,
        "16": 16.828904989015037
      },
      "1.91": {
        "0": -1.320916605817872,
        "1": -2.060560845083513,
        "2": -1.2730231754983445,
        "3": 3.8269804366298343,
        "4": 16.16032086111714,
        "5": 0.14880214863466357,
        "6": -1.2869939283482124,
        "7": -0.7340861792577758,
        "8": -1.9639065350320006,
        "9": 4.4882002399163845,
        "10": 15.135130210761783,
        "11": -1.8228975457034946,
        "12": -2.3816923091188658,
        "13": -2.3026905375918227,
        "14": -1.7334269188394646,
        "15": 3.276427414393246,
        "16": 15.966941097971766
      },
      "1.95": {
        "0": -1.1321074926455086,
        "1": -5.397594806672255,
        "2": -1.2983338546961654,
        "3": 7.0105371201993005,
        "4": 16.530411151528533,
        "5": 0.5204600661358416,
        "6": -1.2858980782080587,
        "7": -0.7157167822102517,
        "8": -2.001032270508274,
        "9": 6.5490141862703855,
        "10": 15.58162194067556,
        "11": -1.8454635436982336,
        "12": -2.468431926712511,
        "13": -2.3999830258140453,
        "14": -1.777785307833224,
        "15": 6.527013799109005,
        "16": 16.361389896305887
      },
      "1.92": {
        "0": -0.4943316768261717,
        "1": -8.52465369950816,
        "2": -1.2845230379549655,
        "3": 5.172970274539179,
        "4": 16.39487914345734,
        "5": 0.2847149601460819,
        "6": -1.252187889364531,
        "7": -0.7308553938779938,
        "8": -1.9911994853523463,
        "9": 5.504627061963752,
        "10": 15.538915892783557,
        "11": -1.842942948902615,
        "12": -2.4206935605958213,
        "13": -2.348306534653255,
        "14": -1.7522162264741015,
        "15": 4.677067233444676,
        "16": 16.19039849543986
      },
      "1.94": {
        "0": -0.7209997099785194,
        "1": -3.90939106501348,
        "2": -1.3182641706194098,
        "3": 7.107791450935941,
        "4": 15.446288484330672,
        "5": 0.5182242636867729,
        "6": -1.3420511180326389,
        "7": -0.7643243088271912,
        "8": -2.005843769293192,
        "9": 6.782292200513762,
        "10": 14.574921807924701,
        "11": -1.8513218463619752,
        "12": -2.5325881908960457,
        "13": -2.4586471199912974,
        "14": -1.7961212821794192,
        "15": 6.583966697215016,
        "16": 15.253011788043413
      }
    },
    "cost_pair": {
      "3.5": 0.12426257719808653,
      "5.6": 2.0226336205923623,
      "2.2": -0.685177386205249,
      "1.4": -0.5437889046647881,
      "2.03": -0.7275707363720185,
      "1.93": -0.7576281727441514,
      "1.73": -0.7201529362106718,
      "1.89": -0.712110687267753,
      "1.97": -0.7269903499152797,
      "1.91": -0.7340861792577758,
      "1.95": -0.7157167822102517,
      "1.92": -0.7308553938779938,
      "1.94": -0.7643243088271912
    },
    "proxy_result": {
      "final_k": "1.94",
      "bd_rate_data": {
        "0": 0.07739003082414544,
        "1": 4.9124660422121185,
        "2": -1.3736827900965531,
        "3": 2.3156499422761767,
        "4": 10.253573642262115,
        "5": -0.0964742804156149,
        "6": -1.7602629305536688,
        "7": -0.8170887828526041,
        "8": -1.9356200279094016,
        "9": 2.6095086634883025,
        "10": 9.879730154319489,
        "11": -1.8337876253681995,
        "12": -2.0518950922875256,
        "13": -1.9504207688864739,
        "14": -1.6937753218804863,
        "15": 1.8486598303390833,
        "16": 9.858658054614411
      },
      "cost_pair": {
        "1.94": -0.8170887828526041
      }
    }
  },
  "svt_midnight_sun_3840x2160_50_10bit_420p.y4m": {
    "brent_data": [
      2.818468289221529,
      -1.888422402826928,
      1,
      25
    ],
    "total_encodes": 11,
    "bd_rate_data": {
      "3.5": {
        "0": -0.9209766659531163,
        "1": -3.5346375807824715,
        "2": -1.1687719263448693,
        "3": 13.865730759880869,
        "4": 53.04291440455246,
        "5": 4.63702863507629,
        "6": -3.50196398267838,
        "7": -1.7365133038372615,
        "8": -3.460481749874167,
        "9": 11.734576260903307,
        "10": 54.91392757414442,
        "11": -2.9340956638211124,
        "12": -3.45777428131,
        "13": -3.6914854939613995,
        "14": -2.413619807963774,
        "15": 12.93240347585054,
        "16": 53.312597773964555
      },
      "5.6": {
        "0": 1.1603612445590497,
        "1": -2.197095106912451,
        "2": 0.10135978943983659,
        "3": 19.441475578183407,
        "4": 59.352981735305434,
        "5": 7.113692720041587,
        "6": -2.973264366975459,
        "7": -0.49928625121014036,
        "8": -3.155912437734587,
        "9": 15.881736299227068,
        "10": 60.964202045767976,
        "11": -2.551496027151867,
        "12": -2.704105374159993,
        "13": -3.059683935082569,
        "14": -1.5789517668044706,
        "15": 18.458180508336653,
        "16": 59.91849094383277
      },
      "2.2": {
        "0": -0.6825470478723328,
        "1": -2.422855435732807,
        "2": -1.4316561672652939,
        "3": 7.021341771433232,
        "4": 38.399442922718244,
        "5": 1.9732362033818118,
        "6": -2.6358951455963453,
        "7": -1.7211151603305885,
        "8": -2.6545431371776784,
        "9": 5.599130015963016,
        "10": 38.15166952715994,
        "11": -2.3488397154797336,
        "12": -2.847994092693662,
        "13": -2.9813514245137007,
        "14": -2.125877769968809,
        "15": 6.404757683800666,
        "16": 38.37875777489814
      },
      "2.88": {
        "0": -0.3505736221915685,
        "1": -3.3191383745181255,
        "2": -1.4102469923937822,
        "3": 11.233901684428194,
        "4": 53.54746574231915,
        "5": 3.590306734197779,
        "6": -3.2409306580053476,
        "7": -1.8751915412539844,
        "8": -3.240924488562491,
        "9": 9.355713782661068,
        "10": 54.283661751779235,
        "11": -2.777884318248114,
        "12": -3.509404718962017,
        "13": -3.696450824764519,
        "14": -2.4214919898199017,
        "15": 10.412928819108602,
        "16": 53.69946495643012
      },
      "2.87": {
        "0": -0.9361544534915816,
        "1": -4.469646145421378,
        "2": -1.4061755058456304,
        "3": 11.127520661469358,
        "4": 54.419756463752364,
        "5": 3.566921362069042,
        "6": -3.2552869640862014,
        "7": -1.8867704521398077,
        "8": -3.244028137301047,
        "9": 9.325439035996297,
        "10": 54.78023013235847,
        "11": -2.7844929473815894,
        "12": -3.3764982922850906,
        "13": -3.564514682151354,
        "14": -2.412267134507362,
        "15": 10.315688271226463,
        "16": 54.6267896536605
      },
      "2.61": {
        "0": -1.0313729193428123,
        "1": -5.167087860310363,
        "2": -1.4753687671875237,
        "3": 9.419043357774992,
        "4": 47.82524447780827,
        "5": 2.916294067008063,
        "6": -3.0738751069252723,
        "7": -1.855123172522477,
        "8": -3.0821799179333698,
        "9": 7.752763921742178,
        "10": 47.94854566737783,
        "11": -2.682823396464651,
        "12": -3.3714490409282316,
        "13": -3.5139745741856077,
        "14": -2.365818235052508,
        "15": 8.682339928380545,
        "16": 47.87892923543025
      },
      "2.76": {
        "0": 0.0008809395162001631,
        "1": -0.8327594784610611,
        "2": -1.4391330665463165,
        "3": 10.160926637817047,
        "4": 49.48334135921246,
        "5": 3.284194093136983,
        "6": -3.1990846844249132,
        "7": -1.8806934506536033,
        "8": -3.1630769639519385,
        "9": 8.454787936981889,
        "10": 50.324589579513315,
        "11": -2.7344639393405923,
        "12": -3.3895128893824955,
        "13": -3.561375780658893,
        "14": -2.395463421307009,
        "15": 9.384219072457212,
        "16": 49.59256749219123
      },
      "2.82": {
        "0": -1.4756780869305648,
        "1": -4.991203133255703,
        "2": -1.4335318683276532,
        "3": 10.731248024387629,
        "4": 52.77458108449133,
        "5": 3.4106560892120497,
        "6": -3.2311097801206445,
        "7": -1.888422402826928,
        "8": -3.2213138794616625,
        "9": 9.015484028759158,
        "10": 53.54351447293655,
        "11": -2.7671845176819754,
        "12": -3.357456559503469,
        "13": -3.5399000499497513,
        "14": -2.415093142624525,
        "15": 9.927053146535991,
        "16": 52.943256577812846
      },
      "2.83": {
        "0": -1.4369330521720658,
        "1": -7.1469645715486,
        "2": -1.4006393861800581,
        "3": 10.55656628709305,
        "4": 51.7682618133263,
        "5": 3.322698904870758,
        "6": -3.168447785015016,
        "7": -1.823368040907014,
        "8": -3.1916224732995158,
        "9": 8.805033905259751,
        "10": 52.17449150868203,
        "11": -2.7515557374099164,
        "12": -3.3082110088748506,
        "13": -3.4920489652731423,
        "14": -2.389048658073578,
        "15": 9.744407398562371,
        "16": 51.908929068481214
      },
      "2.8": {
        "0": -1.562207300787965,
        "1": -9.25397048376961,
        "2": -1.4122725461168995,
        "3": 10.734158814039386,
        "4": 49.924535795848904,
        "5": 3.319821033918924,
        "6": -3.179760148429689,
        "7": -1.839919945992874,
        "8": -3.178189593498948,
        "9": 8.876125241872245,
        "10": 50.73660455702902,
        "11": -2.7402630108953607,
        "12": -3.3449670309870116,
        "13": -3.5200410241442492,
        "14": -2.386734561947268,
        "15": 9.918450598354323,
        "16": 50.0281617274976
      },
      "2.81": {
        "0": -0.7812270031430746,
        "1": -7.224641885568707,
        "2": -1.4179452174718499,
        "3": 10.603167626030574,
        "4": 52.960861753043645,
        "5": 3.386084292699798,
        "6": -3.187937286792941,
        "7": -1.845045925206723,
        "8": -3.175415144064875,
        "9": 8.879023638934068,
        "10": 53.66782489373414,
        "11": -2.7254826270200927,
        "12": -3.268972736030318,
        "13": -3.4360331186444437,
        "14": -2.399442206700786,
        "15": 9.794958806985864,
        "16": 53.101529222432475
      }
    },
    "cost_pair": {
      "3.5": -1.7365133038372615,
      "5.6": -0.49928625121014036,
      "2.2": -1.7211151603305885,
      "2.88": -1.8751915412539844,
      "2.87": -1.8867704521398077,
      "2.61": -1.855123172522477,
      "2.76": -1.8806934506536033,
      "2.82": -1.888422402826928,
      "2.83": -1.823368040907014,
      "2.8": -1.839919945992874,
      "2.81": -1.845045925206723
    },
    "proxy_result": {
      "final_k": "2.82",
      "bd_rate_data": {
        "0": 0.962983619211594,
        "1": 1.9198777143849648,
        "2": -1.6219065885130002,
        "3": 10.161728627682876,
        "4": 32.893404979136356,
        "5": 3.7587778603223487,
        "6": -2.5922055007649103,
        "7": -1.2098566543589984,
        "8": -2.2064303611947667,
        "9": 8.948578038909893,
        "10": 33.356899654889304,
        "11": -1.7704805749698793,
        "12": -3.1919901479421253,
        "13": -3.1674025090047686,
        "14": -2.1908441571787285,
        "15": 9.82527549164578,
        "16": 33.15205625502404
      },
      "cost_pair": {
        "2.82": -1.2098566543589984
      }
    }
  },
  "svt_smithy_3840x2160_50_10bit_420p.y4m": {
    "brent_data": [
      4.931008653540993,
      -8.021657592282539,
      1,
      25
    ],
    "total_encodes": 13,
    "bd_rate_data": {
      "3.5": {
        "0": 0.9030160942378209,
        "1": -0.8942337158290298,
        "2": 0.08387933601301523,
        "3": 3.454023004178075,
        "4": -1.2466547600819,
        "5": -1.8342752161487397,
        "6": -7.583236927258607,
        "7": -7.4733513892786485,
        "8": -3.8233284867343897,
        "9": 0.7043377883935165,
        "10": -1.3002914148278255,
        "11": -3.6200922796278845,
        "12": -2.539734004734595,
        "13": -2.216165887224908,
        "14": 0.2989022216812076,
        "15": 3.709122718751412,
        "16": -1.2998537954015732
      },
      "5.6": {
        "0": 1.9946126043646948,
        "1": 1.3009525678371991,
        "2": 2.9024181206961375,
        "3": 4.4808888953051795,
        "4": -6.65300200412231,
        "5": -1.641513638456249,
        "6": -7.7875445990578385,
        "7": -7.9027373929763005,
        "8": -1.6611671706409314,
        "9": 1.1070217765574597,
        "10": -6.38195978897812,
        "11": -1.544897530817524,
        "12": -0.23910394578318117,
        "13": 0.08647484303401232,
        "14": 3.5188687759155624,
        "15": 4.957561175258318,
        "16": -6.70668720849128
      },
      "6.9": {
        "0": 2.068921911490387,
        "1": -2.200947338734672,
        "2": 4.059765266227999,
        "3": 5.093413953156811,
        "4": -8.183094453041107,
        "5": -1.430799862659271,
        "6": -7.767138892726555,
        "7": -7.8793325147412,
        "8": -0.7439831193487012,
        "9": 2.0467571221454373,
        "10": -7.78647057253119,
        "11": -0.6052246449473664,
        "12": 0.7572938588054523,
        "13": 1.1002147221410796,
        "14": 4.935402811661027,
        "15": 5.673743503327056,
        "16": -8.236844241851015
      },
      "6.11": {
        "0": 2.613110871472357,
        "1": 3.6656027697472693,
        "2": 3.415786313824576,
        "3": 4.398771692023207,
        "4": -7.430491381055903,
        "5": -1.5664087856095743,
        "6": -7.790873479810467,
        "7": -7.894575289994199,
        "8": -1.3178701494555467,
        "9": 1.2239368259001848,
        "10": -7.090663058334323,
        "11": -1.201126351665649,
        "12": 0.055447619240389656,
        "13": 0.40690985519500344,
        "14": 4.133275982796203,
        "15": 4.898159991275786,
        "16": -7.484901507952246
      },
      "4.8": {
        "0": 1.4116511356790844,
        "1": -3.6418413565373267,
        "2": 2.0248720969712863,
        "3": 3.8639037136915633,
        "4": -5.249209583493486,
        "5": -1.8185879827480878,
        "6": -7.992755641679938,
        "7": -7.971195040061652,
        "8": -2.5595834651620297,
        "9": 0.6208375395810872,
        "10": -5.040803997309973,
        "11": -2.4388421240464697,
        "12": -1.2537034965603766,
        "13": -0.8798426491106737,
        "14": 2.493543672760312,
        "15": 4.258306511324372,
        "16": -5.302845257568345
      },
      "4.3": {
        "0": 2.952954746525212,
        "1": 1.7339772739490902,
        "2": 1.3701901501972147,
        "3": 3.5272549338540404,
        "4": -4.0511466015222375,
        "5": -1.8817870099364975,
        "6": -7.898500067219894,
        "7": -7.849842075365809,
        "8": -3.001870441411214,
        "9": 0.33943718230413644,
        "10": -3.954553542644601,
        "11": -2.876704988501111,
        "12": -1.6665073483935422,
        "13": -1.37588929160255,
        "14": 1.7420888783535649,
        "15": 3.867392933669911,
        "16": -4.104887018334447
      },
      "5.1": {
        "0": 2.373425641601984,
        "1": -3.2457160827464775,
        "2": 2.407338291123118,
        "3": 3.8802427150238517,
        "4": -5.8512219595171615,
        "5": -1.7520387255031133,
        "6": -7.960324154472254,
        "7": -7.959859364113164,
        "8": -2.234166972622331,
        "9": 0.690635766334613,
        "10": -5.637257843354037,
        "11": -2.1166057188514387,
        "12": -0.9502548737316041,
        "13": -0.6018596499298257,
        "14": 2.9368996466001773,
        "15": 4.301589366390535,
        "16": -5.905458954356913
      },
      "4.76": {
        "0": 1.9280348645759373,
        "1": 0.43160417338283846,
        "2": 1.9797150048767254,
        "3": 3.8584724613214494,
        "4": -5.1975709393769165,
        "5": -1.7898549305306433,
        "6": -7.910448418958471,
        "7": -7.907782886812386,
        "8": -2.5520939748637006,
        "9": 0.5724638406998217,
        "10": -5.0242164066262145,
        "11": -2.4357793524205418,
        "12": -1.2553224051972234,
        "13": -0.9148868091585105,
        "14": 2.435907396498105,
        "15": 4.245524825496627,
        "16": -5.251516878365137
      },
      "4.95": {
        "0": 2.7181168805524356,
        "1": -3.953039864184521,
        "2": 2.2015513807865927,
        "3": 3.9337901288178934,
        "4": -5.758297824270542,
        "5": -1.7959324367447849,
        "6": -8.055805444110876,
        "7": -7.995384573757757,
        "8": -2.411324329022868,
        "9": 0.540908514929872,
        "10": -5.548055423664156,
        "11": -2.3049097801957075,
        "12": -1.071985793751451,
        "13": -0.746406057430471,
        "14": 2.7063228497880676,
        "15": 4.342249755905092,
        "16": -5.812234383792858
      },
      "4.94": {
        "0": 2.555073964819718,
        "1": 1.8117715850486964,
        "2": 2.187772080787531,
        "3": 3.907560430376722,
        "4": -5.752018819965244,
        "5": -1.8218650373753031,
        "6": -8.025007086809898,
        "7": -8.018890196469751,
        "8": -2.4339980555631135,
        "9": 0.6617716321023481,
        "10": -5.543377680202443,
        "11": -2.322681461671927,
        "12": -1.1409130155665026,
        "13": -0.7938818180606599,
        "14": 2.69170832580532,
        "15": 4.316943331870715,
        "16": -5.8057199370671775
      },
      "4.88": {
        "0": 2.033251097160657,
        "1": 6.276126833340583,
        "2": 2.141877602060882,
        "3": 3.7424720738693296,
        "4": -5.434838011842825,
        "5": -1.7916406989522016,
        "6": -7.92838836917441,
        "7": -7.938834871813915,
        "8": -2.436442812050943,
        "9": 0.5137230366486722,
        "10": -5.217741101845408,
        "11": -2.3212422946012445,
        "12": -0.9518007717794874,
        "13": -0.6336474102073941,
        "14": 2.630633963103568,
        "15": 4.141496956514978,
        "16": -5.488996792579693
      },
      "4.91": {
        "0": 1.6435707801177257,
        "1": -1.4133998169956938,
        "2": 2.159180794770066,
        "3": 3.71823639762352,
        "4": -5.646761076226725,
        "5": -1.8297763894087105,
        "6": -8.03563016411577,
        "7": -7.9817406989115,
        "8": -2.4452632654634265,
        "9": 0.49083078959737403,
        "10": -5.444114515388787,
        "11": -2.336378613881851,
        "12": -1.1580050282309795,
        "13": -0.7859057599204133,
        "14": 2.6576367964258774,
        "15": 4.116423510844025,
        "16": -5.700501472763353
      },
      "4.93": {
        "0": 3.3101496148243736,
        "1": -1.2021741396417638,
        "2": 2.160413816992346,
        "3": 3.9798643220753327,
        "4": -5.582176547824124,
        "5": -1.8161039734609474,
        "6": -8.061572328741972,
        "7": -8.021657592282539,
        "8": -2.4736454177221257,
        "9": 0.6830479481630292,
        "10": -5.398284517811447,
        "11": -2.356642526635755,
        "12": -1.048746787543453,
        "13": -0.6914577181473036,
        "14": 2.6616484663579465,
        "15": 4.3946873177054036,
        "16": -5.635990895469334
      }
    },
    "cost_pair": {
      "3.5": -7.4733513892786485,
      "5.6": -7.9027373929763005,
      "6.9": -7.8793325147412,
      "6.11": -7.894575289994199,
      "4.8": -7.971195040061652,
      "4.3": -7.849842075365809,
      "5.1": -7.959859364113164,
      "4.76": -7.907782886812386,
      "4.95": -7.995384573757757,
      "4.94": -8.018890196469751,
      "4.88": -7.938834871813915,
      "4.91": -7.9817406989115,
      "4.93": -8.021657592282539
    },
    "proxy_result": {
      "final_k": "4.93",
      "bd_rate_data": {
        "0": 1.935985573543887,
        "1": -6.632078815180484,
        "2": 2.984532587301625,
        "3": 10.631399883363478,
        "4": -4.540727628313368,
        "5": 0.7961604708773828,
        "6": -5.028754129777546,
        "7": -4.767979341450057,
        "8": -0.9788766876854038,
        "9": 9.443046722629788,
        "10": -3.178230899076462,
        "11": -0.5188303015026374,
        "12": 0.604241224019586,
        "13": 1.0998977341191152,
        "14": 3.5737545542109617,
        "15": 11.376731393676653,
        "16": -4.50052251385753
      },
      "cost_pair": {
        "4.93": -4.767979341450057
      }
    }
  },
  "svt_smoke_sauna_3840x2160_50_10bit_420p.y4m": {
    "brent_data": [
      0.4198256457381892,
      -1.5478594945429025,
      0,
      24
    ],
    "total_encodes": 10,
    "bd_rate_data": {
      "3.5": {
        "0": -0.8697684516157874,
        "1": -0.3717033853726215,
        "2": -1.5083693391719222,
        "3": 0.5712346753370179,
        "4": 5.0010719575760865,
        "5": 3.097076861629988,
        "6": 2.1968383806897807,
        "7": 1.1925096424650894,
        "8": -1.2258994925486988,
        "9": 1.0024276258275622,
        "10": 4.777753767134896,
        "11": -1.0212569358405976,
        "12": -2.2085471814381585,
        "13": -2.232802662167832,
        "14": -1.5968187368368914,
        "15": 0.5252525401957309,
        "16": 5.032239528485594
      },
      "5.6": {
        "0": 0.8677191141513847,
        "1": 10.946236358509221,
        "2": -0.5524460079229354,
        "3": 2.0758465732441334,
        "4": 7.80143487466638,
        "5": 5.517966587657197,
        "6": 4.8505876364205,
        "7": 3.468828069834373,
        "8": -0.1464586588986183,
        "9": 2.5988390817937246,
        "10": 7.307461290760964,
        "11": 0.10595171976519602,
        "12": -1.8208509618563573,
        "13": -1.7300684215951434,
        "14": -0.6264259838823727,
        "15": 2.0635240062543803,
        "16": 7.909370101826818
      },
      "2.2": {
        "0": -0.17639398556901537,
        "1": 0.46921699505496517,
        "2": -1.5037623336029537,
        "3": -0.1824790875936566,
        "4": 2.0766500300676505,
        "5": 1.1726751461972773,
        "6": 0.5623676383166076,
        "7": 0.06352905055821978,
        "8": -1.3593437702772881,
        "9": 0.0740259062153914,
        "10": 1.7025334254333169,
        "11": -1.2544808911428729,
        "12": -1.7696152857866965,
        "13": -1.8168802205346224,
        "14": -1.5684033009027543,
        "15": -0.21092455249817066,
        "16": 2.088233600311762
      },
      "1.4": {
        "0": -0.022912740369356935,
        "1": -4.671142059493007,
        "2": -0.810245419250677,
        "3": -0.24168064315558402,
        "4": 0.8712919053798229,
        "5": 0.13715948522619037,
        "6": 0.05792557787527297,
        "7": -0.060711111529720974,
        "8": -0.7275280972096843,
        "9": -0.27802106804214466,
        "10": 0.6936994274898911,
        "11": -0.6853648298844606,
        "12": -1.0030951218944595,
        "13": -1.0321081949949296,
        "14": -0.844088676126109,
        "15": -0.256131924116354,
        "16": 0.8736989926893202
      },
      "1.57": {
        "0": -0.3554907419812829,
        "1": -2.1128461162647034,
        "2": -0.8841909222747302,
        "3": -0.7828887826227038,
        "4": 1.0830080636588635,
        "5": 0.15997812731172179,
        "6": 0.2323546408964594,
        "7": 0.04362151875814124,
        "8": -0.7844748230838361,
        "9": -0.616792351976414,
        "10": 0.691102370249963,
        "11": -0.7548628750301156,
        "12": -1.104888711175167,
        "13": -1.1988470323603506,
        "14": -0.9223469661743366,
        "15": -0.8104580904788383,
        "16": 1.0851171727357167
      },
      "0.9": {
        "0": -0.3787358502955024,
        "1": -4.400024854490281,
        "2": -0.060760901271683654,
        "3": 0.33366092098106037,
        "4": 0.13063153303072284,
        "5": -0.09422236182283772,
        "6": -0.2147620937239969,
        "7": -0.21924239821827785,
        "8": -0.02843845773727871,
        "9": 0.12041423560420483,
        "10": -0.12543729294626216,
        "11": -0.026463630495376922,
        "12": -0.08222766276154703,
        "13": 0.0027793700722700265,
        "14": -0.058957048686480995,
        "15": 0.3565901323594911,
        "16": 0.15070495365931968
      },
      "0.77": {
        "0": 0.021536379910925413,
        "1": -14.913006490110476,
        "2": 0.08789520847347632,
        "3": 0.7879248294371255,
        "4": -0.10034062509877151,
        "5": 0.0011183837675288189,
        "6": -0.39111583118449644,
        "7": -0.476045448392326,
        "8": 0.25213764912421777,
        "9": 0.5038033749325654,
        "10": -0.3712480650261196,
        "11": 0.24781729365619398,
        "12": 0.7161799104796751,
        "13": 0.6887299392828394,
        "14": 0.10887799311554147,
        "15": 0.794440248815631,
        "16": -0.09114611669108763
      },
      "0.51": {
        "0": 0.7016939761197072,
        "1": 6.511330690632463,
        "2": 0.05231440105748497,
        "3": 3.0710160325653213,
        "4": 1.1120314235208095,
        "5": 0.3754852961881605,
        "6": -0.7615332383614781,
        "7": -1.453857492422772,
        "8": 0.8494872014052746,
        "9": 2.3847337491746945,
        "10": 0.6322578830446846,
        "11": 0.901333768673318,
        "12": 2.7901121740012247,
        "13": 2.8063483259595845,
        "14": 0.14452870322478883,
        "15": 3.1136871807387445,
        "16": 1.1636341557201835
      },
      "0.36": {
        "0": 2.7567098238085075,
        "1": -2.499054991920531,
        "2": 0.9195154332430011,
        "3": 5.11223014299429,
        "4": 2.552448173040789,
        "5": 1.073755682393207,
        "6": -0.49058130142057843,
        "7": -1.4948178963689163,
        "8": 2.1465064858305016,
        "9": 3.889668294141946,
        "10": 1.7439871756452119,
        "11": 2.202725922240245,
        "12": 5.159395706218106,
        "13": 5.231180660911083,
        "14": 1.0699182470734092,
        "15": 5.188563994212014,
        "16": 2.6186409922486
      },
      "0.42": {
        "0": 1.2955431222445828,
        "1": -13.895332582582546,
        "2": 0.41785025652001373,
        "3": 4.06800101474134,
        "4": 1.8167343594118313,
        "5": 0.7583568252865103,
        "6": -0.7091138791838314,
        "7": -1.5478594945429025,
        "8": 1.4634384091093855,
        "9": 3.0575028037558516,
        "10": 1.0583682595196597,
        "11": 1.5118250416025214,
        "12": 3.984878305387407,
        "13": 4.098349984209815,
        "14": 0.5411124285986224,
        "15": 4.130927530869277,
        "16": 1.870947171024473
      }
    },
    "cost_pair": {
      "3.5": 1.1925096424650894,
      "5.6": 3.468828069834373,
      "2.2": 0.06352905055821978,
      "1.4": -0.060711111529720974,
      "1.57": 0.04362151875814124,
      "0.9": -0.21924239821827785,
      "0.77": -0.476045448392326,
      "0.51": -1.453857492422772,
      "0.36": -1.4948178963689163,
      "0.42": -1.5478594945429025
    },
    "proxy_result": {
      "final_k": "0.42",
      "bd_rate_data": {
        "0": 0.4872328071799424,
        "1": -1.7334926678471505,
        "2": 2.7439662948964605,
        "3": 3.7566741275304905,
        "4": 2.4774496865149764,
        "5": 0.843511888579096,
        "6": 4.176196492843687,
        "7": 0.16261701855599942,
        "8": 2.808060552894709,
        "9": 3.251760683820426,
        "10": 1.833669654859782,
        "11": 2.7974149644139468,
        "12": 5.714648330835281,
        "13": 5.783585379289602,
        "14": 2.8685343385128403,
        "15": 3.819396815111187,
        "16": 2.532977493590449
      },
      "cost_pair": {
        "0.42": 0.16261701855599942
      }
    }
  },
  "svt_waterfall_3840x2160_50_10bit_420p.y4m": {
    "brent_data": [
      3.4807061446279515,
      -2.46111347809711,
      1,
      25
    ],
    "total_encodes": 11,
    "bd_rate_data": {
      "3.5": {
        "0": -0.5455478966783558,
        "1": 0.2512338307421196,
        "2": -0.9063536633297509,
        "3": 19.678483124034464,
        "4": 41.78814646561078,
        "5": 4.279483912196569,
        "6": -3.5211776985136,
        "7": -2.453402339496369,
        "8": -3.1456708847044768,
        "9": 20.69468436023696,
        "10": 43.6745762283206,
        "11": -2.6349130753161143,
        "12": -4.10492031476738,
        "13": -4.0731772176906045,
        "14": -1.5452590262242216,
        "15": 19.781666851701353,
        "16": 42.02798472039362
      },
      "5.6": {
        "0": 1.2904502900313812,
        "1": 5.84650231048525,
        "2": 0.03864202350709611,
        "3": 27.035911296315128,
        "4": 35.16647998677988,
        "5": 5.244981809422766,
        "6": -3.2344175483842386,
        "7": -1.861488466408756,
        "8": -2.701070997083621,
        "9": 28.77864933370644,
        "10": 38.05515765967191,
        "11": -2.1192347418787394,
        "12": -3.8933477210592926,
        "13": -3.8809565082137842,
        "14": -0.7631169959537165,
        "15": 27.409691460212592,
        "16": 35.49196785795654
      },
      "2.2": {
        "0": -0.21265908478606468,
        "1": -2.4687706337688944,
        "2": -1.2333629290371295,
        "3": 10.581017687232318,
        "4": 25.68523751722067,
        "5": 1.9969870283575109,
        "6": -2.945421929322889,
        "7": -2.24892492132045,
        "8": -2.6950381841060578,
        "9": 10.469527134574431,
        "10": 25.89302149445196,
        "11": -2.4020625330231526,
        "12": -3.4478174462656774,
        "13": -3.385829060373513,
        "14": -1.6117641299881469,
        "15": 10.564096416785729,
        "16": 25.73015776506631
      },
      "3.46": {
        "0": -0.07935269794542618,
        "1": -3.182093441060253,
        "2": -0.931532512264932,
        "3": 19.789505246866756,
        "4": 40.942218772865345,
        "5": 4.345959860196347,
        "6": -3.5005227759903224,
        "7": -2.4344630422783453,
        "8": -3.1621410718623455,
        "9": 20.952513157886376,
        "10": 42.700078764236004,
        "11": -2.6558012303667833,
        "12": -4.278878516978136,
        "13": -4.229676743455856,
        "14": -1.561898051455013,
        "15": 19.890396498511876,
        "16": 41.216547910071434
      },
      "4.3": {
        "0": -0.13244547121784736,
        "1": -4.4383796015123025,
        "2": -0.5042667685688729,
        "3": 22.792519046471725,
        "4": 41.32829213592921,
        "5": 4.743546271145527,
        "6": -3.4358999747248986,
        "7": -2.1957106902970924,
        "8": -2.987335053911544,
        "9": 24.04586042082981,
        "10": 43.269584887335164,
        "11": -2.4491253181484263,
        "12": -4.142480553769101,
        "13": -4.108333823909527,
        "14": -1.236386361614672,
        "15": 22.984880906562633,
        "16": 41.61867217591377
      },
      "3.81": {
        "0": -0.6322341199341208,
        "1": -3.7963500206893306,
        "2": -0.7373739743936181,
        "3": 20.779932136835576,
        "4": 42.44167666174907,
        "5": 4.419194093047185,
        "6": -3.501877268771425,
        "7": -2.3434755940465624,
        "8": -3.080839356029552,
        "9": 22.079806029656957,
        "10": 44.89365816833018,
        "11": -2.5467510613618294,
        "12": -4.159365454253305,
        "13": -4.1142646818444035,
        "14": -1.4141482176605047,
        "15": 20.918414737097415,
        "16": 42.738006436248924
      },
      "3.58": {
        "0": 0.5119373049186939,
        "1": -0.012048755655960624,
        "2": -0.8819075893180206,
        "3": 20.39357414167897,
        "4": 42.74191965413101,
        "5": 4.500578235340003,
        "6": -3.5595817009582476,
        "7": -2.44285206738476,
        "8": -3.159911412201599,
        "9": 21.533161354852282,
        "10": 44.557653681982835,
        "11": -2.639392621505654,
        "12": -4.201133295953719,
        "13": -4.184063008993865,
        "14": -1.5344057220467167,
        "15": 20.51593468100801,
        "16": 43.036863463655564
      },
      "3.53": {
        "0": -1.0908020092308677,
        "1": -7.736165782860457,
        "2": -0.9062682970436553,
        "3": 19.940434742944426,
        "4": 43.069724288120746,
        "5": 4.294380485012184,
        "6": -3.553872112744061,
        "7": -2.441672260268468,
        "8": -3.1503672221131485,
        "9": 20.992273676870887,
        "10": 45.01535676738615,
        "11": -2.6336331221967657,
        "12": -4.209065495349751,
        "13": -4.150818296348158,
        "14": -1.5456437859398209,
        "15": 20.05408615531823,
        "16": 43.353359996112694
      },
      "3.48": {
        "0": -1.1544117380782108,
        "1": -9.15560343760245,
        "2": -0.9098236124516101,
        "3": 19.91926439396665,
        "4": 43.454227756603395,
        "5": 4.2707441504688415,
        "6": -3.5542020678561936,
        "7": -2.46111347809711,
        "8": -3.1505552685064386,
        "9": 20.986476004228514,
        "10": 45.23316963200015,
        "11": -2.6338088531322357,
        "12": -4.237799999746327,
        "13": -4.1863136423133,
        "14": -1.5433373548410678,
        "15": 20.02499843047214,
        "16": 43.78976648726225
      },
      "3.47": {
        "0": -0.6961449710522651,
        "1": -7.430138396072321,
        "2": -0.9088915321552871,
        "3": 19.7902419865418,
        "4": 41.7670109902893,
        "5": 4.25142095992721,
        "6": -3.4815359929885714,
        "7": -2.4213330639154096,
        "8": -3.104708368191267,
        "9": 20.793438504314963,
        "10": 43.47326789612369,
        "11": -2.5998339758413924,
        "12": -4.1923707264428405,
        "13": -4.141495843299536,
        "14": -1.5408313504287952,
        "15": 19.893964394716292,
        "16": 42.07188062617799
      },
      "3.49": {
        "0": -0.20368900228719863,
        "1": -2.17632472343587,
        "2": -0.9120197022783882,
        "3": 19.99333222788,
        "4": 40.5118861513861,
        "5": 4.063495034277609,
        "6": -3.474414277471738,
        "7": -2.4073729040568037,
        "8": -3.111378794153752,
        "9": 20.94089609231309,
        "10": 42.655443550292496,
        "11": -2.6030856105533795,
        "12": -4.125159599409322,
        "13": -4.085046821952732,
        "14": -1.5432854315090894,
        "15": 20.100888252127923,
        "16": 40.80506949050822
      }
    },
    "cost_pair": {
      "3.5": -2.453402339496369,
      "5.6": -1.861488466408756,
      "2.2": -2.24892492132045,
      "3.46": -2.4344630422783453,
      "4.3": -2.1957106902970924,
      "3.81": -2.3434755940465624,
      "3.58": -2.44285206738476,
      "3.53": -2.441672260268468,
      "3.48": -2.46111347809711,
      "3.47": -2.4213330639154096,
      "3.49": -2.4073729040568037
    },
    "proxy_result": {
      "final_k": "3.48",
      "bd_rate_data": {
        "0": -0.8596699551790496,
        "1": -4.713204299699721,
        "2": -0.6478205788005731,
        "3": 15.25557699326885,
        "4": 16.58060757094397,
        "5": 4.580718477715817,
        "6": -3.570606742197935,
        "7": -1.6058145081798147,
        "8": -1.8977151977418116,
        "9": 16.378084579388187,
        "10": 20.54643387936732,
        "11": -1.504706197092165,
        "12": -2.5106309915864378,
        "13": -2.346771527961844,
        "14": -1.098468903019878,
        "15": 15.465111008485577,
        "16": 16.641081952449134
      },
      "cost_pair": {
        "3.48": -1.6058145081798147
      }
    }
  },
  "svt_water_flyover_3840x2160_50_10bit_420p.y4m": {
    "brent_data": [
      0.6797375697722324,
      -0.6691979328102726,
      1,
      25
    ],
    "total_encodes": 11,
    "bd_rate_data": {
      "3.5": {
        "0": 2.231111095882281,
        "1": -12.19382986845298,
        "2": 3.353312385449203,
        "3": 57.31159957066079,
        "4": NaN,
        "5": 20.56443900959568,
        "6": 20.015377589797502,
        "7": 19.5941737091027,
        "8": 7.727246344240024,
        "9": 59.729969360385596,
        "10": NaN,
        "11": 8.050369875164542,
        "12": 2.2059174559629913,
        "13": 1.876690576867146,
        "14": 2.456709096698617,
        "15": 53.863564393190046,
        "16": NaN
      },
      "5.6": {
        "0": 4.219635934284237,
        "1": -3.2591260129895385,
        "2": 7.924972289536769,
        "3": 44.109547225384894,
        "4": NaN,
        "5": 24.237863862824405,
        "6": 36.09348239615684,
        "7": 33.45604450161397,
        "8": 15.903380570947512,
        "9": 46.62115140125369,
        "10": NaN,
        "11": 16.16021682255029,
        "12": 8.663727810089439,
        "13": 8.266453221746017,
        "14": 7.295192138879503,
        "15": 41.06644137052324,
        "16": NaN
      },
      "2.2": {
        "0": 1.0630389516452015,
        "1": -5.146176255531622,
        "2": 0.3170687462881183,
        "3": 54.06111620539944,
        "4": NaN,
        "5": 14.258406443230909,
        "6": 7.50281999618001,
        "7": 8.087697230299916,
        "8": 1.9563626362391062,
        "9": 54.64707540675735,
        "10": NaN,
        "11": 2.2350937088445155,
        "12": -1.3389153537713527,
        "13": -1.5711261152041023,
        "14": -0.3019914663908052,
        "15": 51.14082477245516,
        "16": NaN
      },
      "1.4": {
        "0": 0.7798723804010385,
        "1": -4.005882399694961,
        "2": -0.6274186272634208,
        "3": 25.153562466170598,
        "4": NaN,
        "5": 5.810064510583235,
        "6": 1.4390600333388903,
        "7": 1.8209983095614168,
        "8": -0.2742562729824982,
        "9": 24.855479819981486,
        "10": NaN,
        "11": -0.1409188354163482,
        "12": -1.5915495853805472,
        "13": -1.648405047884316,
        "14": -0.8813646309905776,
        "15": 23.62058176540074,
        "16": NaN
      },
      "0.9": {
        "0": -0.026560358766787442,
        "1": -4.002981838289118,
        "2": 0.3484109837614824,
        "3": -4.475278992716247,
        "4": NaN,
        "5": -1.0632702241593406,
        "6": 0.03612438352775804,
        "7": -0.14127545209561276,
        "8": 0.3115918723561206,
        "9": -4.417473916251257,
        "10": NaN,
        "11": 0.281595603753626,
        "12": 1.0014834041968124,
        "13": 0.9927871151507395,
        "14": 0.4083627982247817,
        "15": -4.186299851061492,
        "16": NaN
      },
      "0.48": {
        "0": 0.5029055245804709,
        "1": -8.066397390428365,
        "2": 2.9904440011305544,
        "3": -20.191316194086873,
        "4": NaN,
        "5": -4.7396724895525155,
        "6": 0.6665601932904552,
        "7": -0.18844400932160887,
        "8": 2.8026756773414485,
        "9": -19.975383695037372,
        "10": NaN,
        "11": 2.6547184495069764,
        "12": 4.966302774196185,
        "13": 5.088383772272187,
        "14": 3.3860559008992652,
        "15": -19.230091374745662,
        "16": NaN
      },
      "0.68": {
        "0": 0.5314854068311168,
        "1": 0.6392153223750868,
        "2": 1.277707434676989,
        "3": -12.849765845565031,
        "4": NaN,
        "5": -3.2564585860294204,
        "6": -0.2664526212070695,
        "7": -0.6691979328102726,
        "8": 1.0855008363650276,
        "9": -12.822625308240266,
        "10": NaN,
        "11": 0.9943794323734156,
        "12": 2.2360574644443743,
        "13": 2.321725840301192,
        "14": 1.490130419900093,
        "15": -12.219435117330002,
        "16": NaN
      },
      "0.69": {
        "0": -0.03466540527840012,
        "1": 2.39195383346399,
        "2": 1.2607132824183687,
        "3": -13.301829356107186,
        "4": NaN,
        "5": -3.2584325592685204,
        "6": -0.07579665752253106,
        "7": -0.5258649430382789,
        "8": 1.1462673401730683,
        "9": -13.20559059182742,
        "10": NaN,
        "11": 1.05453117299239,
        "12": 2.1573248077803475,
        "13": 2.242083567543207,
        "14": 1.4704491704017775,
        "15": -12.580108290953962,
        "16": NaN
      },
      "0.59": {
        "0": 0.38791701624189867,
        "1": 2.3642203620992035,
        "2": 1.9245439390741303,
        "3": -16.620910328526207,
        "4": NaN,
        "5": -4.125443931598893,
        "6": 0.055367371536751975,
        "7": -0.5279015187788838,
        "8": 1.7275120558520873,
        "9": -16.626424173214005,
        "10": NaN,
        "11": 1.6096065085129174,
        "12": 3.612364029292703,
        "13": 3.687424203543399,
        "14": 2.222302492452166,
        "15": -15.722439311115966,
        "16": NaN
      },
      "0.65": {
        "0": 0.10536617335400056,
        "1": -11.284725134616972,
        "2": 1.5590292333015565,
        "3": -15.958891442092183,
        "4": NaN,
        "5": -3.9877533606029414,
        "6": -0.09080753030619171,
        "7": -0.5655140559280403,
        "8": 1.3516097641511848,
        "9": -15.78860907371289,
        "10": NaN,
        "11": 1.2442942726708317,
        "12": 2.8006853796215037,
        "13": 2.8673538773363205,
        "14": 1.7940985615876537,
        "15": -15.13898037380088,
        "16": NaN
      },
      "0.67": {
        "0": -0.0156166900780089,
        "1": -3.712783406740146,
        "2": 1.3898066382334484,
        "3": -14.784108447971334,
        "4": NaN,
        "5": -3.71304017895987,
        "6": -0.08482277207836342,
        "7": -0.5480292459132285,
        "8": 1.2722766664222673,
        "9": -14.597899814118986,
        "10": NaN,
        "11": 1.1749822284706335,
        "12": 2.630311076778491,
        "13": 2.7082976184239937,
        "14": 1.6240041956853135,
        "15": -13.875462147354533,
        "16": NaN
      }
    },
    "cost_pair": {
      "3.5": 19.5941737091027,
      "5.6": 33.45604450161397,
      "2.2": 8.087697230299916,
      "1.4": 1.8209983095614168,
      "0.9": -0.14127545209561276,
      "0.48": -0.18844400932160887,
      "0.68": -0.6691979328102726,
      "0.69": -0.5258649430382789,
      "0.59": -0.5279015187788838,
      "0.65": -0.5655140559280403,
      "0.67": -0.5480292459132285
    },
    "proxy_result": {
      "final_k": "0.68",
      "bd_rate_data": {
        "0": 0.44909632769310986,
        "1": -2.383979834395434,
        "2": 1.8184657762862821,
        "3": -1.6520620791771856,
        "4": NaN,
        "5": 0.08810020120406659,
        "6": 1.1646980955948516,
        "7": 0.14199013751410305,
        "8": 1.6844310640038884,
        "9": -2.4585602319400546,
        "10": NaN,
        "11": 1.6582004189498845,
        "12": 3.130039845973731,
        "13": 3.124839429938442,
        "14": 2.0311333942342413,
        "15": -1.2791999275675314,
        "16": NaN
      },
      "cost_pair": {
        "0.68": 0.14199013751410305
      }
    }
  }
}