{
  "run_info": {
    "set": "spie-hdr-4k-wipe",
    "run_id": "spie-hdr-4k-wipe-t2-s6_s2_1080p",
    "extra_options": " --color-primaries=bt2020  --transfer-characteristics=smpte2084 --matrix-coefficients=bt2020ncl  --chroma-sample-position=colocated --cpu-used=2 ",
    "qualities": [
      "27",
      "39",
      "49",
      "59",
      "63"
    ],
    "cost_method": "metrics",
    "optimiser_mode": "proxy_opt",
    "lambda_opt": true,
    "tune_type": 2,
    "optimiser_method": "brent",
    "opt_space": "top",
    "slots": 40,
    "work_root": "/home/vbhthi@ad.mee.tcd.ie/av2-ctc/lambda_tune/work_hybrid_slot4/",
    "init_range": [
      1.0,
      1.0
    ],
    "metrics": "MS-SSIM (libvmaf)"
  },
  "wipe_3840x2160_5994_10bit_420_881-1011.y4m": {
    "brent_data": [
      7.798060437183784,
      1.3114506291059813,
      1,
      25
    ],
    "total_encodes": 13,
    "bd_rate_data": {
      "3.5": {
        "0": -6.5854046204077115,
        "1": -8.676890445328734,
        "2": 2.119777502537934,
        "3": 13.456032869796864,
        "4": 10.297290949568772,
        "5": 6.6680258925511104,
        "6": 1.3280866566478533,
        "7": 1.629536390368025,
        "8": 1.2019650682075333,
        "9": 11.940828960302753,
        "10": 11.081736153620048,
        "11": 1.6789780086786665,
        "12": 2.1852604344681614,
        "13": 1.9953096893142952,
        "14": 1.817710139512707,
        "15": 13.658048423540414,
        "16": 10.707069094105858
      },
      "5.6": {
        "0": 0.783777950234987,
        "1": -3.438589840824634,
        "2": 2.385222244864371,
        "3": 13.330645723558042,
        "4": 11.111689083926324,
        "5": 6.745206751888055,
        "6": 1.2004894312644065,
        "7": 1.5242400541129797,
        "8": 1.5616695588611007,
        "9": 11.81826380493658,
        "10": 11.791733730903875,
        "11": 2.013973269244995,
        "12": 1.5305288393783645,
        "13": 1.6085503521089395,
        "14": 2.4280991680169173,
        "15": 13.819285081881594,
        "16": 11.82550814410801
      },
      "6.9": {
        "0": -3.02142722610421,
        "1": 6.877446196483247,
        "2": 2.497071163907605,
        "3": 13.675287663935931,
        "4": 10.798199668245424,
        "5": 6.852640600792537,
        "6": 1.3261639693294747,
        "7": 1.498240287593755,
        "8": 1.7534504805460038,
        "9": 12.134809972324145,
        "10": 11.334946596952244,
        "11": 2.1865460151966554,
        "12": 1.369113851014947,
        "13": 1.514816313575662,
        "14": 2.8050541493765735,
        "15": 14.389463435333383,
        "16": 11.75307307643112
      },
      "7.38": {
        "0": -3.3252399216498243,
        "1": 8.20929789557255,
        "2": 2.4218909348250994,
        "3": 13.231915988844545,
        "4": 10.362867267998222,
        "5": 6.600203774562763,
        "6": 1.1405672810512746,
        "7": 1.3856274426365056,
        "8": 1.699424835210639,
        "9": 11.795470046291022,
        "10": 10.818338003936745,
        "11": 2.120988074760599,
        "12": 1.4451509678299557,
        "13": 1.509498073409965,
        "14": 2.8316070459460496,
        "15": 14.014541626089127,
        "16": 11.351986163031725
      },
      "8.0": {
        "0": -2.6013825290177306,
        "1": 2.740178274958415,
        "2": 2.4621406380461286,
        "3": 13.046764293103074,
        "4": 10.563729831515678,
        "5": 6.691029116430114,
        "6": 1.2184206057664682,
        "7": 1.383958724895984,
        "8": 1.7559917800416436,
        "9": 11.696053415230189,
        "10": 11.06168567750425,
        "11": 2.1746599315211723,
        "12": 1.0381766857262331,
        "13": 1.2617470609033177,
        "14": 2.9880982367311404,
        "15": 13.9328642838483,
        "16": 11.669209860001018
      },
      "7.7": {
        "0": -2.5415192631511188,
        "1": -1.280927525039655,
        "2": 2.362814836879812,
        "3": 13.196681859900572,
        "4": 10.530435414199424,
        "5": 6.525389925547742,
        "6": 1.085633638695671,
        "7": 1.3311174648343416,
        "8": 1.6293364817988154,
        "9": 11.935595790631615,
        "10": 10.951121970697852,
        "11": 2.066420934763191,
        "12": 0.977324652795275,
        "13": 1.1848224221578496,
        "14": 2.840263443407731,
        "15": 14.06189034474723,
        "16": 11.626224655304206
      },
      "7.69": {
        "0": -5.5667944221798535,
        "1": 0.5271700617419719,
        "2": 2.3668886844448345,
        "3": 12.884229223057474,
        "4": 11.22962462596282,
        "5": 6.679195560269435,
        "6": 1.136743476284563,
        "7": 1.3324037911203623,
        "8": 1.6589549140145987,
        "9": 11.420814418920422,
        "10": 11.57000693326431,
        "11": 2.0862526377871893,
        "12": 1.2217013745560612,
        "13": 1.4076623205746541,
        "14": 2.853618816551684,
        "15": 13.750912527792547,
        "16": 12.384886166454589
      },
      "7.79": {
        "0": -2.6825386777255056,
        "1": -10.542177307912102,
        "2": 2.405310913935499,
        "3": 12.542673647701363,
        "4": 10.689430262172174,
        "5": 6.5181107677312555,
        "6": 1.10658093877678,
        "7": 1.3221265781021563,
        "8": 1.645180767796317,
        "9": 11.241575218241206,
        "10": 11.217305255474862,
        "11": 2.0634496950171277,
        "12": 1.2128921917741842,
        "13": 1.414836338940595,
        "14": 2.9183890281204494,
        "15": 13.421579195698442,
        "16": 11.827042351156702
      },
      "7.87": {
        "0": -1.670995082536465,
        "1": 5.875710511472878,
        "2": 2.4910289854785717,
        "3": 12.677218373739896,
        "4": 10.88918191986632,
        "5": 6.456963461049203,
        "6": 1.334341481183965,
        "7": 1.4958385726693502,
        "8": 1.7637989141195742,
        "9": 11.220056166214887,
        "10": 11.475543071432014,
        "11": 2.181954591924762,
        "12": 1.545131130177868,
        "13": 1.7157980148175156,
        "14": 3.0079490645567475,
        "15": 13.56162341048266,
        "16": 12.013320599648925
      },
      "7.77": {
        "0": 0.7590148959104824,
        "1": -2.311890367587294,
        "2": 2.4191278882170764,
        "3": 13.017718288720982,
        "4": 11.287063991089052,
        "5": 6.969605708007687,
        "6": 1.2511323704806454,
        "7": 1.3853273659587106,
        "8": 1.7168242989887172,
        "9": 11.531421367381633,
        "10": 11.695595585948592,
        "11": 2.145276082184311,
        "12": 1.4736026458527007,
        "13": 1.5955348401895941,
        "14": 2.912305825139616,
        "15": 13.876913716736428,
        "16": 12.34020322211078
      },
      "7.82": {
        "0": -3.033759791934756,
        "1": 0.0923423343933236,
        "2": 2.4452370429273174,
        "3": 12.981767506896013,
        "4": 11.335961036679777,
        "5": 6.658103687451256,
        "6": 1.2533719997370962,
        "7": 1.383494683964348,
        "8": 1.6592422349322344,
        "9": 11.501483062134543,
        "10": 11.798014542499114,
        "11": 2.0957010032806256,
        "12": 1.4390333244760578,
        "13": 1.5689275170641004,
        "14": 2.9546682888063946,
        "15": 13.87433369951314,
        "16": 12.495500706897577
      },
      "7.81": {
        "0": 1.9712275061893194,
        "1": -4.006272542037371,
        "2": 2.369640132362405,
        "3": 13.114381993321977,
        "4": 11.394659070115498,
        "5": 6.594726631654746,
        "6": 1.2062400191435563,
        "7": 1.3470547425750379,
        "8": 1.666061584501466,
        "9": 11.920300778031923,
        "10": 11.925877843978604,
        "11": 2.1123698962370874,
        "12": 1.3409114026327273,
        "13": 1.4844960921820638,
        "14": 2.870830245069045,
        "15": 14.007789058429431,
        "16": 12.537458015331326
      },
      "7.8": {
        "0": -6.279442641190758,
        "1": -4.504257798635161,
        "2": 2.4172327092381707,
        "3": 13.207852447826141,
        "4": 10.499615493366088,
        "5": 6.832966715461497,
        "6": 1.1370832879306292,
        "7": 1.3114506291059813,
        "8": 1.6141517100656033,
        "9": 11.602531014676497,
        "10": 10.979666959272993,
        "11": 2.0423238311247705,
        "12": 1.0852335579594863,
        "13": 1.3197448848046855,
        "14": 2.9289428553515906,
        "15": 14.083664434984232,
        "16": 11.61730355363455
      }
    },
    "cost_pair": {
      "3.5": 1.629536390368025,
      "5.6": 1.5242400541129797,
      "6.9": 1.498240287593755,
      "7.38": 1.3856274426365056,
      "8.0": 1.383958724895984,
      "7.7": 1.3311174648343416,
      "7.69": 1.3324037911203623,
      "7.79": 1.3221265781021563,
      "7.87": 1.4958385726693502,
      "7.77": 1.3853273659587106,
      "7.82": 1.383494683964348,
      "7.81": 1.3470547425750379,
      "7.8": 1.3114506291059813
    },
    "proxy_result": {
      "final_k": "7.8",
      "bd_rate_data": {
        "0": -2.789057431774088,
        "1": 3.8315495164675673,
        "2": 1.5315131488326639,
        "3": 6.070691428950847,
        "4": 5.7366311261385805,
        "5": 3.405089889426649,
        "6": 0.2516042448325262,
        "7": 0.8804411076036578,
        "8": 1.1394867387129581,
        "9": 5.057517578899162,
        "10": 5.8329091720477955,
        "11": 1.3178429843583972,
        "12": 0.0449988424641834,
        "13": 0.3232850846544233,
        "14": 1.4202153262470096,
        "15": 6.696834435139376,
        "16": 6.944564908699391
      },
      "cost_pair": {
        "7.8": 0.8804411076036578
      }
    }
  },
  "wipe_3840x2160_5994_10bit_420_1747-1877.y4m": {
    "brent_data": [
      3.738645603347521,
      -1.461381870657319,
      1,
      25
    ],
    "total_encodes": 10,
    "bd_rate_data": {
      "3.5": {
        "0": -5.878503637162165,
        "1": -3.9787606731344365,
        "2": -1.1083572222603255,
        "3": 1.1019270673116477,
        "4": 5.818669158787748,
        "5": 0.436877245059053,
        "6": -2.3636420609383535,
        "7": -1.4063456027780252,
        "8": -2.070472418139957,
        "9": 0.15746504483995505,
        "10": 4.994793810597797,
        "11": -1.856861411373667,
        "12": -1.22598963659859,
        "13": -1.4381525914563653,
        "14": -1.6426294404104702,
        "15": 0.755406716067375,
        "16": 5.853859034505993
      },
      "5.6": {
        "0": -4.888060192921688,
        "1": 3.9142904034656603,
        "2": -0.7198396131326557,
        "3": 2.5917172561884527,
        "4": 6.249986376394601,
        "5": 1.2040077261724624,
        "6": -1.7811150441853774,
        "7": -1.1023572629934586,
        "8": -1.5053111509634731,
        "9": 1.578732146889661,
        "10": 4.7949300731635836,
        "11": -1.2818752134922784,
        "12": -0.23689786469937024,
        "13": -0.4211727865949366,
        "14": -0.9970693837195066,
        "15": 2.4606075218513324,
        "16": 6.552488601541384
      },
      "2.2": {
        "0": -1.4910934235098765,
        "1": -3.9597882617279048,
        "2": -1.0461974038149524,
        "3": 0.28924441494986297,
        "4": 3.468691576110472,
        "5": 0.01063791416124893,
        "6": -2.0525788534970113,
        "7": -1.1888596147217267,
        "8": -1.848657109512275,
        "9": -0.5168624542292943,
        "10": 3.2023024804293865,
        "11": -1.7050822948981303,
        "12": -1.387762348389987,
        "13": -1.5856533792674932,
        "14": -1.4943273017137604,
        "15": -0.02212289461682726,
        "16": 3.3269652206669775
      },
      "3.76": {
        "0": -5.768105954422866,
        "1": 0.9459691102132206,
        "2": -1.1489265678622407,
        "3": 1.3556568370060917,
        "4": 7.117197431369182,
        "5": 0.4086276873390693,
        "6": -2.3194738188051844,
        "7": -1.4130669653534267,
        "8": -2.1023277505549554,
        "9": 0.4099406004013151,
        "10": 6.017062606030232,
        "11": -1.8655340517924834,
        "12": -1.2730895257306862,
        "13": -1.483075604147599,
        "14": -1.6740521988477641,
        "15": 1.036377461579363,
        "16": 7.189715066109992
      },
      "3.77": {
        "0": -4.349731816083322,
        "1": -5.417940387763278,
        "2": -1.0854497341796998,
        "3": 1.586486786401764,
        "4": 6.630491039724307,
        "5": 0.5342457133101775,
        "6": -2.2870584517618697,
        "7": -1.365503538062296,
        "8": -2.0659515054844757,
        "9": 0.6032002414980253,
        "10": 5.472349218954342,
        "11": -1.829098838512866,
        "12": -1.1790086253284593,
        "13": -1.3391536662033743,
        "14": -1.608167314983977,
        "15": 1.256207250268493,
        "16": 6.713419062952464
      },
      "3.63": {
        "0": -7.600634000970692,
        "1": 3.897086854936717,
        "2": -1.1113959119934957,
        "3": 1.3294261594244627,
        "4": 5.840066636905306,
        "5": 0.47784637343766256,
        "6": -2.3088989967635642,
        "7": -1.392283796686311,
        "8": -2.1059580878840523,
        "9": 0.2860096354101005,
        "10": 4.993660211833939,
        "11": -1.8831191840137151,
        "12": -1.196639296779034,
        "13": -1.3931189836473235,
        "14": -1.6414288040699554,
        "15": 0.9924437221450422,
        "16": 5.886864768273359
      },
      "3.71": {
        "0": -4.851126086070965,
        "1": -3.6379359229409256,
        "2": -1.1004710874465973,
        "3": 1.5016581250165695,
        "4": 6.859552910115907,
        "5": 0.5667673308410226,
        "6": -2.347643543943856,
        "7": -1.3909829459011758,
        "8": -2.103982404033966,
        "9": 0.3810482402040849,
        "10": 5.770282128291071,
        "11": -1.8651677693344415,
        "12": -1.1695042379967213,
        "13": -1.3755768657437661,
        "14": -1.6279467946351378,
        "15": 1.1782088243880828,
        "16": 6.912862832574684
      },
      "3.74": {
        "0": -9.9205158773997,
        "1": 1.2361992038070235,
        "2": -1.1673942398068737,
        "3": 1.273988683909577,
        "4": 6.802124273474353,
        "5": 0.39411951853474125,
        "6": -2.4179530078156986,
        "7": -1.461381870657319,
        "8": -2.1374973143912346,
        "9": 0.27550286007309577,
        "10": 5.579209734948631,
        "11": -1.9110386493002562,
        "12": -1.305285911570675,
        "13": -1.4961734806795635,
        "14": -1.69175525768116,
        "15": 0.9480347618253449,
        "16": 6.909827590886652
      },
      "3.73": {
        "0": -0.2704949694037549,
        "1": 6.84908650574699,
        "2": -1.0636533019062533,
        "3": 1.2719366525390408,
        "4": 6.990145381450086,
        "5": 0.4967416223334187,
        "6": -2.2606947465661498,
        "7": -1.342211118949721,
        "8": -2.0123987766637486,
        "9": 0.199120381077611,
        "10": 5.767851953144643,
        "11": -1.7955606171591532,
        "12": -1.001000322065515,
        "13": -1.2448345318769816,
        "14": -1.587934080319009,
        "15": 0.9506466731723506,
        "16": 7.078130727376175
      },
      "3.75": {
        "0": 1.2922977101310429,
        "1": -0.7865711775248547,
        "2": -1.0798617386631015,
        "3": 1.387567053819616,
        "4": 6.478455740797773,
        "5": 0.46824312529265555,
        "6": -2.3704316744623366,
        "7": -1.40145890713681,
        "8": -2.0697106581761937,
        "9": 0.4622126567692453,
        "10": 5.40769843244131,
        "11": -1.8349559551456451,
        "12": -1.1019490059183124,
        "13": -1.3364148932289988,
        "14": -1.6087628831807699,
        "15": 1.057864198896108,
        "16": 6.549653252648402
      }
    },
    "cost_pair": {
      "3.5": -1.4063456027780252,
      "5.6": -1.1023572629934586,
      "2.2": -1.1888596147217267,
      "3.76": -1.4130669653534267,
      "3.77": -1.365503538062296,
      "3.63": -1.392283796686311,
      "3.71": -1.3909829459011758,
      "3.74": -1.461381870657319,
      "3.73": -1.342211118949721,
      "3.75": -1.40145890713681
    },
    "proxy_result": {
      "final_k": "3.74",
      "bd_rate_data": {
        "0": -13.099117999970497,
        "1": -8.408835693338968,
        "2": -1.7506371359163442,
        "3": -0.3320678552525602,
        "4": 5.528249188814227,
        "5": -0.49297323911756674,
        "6": -3.1313773642033693,
        "7": -1.6472486483695148,
        "8": -1.9422710053817904,
        "9": -1.4515460678617087,
        "10": 4.419630760434767,
        "11": -1.8259909791935702,
        "12": -4.062149957027151,
        "13": -3.843931560511493,
        "14": -2.896601062183879,
        "15": -1.3176207658820216,
        "16": 5.3740282740333045
      },
      "cost_pair": {
        "3.74": -1.6472486483695148
      }
    }
  },
  "wipe_3840x2160_5994_10bit_420_2530-2660.y4m": {
    "brent_data": [
      5.597115425481327,
      1.4231974424150806,
      1,
      25
    ],
    "total_encodes": 12,
    "bd_rate_data": {
      "3.5": {
        "0": -10.347440575412977,
        "1": -7.950342414859597,
        "2": 2.316575922806541,
        "3": 4.8399077788551015,
        "4": 6.584767874520803,
        "5": 2.0400763510804776,
        "6": 1.6298647165677416,
        "7": 2.007035181706529,
        "8": 1.5910654451110506,
        "9": 4.757644121477189,
        "10": 6.771166633028125,
        "11": 2.059271855294309,
        "12": 3.153406134967951,
        "13": 3.1028079059329583,
        "14": 2.12508733727812,
        "15": 4.523967184591426,
        "16": 6.85474414991083
      },
      "5.6": {
        "0": -7.8874334304248075,
        "1": 4.9739114046739825,
        "2": 1.4489244179637595,
        "3": 5.644542128136787,
        "4": 7.416125874269519,
        "5": 2.241671881460139,
        "6": 1.3805285100780162,
        "7": 1.4231974424150806,
        "8": 1.401020994553548,
        "9": 5.340360457859639,
        "10": 7.506176537745635,
        "11": 1.9812456583106597,
        "12": 4.682359714796291,
        "13": 4.320390104412364,
        "14": 1.3528355349744503,
        "15": 5.754835230797539,
        "16": 8.376833287279606
      },
      "6.9": {
        "0": -2.4502934612727922,
        "1": -7.7250858357436085,
        "2": 1.460184145792831,
        "3": 5.910291096422626,
        "4": 6.909339340131715,
        "5": 2.4797088115207755,
        "6": 1.7618052769533321,
        "7": 1.755516284184555,
        "8": 1.7665883368510604,
        "9": 5.863159795809492,
        "10": 7.0115738300121855,
        "11": 2.322296603981666,
        "12": 6.012242973667581,
        "13": 5.593501613776253,
        "14": 1.4691162328886787,
        "15": 6.226211707619211,
        "16": 8.335289816496783
      },
      "5.43": {
        "0": -8.920465128738133,
        "1": -4.670774941920901,
        "2": 1.8723608724808605,
        "3": 6.438605316387158,
        "4": 7.186342675743784,
        "5": 3.0234863606537488,
        "6": 1.948009283275609,
        "7": 2.016247884563449,
        "8": 1.7946821573622485,
        "9": 6.4608629152354435,
        "10": 7.2749499926329175,
        "11": 2.401426705487286,
        "12": 4.8430940008144185,
        "13": 4.4587598935936334,
        "14": 1.7710243643214385,
        "15": 6.495071651871442,
        "16": 8.146584630782815
      },
      "6.1": {
        "0": -6.677335704051042,
        "1": -4.370190943788882,
        "2": 1.3178299267905036,
        "3": 6.006180473081413,
        "4": 7.527751128689908,
        "5": 2.066810257783036,
        "6": 1.7801591632808256,
        "7": 1.7420126519075874,
        "8": 1.4601289583538124,
        "9": 5.91529846227441,
        "10": 7.487869312132611,
        "11": 2.079118243665068,
        "12": 4.936362446049647,
        "13": 4.459874331826619,
        "14": 1.2901962421473456,
        "15": 6.134363602009452,
        "16": 8.610217046547497
      },
      "5.79": {
        "0": -6.561942435811366,
        "1": -5.159700064281093,
        "2": 1.5801185078822222,
        "3": 6.8507192047851495,
        "4": 8.405957393612695,
        "5": 2.947871910128863,
        "6": 1.9483883409449732,
        "7": 1.9090857024091301,
        "8": 1.6794424494831706,
        "9": 6.654274069459842,
        "10": 8.294884705092986,
        "11": 2.362914181302145,
        "12": 4.590004828625771,
        "13": 4.09588354088426,
        "14": 1.5140967171617392,
        "15": 6.921082025636216,
        "16": 9.436002669420862
      },
      "5.67": {
        "0": -9.920899140734171,
        "1": 4.959581602851738,
        "2": 2.072766835415374,
        "3": 6.963558626765898,
        "4": 7.655114471040059,
        "5": 3.2431548327462867,
        "6": 2.204808482417886,
        "7": 2.3074984683458366,
        "8": 2.025254862310133,
        "9": 6.800429835571875,
        "10": 7.785910345253932,
        "11": 2.6483587045326162,
        "12": 4.242905166625022,
        "13": 3.9609144381896,
        "14": 1.9977591686345386,
        "15": 7.039822193262779,
        "16": 8.700638400106042
      },
      "5.54": {
        "0": -5.798109547802772,
        "1": 1.7814950068971311,
        "2": 1.996828794845662,
        "3": 5.974215103517011,
        "4": 8.702785836849959,
        "5": 3.027113174162932,
        "6": 1.9737352761454607,
        "7": 2.1583121155109186,
        "8": 1.8810831820826657,
        "9": 5.814701093222907,
        "10": 8.939886493815429,
        "11": 2.5073017801638287,
        "12": 4.852748990479272,
        "13": 4.421190794573215,
        "14": 1.9105335409394852,
        "15": 6.044191286355005,
        "16": 9.690801727652198
      },
      "5.63": {
        "0": -6.843914982602474,
        "1": -5.671400728160344,
        "2": 1.4955720026988528,
        "3": 6.046698563646902,
        "4": 7.390169847753225,
        "5": 2.479875510809104,
        "6": 1.5068173790385053,
        "7": 1.5738634223719794,
        "8": 1.3263246872476708,
        "9": 5.924325536993158,
        "10": 7.487477633096606,
        "11": 1.9591423631602378,
        "12": 4.67449300443934,
        "13": 4.278498840385003,
        "14": 1.4094445072083683,
        "15": 6.054854193567372,
        "16": 8.351793015620812
      },
      "5.58": {
        "0": -8.924224685996837,
        "1": -5.693612339163492,
        "2": 1.7427311129564638,
        "3": 6.309894803358995,
        "4": 7.457683163361795,
        "5": 2.911851941762844,
        "6": 1.91279480005635,
        "7": 1.9184286433076236,
        "8": 1.683276466988315,
        "9": 6.275985172648801,
        "10": 7.595832507773048,
        "11": 2.29803968674811,
        "12": 4.788766613762796,
        "13": 4.410790509198592,
        "14": 1.6692627297311136,
        "15": 6.331824148858334,
        "16": 8.389491655730152
      },
      "5.61": {
        "0": -12.91775352846202,
        "1": -9.556404694874836,
        "2": 2.0818128600375907,
        "3": 6.298790834171286,
        "4": 7.612693364441481,
        "5": 3.1334000373767434,
        "6": 2.11000229414835,
        "7": 2.1603780973961317,
        "8": 1.9713379725658786,
        "9": 6.219418607096605,
        "10": 7.802207877475786,
        "11": 2.561575413573025,
        "12": 5.548193934000412,
        "13": 4.99660668748636,
        "14": 1.9887647911561723,
        "15": 6.348150948283515,
        "16": 8.578305089950323
      },
      "5.59": {
        "0": -8.999513933426737,
        "1": 0.48222283121105686,
        "2": 1.2635588331994185,
        "3": 5.808239566770856,
        "4": 7.315909694615774,
        "5": 2.1473292104491337,
        "6": 1.397931657460716,
        "7": 1.4267655551744918,
        "8": 1.3383210659143163,
        "9": 5.630579204745589,
        "10": 7.390487793163958,
        "11": 1.9438956379635774,
        "12": 4.7371968127432496,
        "13": 4.277880146150537,
        "14": 1.1715276278851494,
        "15": 5.895221579644772,
        "16": 8.322795415406192
      }
    },
    "cost_pair": {
      "3.5": 2.007035181706529,
      "5.6": 1.4231974424150806,
      "6.9": 1.755516284184555,
      "5.43": 2.016247884563449,
      "6.1": 1.7420126519075874,
      "5.79": 1.9090857024091301,
      "5.67": 2.3074984683458366,
      "5.54": 2.1583121155109186,
      "5.63": 1.5738634223719794,
      "5.58": 1.9184286433076236,
      "5.61": 2.1603780973961317,
      "5.59": 1.4267655551744918
    },
    "proxy_result": {
      "final_k": "5.6",
      "bd_rate_data": {
        "0": -13.462669823778784,
        "1": -6.574717282484125,
        "2": 4.130686323940513,
        "3": 8.393463053530814,
        "4": 13.93306259640541,
        "5": 8.149406623540866,
        "6": 6.089337775245007,
        "7": 6.190816911392205,
        "8": 4.3195086702578545,
        "9": 8.546748137779737,
        "10": 14.634613605821233,
        "11": 5.184272536182122,
        "12": 5.384797515179041,
        "13": 5.181470385164055,
        "14": 3.966505024406186,
        "15": 8.286691047656202,
        "16": 15.05486595744847
      },
      "cost_pair": {
        "5.6": 6.190816911392205
      }
    }
  },
  "wipe_3840x2160_5994_10bit_420_3857-3987.y4m": {
    "brent_data": [
      0.5959910904280475,
      -0.35041822185462035,
      1,
      25
    ],
    "total_encodes": 12,
    "bd_rate_data": {
      "3.5": {
        "0": -9.300281529959811,
        "1": -10.127845980025342,
        "2": 1.5940704092455071,
        "3": 3.8252644983466144,
        "4": 9.876688863917238,
        "5": 5.266914963420222,
        "6": 1.4597805532943653,
        "7": 1.7287740667419893,
        "8": 1.1262746788268663,
        "9": 3.0224987541706883,
        "10": 7.566809434701227,
        "11": 1.4204000957110274,
        "12": 1.2003538306448291,
        "13": 1.2565007076941415,
        "14": 1.5021657300184676,
        "15": 3.775379722984029,
        "16": 9.928286691232602
      },
      "5.6": {
        "0": -3.963823657515221,
        "1": -9.123394699594963,
        "2": 2.165744218588328,
        "3": 5.04311511434683,
        "4": 11.816098542434395,
        "5": 7.197555282000767,
        "6": 2.5540578424253946,
        "7": 2.4988316121826726,
        "8": 1.9815553096347083,
        "9": 4.1455599925505515,
        "10": 8.99745481873202,
        "11": 2.306447949963797,
        "12": 2.1576926714403033,
        "13": 2.20029433175597,
        "14": 2.213463106346003,
        "15": 5.241892673782544,
        "16": 12.261907960693108
      },
      "2.2": {
        "0": -2.2304222968973324,
        "1": -9.734999934229197,
        "2": 1.2337901000023965,
        "3": 2.55861986384216,
        "4": 6.845498026291108,
        "5": 3.0006024381997953,
        "6": 0.7243589876177348,
        "7": 1.1869746141891069,
        "8": 0.5560575953058366,
        "9": 1.9242236861604756,
        "10": 5.235041083020597,
        "11": 0.7669652401688376,
        "12": 0.21131258806075248,
        "13": 0.2890173968956189,
        "14": 1.1321675021082278,
        "15": 2.466074363232873,
        "16": 6.78434211065666
      },
      "1.4": {
        "0": -4.482916855945836,
        "1": -2.2247538622362772,
        "2": 0.3610740736181617,
        "3": 1.7427279102818938,
        "4": 3.8919198202170158,
        "5": 1.0083773473047009,
        "6": -0.08275293647767024,
        "7": 0.26943865967354874,
        "8": -0.013098334880679019,
        "9": 1.448994888766686,
        "10": 3.144132552254586,
        "11": 0.15359061098978444,
        "12": -0.6568607453670827,
        "13": -0.502976413384848,
        "14": 0.30981564219390023,
        "15": 1.6900435125464242,
        "16": 3.84698652531692
      },
      "0.9": {
        "0": -6.901680675493359,
        "1": 2.612411368511746,
        "2": -0.34757282679460655,
        "3": -0.7539148032780552,
        "4": -1.5404665985270016,
        "5": -0.6983435965519424,
        "6": -0.09351774086118203,
        "7": -0.27191404081592374,
        "8": -0.19517025901661933,
        "9": -0.5206157097079611,
        "10": -1.3496662295364947,
        "11": -0.24706869961239608,
        "12": -0.7009361461402519,
        "13": -0.5379173572549578,
        "14": -0.3311579989184632,
        "15": -0.7324273325665764,
        "16": -1.5181842803977497
      },
      "0.6": {
        "0": -11.706731733790207,
        "1": -0.9069058945476093,
        "2": -0.34037924405224684,
        "3": -2.9008502535114444,
        "4": -6.792859543148799,
        "5": -1.4764680751483739,
        "6": 0.33671095061951206,
        "7": -0.35041822185462035,
        "8": 0.20720796498958638,
        "9": -1.8099747903543184,
        "10": -5.510530185115625,
        "11": -0.0544975831999972,
        "12": -0.024935730454567206,
        "13": 0.09674491657505335,
        "14": -0.2535308110384271,
        "15": -2.760823158059089,
        "16": -6.655477576544944
      },
      "0.63": {
        "0": -6.906099746474678,
        "1": -8.439344088147994,
        "2": -0.11934744806740838,
        "3": -2.8731793523129046,
        "4": -6.01500113997152,
        "5": -1.318470082011003,
        "6": 0.5033456409103465,
        "7": -0.10091008318405814,
        "8": 0.4219427896200445,
        "9": -1.9103412864735159,
        "10": -5.065965862915533,
        "11": 0.1479493401383536,
        "12": 0.35524333893046656,
        "13": 0.4952729450700799,
        "14": -0.02672024246054283,
        "15": -2.749148566209636,
        "16": -5.885072758964904
      },
      "0.41": {
        "0": -4.255770999496996,
        "1": -5.944927578383399,
        "2": 0.6380737885348653,
        "3": -5.140600158349518,
        "4": -10.814818251408509,
        "5": -1.9174206165618157,
        "6": 1.739611361221849,
        "7": 0.6828127257439975,
        "8": 1.644248439562257,
        "9": -3.4925478747433125,
        "10": -9.077303620177357,
        "11": 1.0756928002799926,
        "12": 1.843751970868035,
        "13": 1.9581701044214972,
        "14": 0.8024037572752274,
        "15": -4.888880903265102,
        "16": -10.62727253755681
      },
      "0.52": {
        "0": -5.2667820025838825,
        "1": -1.0821921672302888,
        "2": -0.14369102239301101,
        "3": -3.62096556326037,
        "4": -8.362344218980255,
        "5": -1.6503661794355362,
        "6": 0.6357201153318837,
        "7": -0.16640836146867288,
        "8": 0.6367969126960915,
        "9": -2.338427791549502,
        "10": -7.06195136402722,
        "11": 0.2595158682137999,
        "12": 0.4648744466357879,
        "13": 0.564918768985101,
        "14": -0.023944102776429776,
        "15": -3.442715677065833,
        "16": -8.22615257349586
      },
      "0.57": {
        "0": -8.696222385994584,
        "1": -4.809311546232049,
        "2": -0.04266270977459907,
        "3": -3.3632763102757424,
        "4": -7.522564236317053,
        "5": -1.6643487476849073,
        "6": 0.8104913189209695,
        "7": 0.0453763745315694,
        "8": 0.6212342350407241,
        "9": -2.2553209316245826,
        "10": -6.039913000196718,
        "11": 0.2872948876950776,
        "12": 0.6662865869893286,
        "13": 0.7557213707610977,
        "14": 0.050229798552337,
        "15": -3.2172812621109825,
        "16": -7.38256258538793
      },
      "0.61": {
        "0": -16.33449888992619,
        "1": -9.727890464152445,
        "2": -0.12096894705111438,
        "3": -2.624642212537187,
        "4": -6.960174622641214,
        "5": -1.3727544443452588,
        "6": 0.5921340030512479,
        "7": -0.08632298885467016,
        "8": 0.4539800854443943,
        "9": -1.4850684841968276,
        "10": -5.535125975878763,
        "11": 0.18501400044985683,
        "12": 0.2261021565266974,
        "13": 0.36002713271652276,
        "14": -0.028406228377719778,
        "15": -2.4958495449967533,
        "16": -6.827923779707701
      },
      "0.59": {
        "0": -0.1819262060417047,
        "1": -15.575409536385878,
        "2": -0.14476828580203271,
        "3": -3.274083221875046,
        "4": -7.0288212095672264,
        "5": -1.6820971556265163,
        "6": 0.557923499334545,
        "7": -0.13140400341243863,
        "8": 0.45229838786222665,
        "9": -2.2293264953780034,
        "10": -5.796884788280343,
        "11": 0.13815203840970014,
        "12": 0.6902797912791581,
        "13": 0.786895922341424,
        "14": -0.04852957135336178,
        "15": -3.1281664414439803,
        "16": -6.919479995799382
      }
    },
    "cost_pair": {
      "3.5": 1.7287740667419893,
      "5.6": 2.4988316121826726,
      "2.2": 1.1869746141891069,
      "1.4": 0.26943865967354874,
      "0.9": -0.27191404081592374,
      "0.6": -0.35041822185462035,
      "0.63": -0.10091008318405814,
      "0.41": 0.6828127257439975,
      "0.52": -0.16640836146867288,
      "0.57": 0.0453763745315694,
      "0.61": -0.08632298885467016,
      "0.59": -0.13140400341243863
    },
    "proxy_result": {
      "final_k": "0.6",
      "bd_rate_data": {
        "0": -13.762912848397995,
        "1": -13.060893230186919,
        "2": 1.067128280985763,
        "3": -2.005391680827029,
        "4": -4.460558145782178,
        "5": -0.8971943666320259,
        "6": 2.1001406969264336,
        "7": 0.7088615216597649,
        "8": 1.233403270501765,
        "9": -1.452042779147944,
        "10": -4.150700545290309,
        "11": 0.8766217228123097,
        "12": 1.7585976138078996,
        "13": 1.7183485169940615,
        "14": 1.217494232864147,
        "15": -1.7563722682026772,
        "16": -4.195320318751817
      },
      "cost_pair": {
        "0.6": 0.7088615216597649
      }
    }
  },
  "wipe_3840x2160_5994_10bit_420_4653-4783.y4m": {
    "brent_data": [
      0.6785333615841418,
      -0.9240985017748282,
      0,
      24
    ],
    "total_encodes": 11,
    "bd_rate_data": {
      "3.5": {
        "0": -0.4631205839394227,
        "1": 1.3306886037436076,
        "2": 6.257123451685165,
        "3": 8.022827303404089,
        "4": 16.04268108891871,
        "5": 12.63075323706342,
        "6": 6.119420551708932,
        "7": 6.391653913525386,
        "8": 5.80408097093128,
        "9": 7.331538307394747,
        "10": 14.37411175036094,
        "11": 6.309892498167513,
        "12": 7.313750069703007,
        "13": 6.771514027163583,
        "14": 6.294371302863344,
        "15": 8.030536088972106,
        "16": 16.265033911591086
      },
      "5.6": {
        "0": -3.1823703425228347,
        "1": -2.0327901320360504,
        "2": 6.762134113221463,
        "3": 8.439564631343144,
        "4": 16.665675041569905,
        "5": 12.519477014821279,
        "6": 6.499814616707278,
        "7": 6.827390844972703,
        "8": 6.510819684757219,
        "9": 7.42871602852424,
        "10": 14.096776248766062,
        "11": 6.924898584933392,
        "12": 7.631750469393328,
        "13": 7.238378454871541,
        "14": 7.059227963813863,
        "15": 8.82340623805986,
        "16": 17.781145867047286
      },
      "2.2": {
        "0": -0.33423280260323124,
        "1": 5.1544813460890255,
        "2": 3.9087880343020798,
        "3": 5.490898627235707,
        "4": 10.285187689435716,
        "5": 5.6112695628629305,
        "6": 3.7279454152943092,
        "7": 3.770002828751684,
        "8": 2.845719639279509,
        "9": 5.034820458218614,
        "10": 9.744923513897131,
        "11": 3.3455913993433395,
        "12": 3.8541089817605956,
        "13": 3.3999400370705812,
        "14": 3.861710486490866,
        "15": 5.443558414197791,
        "16": 10.346095539077037
      },
      "1.4": {
        "0": 1.3196712760486908,
        "1": -1.3575138489193117,
        "2": 1.2527849611114972,
        "3": 1.6584525636474945,
        "4": 3.0947244563772847,
        "5": 0.9209571211620915,
        "6": 0.832943305669076,
        "7": 1.0171249045444197,
        "8": 0.6276584630055204,
        "9": 1.547872980732956,
        "10": 3.058347218005819,
        "11": 0.814301336151102,
        "12": 0.6733705421823499,
        "13": 0.5061421637469143,
        "14": 1.212777035316348,
        "15": 1.6063992305059394,
        "16": 3.1003721214101887
      },
      "0.9": {
        "0": -8.023440631735046,
        "1": 5.120208089231832,
        "2": -0.03252485785060211,
        "3": -0.4050517508582874,
        "4": -0.5126868210413749,
        "5": 0.0011449541349906056,
        "6": 0.09211159260071877,
        "7": -0.021567286600276958,
        "8": 0.14789688287684122,
        "9": -0.3664014276893779,
        "10": -0.5741707070099689,
        "11": 0.067425910271246,
        "12": -0.18945928874675166,
        "13": -0.14340033674566932,
        "14": -0.014407241154967831,
        "15": -0.4053596622589084,
        "16": -0.5145934243292682
      },
      "0.6": {
        "0": -0.6619606757290819,
        "1": 10.63649042467919,
        "2": -0.9114925738468838,
        "3": -2.4568494048074485,
        "4": -4.466924692615571,
        "5": -1.2466469287499615,
        "6": -0.04388267755571773,
        "7": -0.48250190937787485,
        "8": -0.22566766526018744,
        "9": -2.081422123386789,
        "10": -4.1915003186397515,
        "11": -0.5614982541886859,
        "12": -0.8110615703874502,
        "13": -0.6745819806421749,
        "14": -0.8489600004176978,
        "15": -2.394834405239943,
        "16": -4.450810081158519
      },
      "0.41": {
        "0": -2.6322098676603964,
        "1": -6.376000868299328,
        "2": -0.05991275288977915,
        "3": -3.4343978511811035,
        "4": -5.881250903470903,
        "5": -0.7628233611543189,
        "6": 1.064233514859314,
        "7": 0.4626773585453048,
        "8": 1.1444510811072117,
        "9": -2.8520016509700263,
        "10": -5.3647400337270446,
        "11": 0.5043628401927291,
        "12": 1.25882001176858,
        "13": 1.2560524599035894,
        "14": 0.06095246127391096,
        "15": -3.2986613010192234,
        "16": -5.849578024453517
      },
      "0.69": {
        "0": -0.054836349622080886,
        "1": 5.024787250914842,
        "2": -1.1609251906263274,
        "3": -2.186408358819847,
        "4": -2.9991102305339745,
        "5": -1.4976107614774414,
        "6": -0.6270883547055184,
        "7": -0.8556924060984739,
        "8": -0.6571527742309513,
        "9": -1.8921154298024545,
        "10": -2.881695591278066,
        "11": -0.8654990527388939,
        "12": -1.6004712787016317,
        "13": -1.504016245478823,
        "14": -1.12030190115332,
        "15": -2.148677249542963,
        "16": -2.9937697783082307
      },
      "0.72": {
        "0": -8.865782999782684,
        "1": -4.841678612782248,
        "2": -0.6824993294480941,
        "3": -1.6845776539739843,
        "4": -3.2663985672154117,
        "5": -0.9185354999728279,
        "6": -0.2006058664864696,
        "7": -0.4490526901900438,
        "8": -0.24276540972009153,
        "9": -1.3143740045815755,
        "10": -3.2300002007268236,
        "11": -0.46933497312453554,
        "12": -0.7629956303412566,
        "13": -0.7507333662186699,
        "14": -0.6350644658064564,
        "15": -1.647424865567404,
        "16": -3.259162145671657
      },
      "0.66": {
        "0": 0.4220397246671578,
        "1": -7.212202077042422,
        "2": -0.6830093726577724,
        "3": -2.113251838973984,
        "4": -3.768487850032254,
        "5": -0.8281827367156214,
        "6": -0.29787826380497373,
        "7": -0.5571702127613931,
        "8": -0.11073231715275078,
        "9": -1.8869561898625875,
        "10": -3.5852683436454758,
        "11": -0.41996059665487806,
        "12": -1.1465446790123401,
        "13": -1.0286518264706945,
        "14": -0.6346733513476033,
        "15": -2.0645637398961636,
        "16": -3.7550285491658175
      },
      "0.68": {
        "0": -5.709247592418494,
        "1": -9.97401652218658,
        "2": -1.3865212339434163,
        "3": -2.6324106925846857,
        "4": -3.4138647194591254,
        "5": -1.940732477003071,
        "6": -0.6158295164049421,
        "7": -0.9240985017748282,
        "8": -0.7297359493129818,
        "9": -2.4543436288486875,
        "10": -3.3694976756106443,
        "11": -1.0000976507745896,
        "12": -1.092573929391183,
        "13": -0.9873457403961394,
        "14": -1.3427872954996922,
        "15": -2.5910095173115155,
        "16": -3.3962683157006235
      }
    },
    "cost_pair": {
      "3.5": 6.391653913525386,
      "5.6": 6.827390844972703,
      "2.2": 3.770002828751684,
      "1.4": 1.0171249045444197,
      "0.9": -0.021567286600276958,
      "0.6": -0.48250190937787485,
      "0.41": 0.4626773585453048,
      "0.69": -0.8556924060984739,
      "0.72": -0.4490526901900438,
      "0.66": -0.5571702127613931,
      "0.68": -0.9240985017748282
    },
    "proxy_result": {
      "final_k": "0.68",
      "bd_rate_data": {
        "0": -9.759490340588856,
        "1": -14.93529513487069,
        "2": -0.7157770539015451,
        "3": -2.7774209262112715,
        "4": -5.089680356798498,
        "5": -3.5384701307281663,
        "6": -0.3723333893059233,
        "7": -0.7863517901171124,
        "8": -0.34023076872485847,
        "9": -2.5573356119833024,
        "10": -4.9483279945989,
        "11": -0.7434949462970186,
        "12": 0.13765971910382202,
        "13": 0.19996191366460359,
        "14": -0.6384670778030843,
        "15": -2.7030688357592147,
        "16": -5.070328094063714
      },
      "cost_pair": {
        "0.68": -0.7863517901171124
      }
    }
  },
  "wipe_3840x2160_5994_10bit_420_6309-6439.y4m": {
    "brent_data": [
      0.5959863686479359,
      -1.0860066381273903,
      0,
      24
    ],
    "total_encodes": 9,
    "bd_rate_data": {
      "3.5": {
        "0": 1.4016062685052604,
        "1": -9.560944562351825,
        "2": 5.3368660282111735,
        "3": 11.573059315758648,
        "4": 13.876627350609173,
        "5": 9.755078805074934,
        "6": 6.63117227642942,
        "7": 5.971653814580002,
        "8": 5.269147081536851,
        "9": 10.521788067062054,
        "10": 13.764058435744086,
        "11": 6.10232901986929,
        "12": 4.2370064805342,
        "13": 4.326464515006734,
        "14": 5.423510940639931,
        "15": 11.46710485970579,
        "16": 14.031955003587516
      },
      "5.6": {
        "0": -3.723810322345912,
        "1": 0.06997641672564295,
        "2": 7.28107965452911,
        "3": 14.54640438021977,
        "4": 20.050026097222595,
        "5": 13.260508377462532,
        "6": 9.513584547074405,
        "7": 8.734303512681741,
        "8": 7.623349766533605,
        "9": 13.590503013274358,
        "10": 20.134108066418687,
        "11": 8.679451018095975,
        "12": 6.216884955434399,
        "13": 6.50962697653843,
        "14": 7.573209429561079,
        "15": 14.65634685367878,
        "16": 20.57612406355116
      },
      "2.2": {
        "0": 3.281707453441566,
        "1": 4.2431438209653765,
        "2": 4.043835100153337,
        "3": 7.08856443720931,
        "4": 8.560523471164739,
        "5": 5.464936671171605,
        "6": 3.9599245337096356,
        "7": 3.803763446072117,
        "8": 3.4118411021772044,
        "9": 5.8729237775836385,
        "10": 8.327197515831287,
        "11": 3.8291969660304126,
        "12": 3.735010841622133,
        "13": 3.6635446249823955,
        "14": 4.053098773426456,
        "15": 6.954965382654632,
        "16": 8.606547569711974
      },
      "1.4": {
        "0": 3.392712860409591,
        "1": -1.299507964298284,
        "2": 1.1945900786133112,
        "3": 1.9589367810189495,
        "4": 2.8579303750328355,
        "5": 1.1014706937725771,
        "6": 1.2082795713394878,
        "7": 1.128961944647755,
        "8": 0.8325283013826734,
        "9": 1.4207380956340998,
        "10": 2.674934043079391,
        "11": 0.954851072214713,
        "12": 2.1523611906958617,
        "13": 1.9199792946730243,
        "14": 1.1833793559709038,
        "15": 1.876676302154201,
        "16": 2.853939534604888
      },
      "0.9": {
        "0": -9.992125241645367,
        "1": -2.8261527501606314,
        "2": 0.008425431808389838,
        "3": 0.36223393270367055,
        "4": 0.8846764158372933,
        "5": 0.5828872092090043,
        "6": 0.18737494822802514,
        "7": 0.0034120572571794128,
        "8": 0.1044313659601448,
        "9": 0.6653316566355372,
        "10": 1.011484932162099,
        "11": 0.19822071153685616,
        "12": 1.746757859826653,
        "13": 1.6004315333472352,
        "14": 0.00677490508882439,
        "15": 0.36394359798403997,
        "16": 0.8854955900629013
      },
      "0.6": {
        "0": 1.7658278011772728,
        "1": -8.293848147492957,
        "2": -1.1046343564182992,
        "3": -0.9422282283181427,
        "4": -0.5733113335180451,
        "5": 0.2463843309388647,
        "6": -0.6383982363619145,
        "7": -1.0860066381273903,
        "8": -0.31579461826903854,
        "9": -0.15060241952140618,
        "10": -0.5664685350046494,
        "11": -0.3138926134528486,
        "12": -1.2429234276311263,
        "13": -0.8793234726302224,
        "14": -1.0870796217124612,
        "15": -0.8897419949774776,
        "16": -0.6034605261496018
      },
      "0.41": {
        "0": -9.167347751749734,
        "1": -9.646663133857054,
        "2": 0.5023471849999517,
        "3": 1.6435162292199434,
        "4": 2.180337178553793,
        "5": 3.632575419900097,
        "6": 1.6562069733879081,
        "7": 0.754105133046501,
        "8": 1.9359734154589026,
        "9": 3.2419312750736395,
        "10": 2.536696913508485,
        "11": 2.0728080830962003,
        "12": 1.0349296387785367,
        "13": 1.44550563819974,
        "14": 0.5470592669855945,
        "15": 1.757160363674326,
        "16": 2.1742342331253495
      },
      "0.68": {
        "0": -3.8823279007168274,
        "1": -1.6167398154451367,
        "2": -0.5232818903131098,
        "3": -0.3445672972122171,
        "4": 0.03640961812632071,
        "5": 0.7450451452315043,
        "6": -0.3282087759824748,
        "7": -0.6499768915336213,
        "8": 0.01639949221552417,
        "9": 0.4940507762068336,
        "10": 0.17757927460224643,
        "11": 0.06629875635610905,
        "12": -0.5938548764805929,
        "13": -0.36079293865809436,
        "14": -0.509588633243585,
        "15": -0.2912918219685423,
        "16": 0.010559830149703409
      },
      "0.52": {
        "0": -1.6449618139556537,
        "1": -0.2438068917100722,
        "2": -0.5468458349379368,
        "3": -0.7966521497505541,
        "4": 0.2115023970263641,
        "5": 1.1332577031120783,
        "6": -0.12485073306579553,
        "7": -0.6630322044006709,
        "8": 0.4909182132431189,
        "9": 0.4405509338068603,
        "10": 0.4154591416001274,
        "11": 0.47442928807852613,
        "12": -0.5935768275610376,
        "13": -0.11348482261475112,
        "14": -0.5138448542792773,
        "15": -0.7311457311748204,
        "16": 0.17868961535345562
      }
    },
    "cost_pair": {
      "3.5": 5.971653814580002,
      "5.6": 8.734303512681741,
      "2.2": 3.803763446072117,
      "1.4": 1.128961944647755,
      "0.9": 0.0034120572571794128,
      "0.6": -1.0860066381273903,
      "0.41": 0.754105133046501,
      "0.68": -0.6499768915336213,
      "0.52": -0.6630322044006709
    },
    "proxy_result": {
      "final_k": "0.6",
      "bd_rate_data": {
        "0": -7.186808942703009,
        "1": -4.805146867847969,
        "2": -0.31572927204243095,
        "3": 0.0676999145846846,
        "4": -3.02309965685551,
        "5": 0.004698509156786379,
        "6": -0.1703317832328799,
        "7": -0.7644067367690077,
        "8": 0.26364586282381364,
        "9": 0.30358189594132945,
        "10": -3.360024629113978,
        "11": 0.13481368653383008,
        "12": 0.6654813020383621,
        "13": 0.7443028057515733,
        "14": -0.2512727070067111,
        "15": 0.24683434485832656,
        "16": -3.0155902410035296
      },
      "cost_pair": {
        "0.6": -0.7644067367690077
      }
    }
  },
  "wipe_3840x2160_5994_10bit_420_7250-7380.y4m": {
    "brent_data": [
      0.565509904416222,
      -1.1500384361269211,
      0,
      24
    ],
    "total_encodes": 10,
    "bd_rate_data": {
      "3.5": {
        "0": -4.630201371323617,
        "1": -0.7099182857230596,
        "2": 2.637595240061974,
        "3": 4.561997533221307,
        "4": 9.520580817662495,
        "5": 3.784774377265032,
        "6": 2.423668650071731,
        "7": 2.5470127027183542,
        "8": 2.2992659060881104,
        "9": 2.9222178114825637,
        "10": 8.164122808000318,
        "11": 2.548738511976145,
        "12": 2.3350165597753048,
        "13": 2.3652622687495573,
        "14": 2.232735032501587,
        "15": 4.526764609058209,
        "16": 9.215936315273797
      },
      "5.6": {
        "0": -6.250996970156916,
        "1": -14.9927663169569,
        "2": 2.917202863941526,
        "3": 4.249126834140449,
        "4": 9.342893249925588,
        "5": 3.6469661962007294,
        "6": 2.4006570529275573,
        "7": 2.5580728726243063,
        "8": 2.5529507353563963,
        "9": 2.5331964275011387,
        "10": 7.365725942055712,
        "11": 2.705186939911486,
        "12": 2.5122870754685334,
        "13": 2.595105420438637,
        "14": 2.636378436411979,
        "15": 4.473503994912109,
        "16": 9.282612731771511
      },
      "2.2": {
        "0": -8.348339959238434,
        "1": 4.317126062691452,
        "2": 2.209773961782724,
        "3": 3.8718637533900813,
        "4": 7.299453351815655,
        "5": 2.9777515356624207,
        "6": 2.1730671256827705,
        "7": 2.368923295636094,
        "8": 1.8184984493803125,
        "9": 2.7010172475100402,
        "10": 6.404833572165947,
        "11": 2.0451225064487932,
        "12": 1.4978572983880056,
        "13": 1.3995841439213175,
        "14": 1.792017212056951,
        "15": 3.782736232127437,
        "16": 6.973089340096461
      },
      "1.4": {
        "0": -0.8434381314172675,
        "1": -0.5627243011749611,
        "2": 0.7738196348850757,
        "3": 1.6363928250327842,
        "4": 3.546250018594943,
        "5": 0.951125398812458,
        "6": 0.7347870648065857,
        "7": 1.0403107780966536,
        "8": 0.6447431716356089,
        "9": 1.1116676367878497,
        "10": 3.2137240482989826,
        "11": 0.774901554331664,
        "12": 0.014997454045784231,
        "13": 0.0008457488792412704,
        "14": 0.5550837378320628,
        "15": 1.5622202927945805,
        "16": 3.258107084999806
      },
      "0.9": {
        "0": -11.10345479150695,
        "1": -7.270785767495916,
        "2": -0.10701403161624823,
        "3": -0.8617250045097613,
        "4": -0.6884438302788731,
        "5": -0.3042143678570919,
        "6": -0.1799913381576701,
        "7": -0.25183389313974125,
        "8": -0.03388967896038597,
        "9": -0.5645618910185113,
        "10": -0.9177074362408222,
        "11": -0.11686074685898218,
        "12": -0.2906045214469022,
        "13": -0.08071391151284191,
        "14": -0.04043836686046243,
        "15": -0.8363789548984424,
        "16": -0.510668672047887
      },
      "0.6": {
        "0": -4.882190283582958,
        "1": -12.779836774730697,
        "2": -0.4841702686692262,
        "3": -2.801270588649274,
        "4": -4.332800315488194,
        "5": -0.932385238941702,
        "6": -0.5609071073610639,
        "7": -1.021302542281488,
        "8": -0.3814456721994208,
        "9": -1.6986401843257504,
        "10": -4.374435693590584,
        "11": -0.640197781249563,
        "12": 0.09101339369519401,
        "13": 0.4094253586352181,
        "14": -0.1085627906845299,
        "15": -2.681595078330279,
        "16": -3.775071534567087
      },
      "0.41": {
        "0": -2.2584628769828825,
        "1": 2.668532237981492,
        "2": 0.37358830040745694,
        "3": -3.444107130567786,
        "4": -5.420912909840658,
        "5": -0.5859429059471455,
        "6": 0.1604409986466937,
        "7": -0.6403115355779754,
        "8": 0.5087876306062888,
        "9": -1.5666354853975828,
        "10": -5.298509628134951,
        "11": 0.10895526776455444,
        "12": 1.4244960767351822,
        "13": 1.7964070777815477,
        "14": 0.9531078218022238,
        "15": -3.2336706155152384,
        "16": -4.673482531963891
      },
      "0.61": {
        "0": -13.079945895930797,
        "1": -12.8582989273268,
        "2": -0.3301523948443297,
        "3": -2.6194276074527623,
        "4": -4.072645384354345,
        "5": -0.9063213196882414,
        "6": -0.39243880581379953,
        "7": -0.9266092626530997,
        "8": -0.18375018236204133,
        "9": -1.4991478575316686,
        "10": -3.9446878323914913,
        "11": -0.43684348664312367,
        "12": -0.12934724045848833,
        "13": 0.302642168674927,
        "14": 0.045216575032580586,
        "15": -2.4859694256996523,
        "16": -3.585815981329754
      },
      "0.53": {
        "0": -5.586196032430132,
        "1": -3.456572455821258,
        "2": -0.25213157333228153,
        "3": -3.1642040109672642,
        "4": -5.257926220438525,
        "5": -0.9771390442241623,
        "6": -0.34858848815402244,
        "7": -0.9404126782851963,
        "8": -0.09628148880587162,
        "9": -1.6040593317853347,
        "10": -5.089459958185949,
        "11": -0.40926904168788747,
        "12": 0.7377005164224348,
        "13": 0.9686336362271453,
        "14": 0.16548843412642622,
        "15": -3.0168943248125135,
        "16": -4.67510023201595
      },
      "0.57": {
        "0": -9.921137737880978,
        "1": -9.064045479768025,
        "2": -0.47401697651620056,
        "3": -3.0414136064328967,
        "4": -4.5388821461508355,
        "5": -1.1495581667347432,
        "6": -0.6378872384678935,
        "7": -1.1500384361269211,
        "8": -0.3898080579014862,
        "9": -1.77590397144608,
        "10": -4.379969996374622,
        "11": -0.6581067269238128,
        "12": -0.10524702023330113,
        "13": 0.3229847230681093,
        "14": -0.0734897627691411,
        "15": -2.907007184975252,
        "16": -4.091666908828328
      }
    },
    "cost_pair": {
      "3.5": 2.5470127027183542,
      "5.6": 2.5580728726243063,
      "2.2": 2.368923295636094,
      "1.4": 1.0403107780966536,
      "0.9": -0.25183389313974125,
      "0.6": -1.021302542281488,
      "0.41": -0.6403115355779754,
      "0.61": -0.9266092626530997,
      "0.53": -0.9404126782851963,
      "0.57": -1.1500384361269211
    },
    "proxy_result": {
      "final_k": "0.57",
      "bd_rate_data": {
        "0": -15.235194413036037,
        "1": -13.785120098132584,
        "2": 0.5469730745225609,
        "3": -2.217112640559915,
        "4": -5.69148259332094,
        "5": -1.1849015409434727,
        "6": 0.41801796693037296,
        "7": -0.6265078295275783,
        "8": 0.5469286997647149,
        "9": -1.6848845664880985,
        "10": -5.215495196584041,
        "11": 0.09812709089966898,
        "12": 2.508717469024835,
        "13": 2.347832234435021,
        "14": 1.0104543599876337,
        "15": -1.981087986452712,
        "16": -4.909002420451126
      },
      "cost_pair": {
        "0.57": -0.6265078295275783
      }
    }
  },
  "wipe_3840x2160_5994_10bit_420_8750-8880.y4m": {
    "brent_data": [
      0.3316412074137248,
      -2.8611392713652872,
      0,
      23
    ],
    "total_encodes": 11,
    "bd_rate_data": {
      "3.5": {
        "0": -7.4667378981046335,
        "1": -0.5551673802235446,
        "2": 4.13428206471389,
        "3": 11.264776454248949,
        "4": 13.837321065238385,
        "5": 9.4883541686807,
        "6": 4.808221021689474,
        "7": 5.344251152405621,
        "8": 3.557264093375978,
        "9": 8.838136601849978,
        "10": 10.279957074549495,
        "11": 4.159403673687079,
        "12": 3.0787729702526745,
        "13": 2.9187193040502546,
        "14": 3.794585526519678,
        "15": 11.389677679428157,
        "16": 13.807385990788323
      },
      "5.6": {
        "0": -2.8676538793535897,
        "1": 0.3582270541111951,
        "2": 4.737126212666531,
        "3": 12.342514058745602,
        "4": 17.137235120035264,
        "5": 10.001175999079281,
        "6": 5.141386539146686,
        "7": 5.6894526180775395,
        "8": 4.182131756117968,
        "9": 9.604796660507219,
        "10": 12.265333029920654,
        "11": 4.865387467760107,
        "12": 3.9568638552358815,
        "13": 3.779936129039374,
        "14": 4.475685887243008,
        "15": 12.829254549975788,
        "16": 17.428616465118484
      },
      "2.2": {
        "0": -0.3535679884854162,
        "1": 9.721075084521807,
        "2": 3.344707931149715,
        "3": 8.519155288938673,
        "4": 9.929047051822604,
        "5": 7.4095438752590725,
        "6": 3.9166535831250737,
        "7": 4.5288198504041866,
        "8": 2.6764686230509094,
        "9": 6.998603437553852,
        "10": 8.104114995478295,
        "11": 3.1504755138893614,
        "12": 2.0518204958353214,
        "13": 1.8417284872276563,
        "14": 3.0385062717652955,
        "15": 8.509538696557883,
        "16": 9.833753087454976
      },
      "1.4": {
        "0": -9.608992653454331,
        "1": 5.27117463373882,
        "2": 1.3445512542924254,
        "3": 3.8245148351105707,
        "4": 3.912317921162778,
        "5": 2.9980063101285648,
        "6": 1.6066249250368925,
        "7": 1.9668416503802577,
        "8": 1.1133905632360275,
        "9": 3.310344597627468,
        "10": 3.239193933434681,
        "11": 1.3235626634198638,
        "12": 0.7720730714057655,
        "13": 0.6877077078532912,
        "14": 1.2033613602993043,
        "15": 3.794831909058849,
        "16": 3.837187988577906
      },
      "0.9": {
        "0": -6.697250052912058,
        "1": 0.3194048677039685,
        "2": -0.2515546020135373,
        "3": -0.9621209923334151,
        "4": -1.5751757852262793,
        "5": -0.8965623332436001,
        "6": -0.300063957935659,
        "7": -0.4438346998197451,
        "8": -0.18296981732387474,
        "9": -0.5446644125373545,
        "10": -1.1367288714634327,
        "11": -0.2470735580193284,
        "12": -0.1411182385509302,
        "13": -0.10690105864751276,
        "14": -0.21312401749187249,
        "15": -0.9515576579276819,
        "16": -1.5454336119340661
      },
      "0.6": {
        "0": -5.229028260491497,
        "1": 7.767669055377656,
        "2": -0.888870346694981,
        "3": -4.396767287854675,
        "4": -5.759591766634021,
        "5": -3.4146947402798666,
        "6": -1.5622512729841942,
        "7": -2.0500111418650047,
        "8": -0.607326242065942,
        "9": -3.347568186875427,
        "10": -4.5868596863153694,
        "11": -0.9270122711112272,
        "12": -0.04747530240447606,
        "13": 0.03282049765587214,
        "14": -0.6837120922530526,
        "15": -4.334305988507414,
        "16": -5.64467386659503
      },
      "0.41": {
        "0": -4.105775412298106,
        "1": 5.185850756895363,
        "2": -0.8578087866759954,
        "3": -6.911495006167634,
        "4": -8.454539975157239,
        "5": -5.100107866865722,
        "6": -1.80397708433786,
        "7": -2.5834694390929003,
        "8": -0.4436316607726254,
        "9": -5.196392220165569,
        "10": -6.624456228879638,
        "11": -0.9658106583403714,
        "12": 0.05689322728943402,
        "13": 0.3110545925720798,
        "14": -0.5653246607278506,
        "15": -6.785587057294373,
        "16": -8.233719716529976
      },
      "0.21": {
        "0": -8.217172577934578,
        "1": 4.781149441772032,
        "2": 0.20565801234084802,
        "3": -8.835084416525818,
        "4": -11.437814073186503,
        "5": -6.465420224649854,
        "6": -1.6177879690670527,
        "7": -2.580267852915996,
        "8": 0.6566204158975131,
        "9": -6.612750971678583,
        "10": -9.06698844450682,
        "11": -0.15782778629389593,
        "12": 1.9169248351576407,
        "13": 2.122669236354513,
        "14": 0.627278401298037,
        "15": -8.618895678033711,
        "16": -11.122678215808035
      },
      "0.33": {
        "0": -4.3434953168194275,
        "1": 9.954018244093657,
        "2": -0.6966486494670576,
        "3": -7.6800873550291415,
        "4": -9.53080874524106,
        "5": -5.777087317027774,
        "6": -1.967410045828799,
        "7": -2.8611392713652872,
        "8": -0.2652419603246581,
        "9": -5.661419757812092,
        "10": -7.5947941597129365,
        "11": -0.8750221672245595,
        "12": 0.5471378418452133,
        "13": 0.7188835965465934,
        "14": -0.34882777793724395,
        "15": -7.5203957797649545,
        "16": -9.258514841836984
      },
      "0.31": {
        "0": -3.0798407985625618,
        "1": 9.329134819146056,
        "2": -0.4422941773745359,
        "3": -7.992225536382169,
        "4": -9.92981126421335,
        "5": -6.025442715614659,
        "6": -1.7002121075297194,
        "7": -2.6627517371649256,
        "8": 0.032099621084014096,
        "9": -5.958831091074912,
        "10": -7.787297542390492,
        "11": -0.6325036636934955,
        "12": 1.0641953773611545,
        "13": 1.2342234206286662,
        "14": -0.08791247729779128,
        "15": -7.828301929050074,
        "16": -9.68973399246048
      },
      "0.36": {
        "0": -12.484015052801592,
        "1": 3.7935040462319014,
        "2": -0.6364088652765942,
        "3": -6.980919748950187,
        "4": -9.10895302399114,
        "5": -5.283528089965683,
        "6": -1.7625599098408107,
        "7": -2.624000891265499,
        "8": -0.20409368759609636,
        "9": -5.14357339612963,
        "10": -7.297752292572213,
        "11": -0.7786814698766298,
        "12": 0.47358863215225533,
        "13": 0.7141001054479901,
        "14": -0.3182580472150143,
        "15": -6.844995797077013,
        "16": -8.886664454072735
      }
    },
    "cost_pair": {
      "3.5": 5.344251152405621,
      "5.6": 5.6894526180775395,
      "2.2": 4.5288198504041866,
      "1.4": 1.9668416503802577,
      "0.9": -0.4438346998197451,
      "0.6": -2.0500111418650047,
      "0.41": -2.5834694390929003,
      "0.21": -2.580267852915996,
      "0.33": -2.8611392713652872,
      "0.31": -2.6627517371649256,
      "0.36": -2.624000891265499
    },
    "proxy_result": {
      "final_k": "0.33",
      "bd_rate_data": {
        "0": -12.72737595669861,
        "1": -7.518885281786167,
        "2": 0.764718268922282,
        "3": -5.721171820166493,
        "4": -8.826083485672786,
        "5": -6.263234288164754,
        "6": -0.6167108084653594,
        "7": -2.647322429570942,
        "8": 0.8277137681422797,
        "9": -4.924799219753662,
        "10": -7.987433629604402,
        "11": -0.015494003250693389,
        "12": 2.5055537680720885,
        "13": 2.439010679011422,
        "14": 1.1793860853469562,
        "15": -5.442822017542959,
        "16": -8.546719127828927
      },
      "cost_pair": {
        "0.33": -2.647322429570942
      }
    }
  }
}