Video,QP,Bitrate (kbps),K-Value,PSNR Y,PSNR U,PSNR V,SSIM,MS-SSIM,VMAF,nVMAF,PSNR-HVS Y,DE2K,APSNR Y,APSNR U,APSNR V,Enc T [s],Dec T [s]
svt_forest_lake_3840x2160_50_10bit_420p.y4m,27.0,170935.60615384614,1,40.846958,46.64656,49.407767,25.87863,23.836669,94.350751,92.618239,45.858092,41.815019,40.733515,46.580602,49.373453,1516.1,3.7
svt_forest_lake_3840x2160_50_10bit_420p.y4m,39.0,85074.5846153846,1,36.595225,44.725368,47.948326,21.069017,19.413363,85.480343,83.713622,38.942505,38.617891,36.412326,44.669683,47.925962,1313.0,2.86
svt_forest_lake_3840x2160_50_10bit_420p.y4m,49.0,43515.372307692305,1,33.275911,43.446336,47.106366,17.30271,15.981853,72.421906,70.681422,33.790689,36.043891,33.092467,43.401922,47.096263,1192.3,2.34
svt_forest_lake_3840x2160_50_10bit_420p.y4m,59.0,19532.246153846154,1,30.231238,41.681835,46.474294,13.708563,12.687219,53.6584,52.157894,29.247378,33.461201,30.095469,41.611105,46.472138,1005.64,1.89
svt_forest_lake_3840x2160_50_10bit_420p.y4m,63.0,9282.264615384616,1,28.293341,40.446265,45.199291,11.078675,10.30201,37.453606,36.211619,26.388621,31.620696,28.204479,40.421497,45.194407,912.91,1.53
svt_forest_lake_3840x2160_50_10bit_420p.y4m,27.0,176369.48923076922,0.86,41.040835,46.773921,49.522421,26.100976,24.0588,94.630774,92.873709,46.159489,41.966485,40.931534,46.708313,49.489445,1777.17,5.38
svt_forest_lake_3840x2160_50_10bit_420p.y4m,39.0,88440.84923076924,0.86,36.79219,44.841869,48.078614,21.295778,19.633276,86.141218,84.33776,39.236015,38.785794,36.612276,44.785355,48.056175,1495.53,3.94
svt_forest_lake_3840x2160_50_10bit_420p.y4m,49.0,45491.24923076923,0.86,33.443944,43.542614,47.219615,17.508359,16.179419,73.439437,71.654685,34.033054,36.200033,33.260987,43.49727,47.208992,1329.18,3.46
svt_forest_lake_3840x2160_50_10bit_420p.y4m,59.0,20547.224615384617,0.86,30.361879,42.195368,46.478871,13.884847,12.850666,54.924261,53.308678,29.433951,33.654199,30.225951,42.163777,46.474415,1096.5,2.33
svt_forest_lake_3840x2160_50_10bit_420p.y4m,63.0,9871.40923076923,0.86,28.421124,40.573054,45.429396,11.243046,10.460708,38.680092,37.391643,26.578922,31.755511,28.332383,40.544678,45.42628,959.92,1.51
svt_forest_lake_3840x2160_50_10bit_420p.y4m,27.0,170541.0953846154,1.01,40.831976,46.633951,49.39452,25.862091,23.818424,94.35073,92.605019,45.833228,41.797566,40.718137,46.568052,49.360411,1946.14,4.59
svt_forest_lake_3840x2160_50_10bit_420p.y4m,39.0,84856.04923076923,1.01,36.582412,44.730894,47.945898,21.055786,19.401731,85.467189,83.704354,38.925095,38.616572,36.399023,44.674791,47.923638,1652.21,4.19
svt_forest_lake_3840x2160_50_10bit_420p.y4m,49.0,43404.56615384615,1.01,33.261816,43.446377,47.099487,17.283561,15.960364,72.322968,70.607427,33.768812,36.035263,33.078003,43.401455,47.08995,1448.7,3.19
svt_forest_lake_3840x2160_50_10bit_420p.y4m,59.0,19467.85230769231,1.01,30.217796,41.622015,46.37374,13.685864,12.667189,53.636945,52.08715,29.226776,33.432866,30.082283,41.552059,46.370647,1225.12,2.37
svt_forest_lake_3840x2160_50_10bit_420p.y4m,63.0,9212.713846153845,1.01,28.282784,40.382056,45.087269,11.059443,10.285923,37.258129,36.019245,26.372349,31.594179,28.193713,40.357551,45.085229,1074.4,1.79
svt_forest_lake_3840x2160_50_10bit_420p.y4m,27.0,170179.91384615385,1.02,40.818125,46.622123,49.387705,25.841893,23.801139,94.298596,92.567649,45.810162,41.791238,40.704213,46.55609,49.353874,1804.72,4.18
svt_forest_lake_3840x2160_50_10bit_420p.y4m,39.0,84621.53846153847,1.02,36.566451,44.715885,47.951726,21.02726,19.3806,85.411425,83.641062,38.899365,38.599264,36.383019,44.659423,47.930002,1491.67,3.85
svt_forest_lake_3840x2160_50_10bit_420p.y4m,49.0,43216.27076923077,1.02,33.248122,43.433126,47.088164,17.265288,15.947293,72.338583,70.566714,33.746695,36.01535,33.064473,43.388975,47.078969,1383.3,2.81
svt_forest_lake_3840x2160_50_10bit_420p.y4m,59.0,19415.630769230767,1.02,30.21292,41.613346,46.470903,13.681524,12.66169,53.582243,52.048781,29.224174,33.423068,30.07743,41.54055,46.468281,1138.63,2.43
svt_forest_lake_3840x2160_50_10bit_420p.y4m,63.0,9167.138461538461,1.02,28.269656,40.409768,45.308925,11.043242,10.270268,37.065227,35.860674,26.352443,31.602964,28.180558,40.384718,45.306664,1038.44,1.91
svt_forest_lake_3840x2160_50_10bit_420p.y4m,27.0,169779.76615384614,1.03,40.803508,46.619682,49.374797,25.824227,23.783827,94.282965,92.558435,45.783546,41.779381,40.689028,46.553428,49.341249,2027.68,5.21
svt_forest_lake_3840x2160_50_10bit_420p.y4m,39.0,84432.9353846154,1.03,36.555683,44.710171,47.947823,21.022741,19.373239,85.362302,83.603903,38.887866,38.592554,36.372289,44.654193,47.926051,1729.82,2.88
svt_forest_lake_3840x2160_50_10bit_420p.y4m,49.0,43136.873846153845,1.03,33.239628,43.429236,47.100189,17.260157,15.938387,72.285814,70.540865,33.734734,36.01617,33.05583,43.384342,47.090655,1584.42,2.92
svt_forest_lake_3840x2160_50_10bit_420p.y4m,59.0,19328.356923076924,1.03,30.201643,41.589716,46.33621,13.670068,12.647915,53.438492,51.920785,29.207549,33.397494,30.066235,41.520788,46.331336,1361.74,1.85
svt_forest_lake_3840x2160_50_10bit_420p.y4m,63.0,9125.316923076924,1.03,28.261046,40.395663,44.944067,11.026873,10.259301,37.074714,35.906465,26.342227,31.574413,28.172346,40.370187,44.937997,1207.75,1.95
svt_forest_lake_3840x2160_50_10bit_420p.y4m,27.0,169473.28,1.04,40.79018,46.605065,49.376638,25.811354,23.766919,94.284221,92.548545,45.763241,41.767651,40.675523,46.538912,49.342203,2062.05,5.21
svt_forest_lake_3840x2160_50_10bit_420p.y4m,39.0,84128.1353846154,1.04,36.536769,44.703341,47.924655,20.998846,19.348274,85.28032,83.52165,38.856002,38.577434,36.353227,44.64731,47.902965,1750.16,3.79
svt_forest_lake_3840x2160_50_10bit_420p.y4m,49.0,42997.79692307692,1.04,33.225659,43.409011,47.076533,17.23876,15.917442,72.176567,70.447677,33.715591,35.998046,33.041879,43.364532,47.067226,1612.98,2.54
svt_forest_lake_3840x2160_50_10bit_420p.y4m,59.0,19269.23076923077,1.04,30.19261,41.70977,46.40947,13.655812,12.635459,53.391071,51.891536,29.193491,33.422334,30.057412,41.637882,46.406649,1371.1,2.42
svt_forest_lake_3840x2160_50_10bit_420p.y4m,63.0,9127.95076923077,1.04,28.256432,40.404716,45.374769,11.014374,10.245678,36.944458,35.750891,26.333235,31.584457,28.167397,40.381625,45.370864,1203.85,1.83
svt_forest_lake_3840x2160_50_10bit_420p.y4m,27.0,168751.66769230767,1.06,40.761952,46.5886,49.34753,25.783314,23.733934,94.244421,92.513625,45.715663,41.74491,40.646391,46.522628,49.313987,1755.17,4.52
svt_forest_lake_3840x2160_50_10bit_420p.y4m,39.0,83723.40923076923,1.06,36.511591,44.673697,47.921982,20.968357,19.323175,85.214081,83.470712,38.819688,38.548759,36.327433,44.617768,47.900534,1504.91,4.16
svt_forest_lake_3840x2160_50_10bit_420p.y4m,49.0,42745.18153846153,1.06,33.203378,43.393723,47.039323,17.211405,15.894708,72.04553,70.288468,33.685107,35.980651,33.019451,43.349856,47.029118,1346.85,2.58
svt_forest_lake_3840x2160_50_10bit_420p.y4m,59.0,19132.78769230769,1.06,30.170249,41.593601,46.433858,13.626368,12.608327,53.22707,51.701351,29.160981,33.400759,30.035238,41.52426,46.431651,1145.94,2.42
svt_forest_lake_3840x2160_50_10bit_420p.y4m,63.0,9032.221538461537,1.06,28.23625,40.411178,45.228871,10.994151,10.223117,36.72763,35.587666,26.304898,31.578252,28.147473,40.386724,45.225677,982.24,1.45
svt_forest_lake_3840x2160_50_10bit_420p.y4m,27.0,153049.1446153846,1.59,40.042694,46.148012,48.934611,24.972083,22.941653,93.136208,91.486026,44.59471,41.178903,39.910538,46.081533,48.90128,1475.78,3.67
svt_forest_lake_3840x2160_50_10bit_420p.y4m,39.0,73892.02461538461,1.59,35.788291,44.257587,47.567746,20.164504,18.551275,82.65354,81.034618,37.73462,37.954398,35.591764,44.204605,47.550773,1278.66,2.56
svt_forest_lake_3840x2160_50_10bit_420p.y4m,49.0,37122.264615384614,1.59,32.599376,42.993975,46.699723,16.489286,15.213466,68.481516,66.896233,32.804904,35.443305,32.413718,42.952734,46.692026,1191.51,2.11
svt_forest_lake_3840x2160_50_10bit_420p.y4m,59.0,16250.375384615383,1.59,29.696135,40.908382,46.063031,12.989592,12.015164,49.09339,47.736487,28.468032,32.884476,29.563665,40.838936,46.059916,1001.57,2.21
svt_forest_lake_3840x2160_50_10bit_420p.y4m,63.0,7378.72,1.59,27.79226,39.862,45.01637,10.365519,9.65194,32.167385,31.154313,25.640339,31.118735,27.705361,39.852073,45.015997,838.61,1.33
svt_forest_lake_3840x2160_50_10bit_420p.y4m,27.0,134293.05846153846,2.51,38.941849,45.533273,48.383875,23.722265,21.749793,91.085713,89.542097,42.852885,40.317306,38.785872,45.46963,48.353541,1428.67,4.34
svt_forest_lake_3840x2160_50_10bit_420p.y4m,39.0,62773.304615384615,2.51,34.75023,43.597591,47.098201,18.962573,17.430828,78.38704,76.924153,36.155212,37.070584,34.538546,43.547373,47.083735,1207.83,2.87
svt_forest_lake_3840x2160_50_10bit_420p.y4m,49.0,30790.33846153846,2.51,31.700104,42.333019,46.514537,15.398907,14.198628,62.709249,61.302703,31.479129,34.63948,31.508884,42.290939,46.511211,1128.34,2.05
svt_forest_lake_3840x2160_50_10bit_420p.y4m,59.0,13040.172307692308,2.51,28.992917,40.49132,45.200663,12.024585,11.12975,42.6092,41.452091,27.43206,32.229129,28.863021,40.450376,45.19611,950.41,1.41
svt_forest_lake_3840x2160_50_10bit_420p.y4m,63.0,5643.470769230769,2.51,27.19191,39.203341,44.64451,9.499122,8.877352,26.124906,25.334282,24.736314,30.480398,27.111147,39.202412,44.644144,815.08,1.26
svt_forest_lake_3840x2160_50_10bit_420p.y4m-slow,27.0,96824.66153846154,1,43.518048,47.66226,48.317251,31.439345,24.720774,97.295372,95.305487,45.600847,43.83467,43.462803,47.61144,48.289078,191167.26,11.23
svt_forest_lake_3840x2160_50_10bit_420p.y4m-slow,39.0,48686.48,1,39.585499,45.772346,46.785741,26.426475,20.51906,90.185316,87.977579,39.205959,40.993442,39.457631,45.720419,46.76207,156130.56,9.1
svt_forest_lake_3840x2160_50_10bit_420p.y4m-slow,49.0,26211.304615384615,1,36.410432,44.409481,45.933611,22.359334,17.183487,79.07677,76.849722,34.42626,38.614443,36.277462,44.360779,45.920971,131468.34,7.94
svt_forest_lake_3840x2160_50_10bit_420p.y4m-slow,59.0,12956.63076923077,1,33.354966,43.021388,45.310224,18.460811,14.00433,62.467553,60.444456,30.201856,36.177272,33.232632,42.989398,45.307631,81082.31,7.05
svt_forest_lake_3840x2160_50_10bit_420p.y4m-slow,63.0,6882.741538461538,1,31.097863,41.576407,44.847229,15.550839,11.58374,45.80974,44.324745,27.266172,34.178465,30.991598,41.530425,44.846592,62625.52,6.5
svt_forest_lake_3840x2160_50_10bit_420p.y4m-slow,27.0,96111.37846153846,1.03,43.47174,47.631455,48.286652,31.377602,24.668706,97.24994,95.256521,45.526113,43.801303,43.415813,47.580519,48.258329,155384.44,10.61
svt_forest_lake_3840x2160_50_10bit_420p.y4m-slow,39.0,48224.22461538461,1.03,39.535917,45.74551,46.760055,26.349338,20.461581,90.063721,87.857554,39.129296,40.956003,39.407102,45.69336,46.736516,122215.07,8.49
svt_forest_lake_3840x2160_50_10bit_420p.y4m-slow,49.0,25918.45846153846,1.03,36.357559,44.388055,45.906661,22.298811,17.127655,78.849591,76.628629,34.354212,38.573537,36.22351,44.339128,45.894487,99438.88,7.04
svt_forest_lake_3840x2160_50_10bit_420p.y4m-slow,59.0,12793.313846153846,1.03,33.310215,42.982616,45.308405,18.404135,13.959445,62.189755,60.192678,30.14411,36.134905,33.187338,42.94952,45.305998,57402.08,5.88
svt_forest_lake_3840x2160_50_10bit_420p.y4m-slow,63.0,6784.187692307692,1.03,31.051959,41.509227,44.798189,15.480989,11.530637,45.559805,44.049595,27.207724,34.13094,30.945523,41.462336,44.797461,41863.85,5.15
svt_midnight_sun_3840x2160_50_10bit_420p.y4m,27.0,215060.4307692308,1,40.454687,45.372777,49.488776,26.747452,23.741011,95.001975,93.452525,45.018653,41.50329,40.304906,45.315119,49.477991,1730.96,4.43
svt_midnight_sun_3840x2160_50_10bit_420p.y4m,39.0,101597.30461538461,1,36.046499,42.726316,48.436097,21.639943,19.066752,85.017666,83.438859,37.739286,38.300083,35.805634,42.654097,48.431812,1464.01,3.51
svt_midnight_sun_3840x2160_50_10bit_420p.y4m,49.0,47164.738461538465,1,32.860974,40.847927,47.770175,17.41805,15.393649,70.033853,68.507299,32.322907,35.885213,32.655221,40.785752,47.76812,1374.21,2.62
svt_midnight_sun_3840x2160_50_10bit_420p.y4m,59.0,18627.61846153846,1,30.196894,39.123263,46.916579,13.421951,12.079695,49.045645,47.758005,27.919576,33.596351,30.074267,39.084172,46.915353,1105.82,2.16
svt_midnight_sun_3840x2160_50_10bit_420p.y4m,63.0,8072.049230769231,1,28.591989,37.655774,45.808064,10.886922,9.985465,32.972074,31.98016,25.483395,31.871845,28.523979,37.639387,45.805881,930.72,1.74
svt_midnight_sun_3840x2160_50_10bit_420p.y4m,27.0,214145.72307692308,1.02,40.42187,45.359622,49.478731,26.720623,23.706678,94.948765,93.406306,44.971986,41.487547,40.271468,45.301923,49.468164,1968.36,5.0
svt_midnight_sun_3840x2160_50_10bit_420p.y4m,39.0,100966.5723076923,1.02,36.019387,42.709414,48.448619,21.598635,19.03482,84.921464,83.339072,37.696304,38.277058,35.778187,42.636874,48.444456,1672.81,4.82
svt_midnight_sun_3840x2160_50_10bit_420p.y4m,49.0,46846.64615384615,1.02,32.839361,40.838397,47.752934,17.390381,15.366686,69.918651,68.383452,32.288799,35.86774,32.633794,40.77677,47.751132,1563.84,3.61
svt_midnight_sun_3840x2160_50_10bit_420p.y4m,59.0,18462.855384615385,1.02,30.184981,39.093062,46.902338,13.39883,12.061903,48.862828,47.606517,27.898995,33.582404,30.062818,39.054255,46.90115,1262.82,2.87
svt_midnight_sun_3840x2160_50_10bit_420p.y4m,63.0,7992.381538461538,1.02,28.572515,37.630083,45.797392,10.855766,9.959475,32.757546,31.777419,25.454591,31.846282,28.504304,37.613219,45.795541,1059.64,1.6
svt_midnight_sun_3840x2160_50_10bit_420p.y4m,27.0,207963.76615384614,1.16,40.23367,45.228168,49.384208,26.49962,23.498063,94.652689,93.118628,44.675613,41.337646,40.077798,45.170885,49.37408,1979.17,5.52
svt_midnight_sun_3840x2160_50_10bit_420p.y4m,39.0,96901.63692307693,1.16,35.833618,42.570855,48.353827,21.352908,18.811933,84.210798,82.655037,37.395016,38.127884,35.589666,42.49958,48.349741,1686.75,3.4
svt_midnight_sun_3840x2160_50_10bit_420p.y4m,49.0,44621.4276923077,1.16,32.691464,40.699809,47.641925,17.173942,15.18015,68.904218,67.411926,32.053811,35.713578,32.486757,40.638599,47.640307,1598.64,3.48
svt_midnight_sun_3840x2160_50_10bit_420p.y4m,59.0,17453.846153846152,1.16,30.066673,38.978165,46.708083,13.223617,11.911454,47.709118,46.48095,27.723501,33.458116,29.945857,38.940029,46.707362,1282.46,2.58
svt_midnight_sun_3840x2160_50_10bit_420p.y4m,63.0,7501.464615384615,1.16,28.475862,37.474064,45.734253,10.700332,9.830529,31.709424,30.762561,25.314358,31.729295,28.408936,37.459031,45.730019,1110.19,2.29
svt_midnight_sun_3840x2160_50_10bit_420p.y4m,27.0,207456.57846153848,1.17,40.21613,45.219886,49.37848,26.474184,23.477004,94.609827,93.085399,44.645028,41.32533,40.059452,45.16255,49.368073,2300.89,6.47
svt_midnight_sun_3840x2160_50_10bit_420p.y4m,39.0,96629.4153846154,1.17,35.822081,42.560748,48.336482,21.352247,18.80549,84.194838,82.633922,37.382312,38.121157,35.577774,42.488747,48.332623,1924.66,4.71
svt_midnight_sun_3840x2160_50_10bit_420p.y4m,49.0,44479.93846153846,1.17,32.682851,40.686573,47.6323,17.160812,15.167933,68.843643,67.343439,32.039388,35.706631,32.478349,40.625019,47.630701,1906.96,3.54
svt_midnight_sun_3840x2160_50_10bit_420p.y4m,59.0,17398.547692307693,1.17,30.060254,38.953861,46.741869,13.211577,11.90168,47.695077,46.45968,27.714697,33.445173,29.939656,38.915549,46.740832,1476.48,2.47
svt_midnight_sun_3840x2160_50_10bit_420p.y4m,63.0,7466.030769230769,1.17,28.464232,37.469588,45.774505,10.687095,9.81721,31.591916,30.65949,25.298047,31.714637,28.397418,37.455106,45.772168,1191.88,2.19
svt_midnight_sun_3840x2160_50_10bit_420p.y4m,27.0,207086.21538461538,1.18,40.206998,45.202191,49.371937,26.462172,23.4664,94.59697,93.071486,44.628131,41.312483,40.050469,45.144839,49.361526,2279.28,6.44
svt_midnight_sun_3840x2160_50_10bit_420p.y4m,39.0,96377.00923076922,1.18,35.808534,42.546363,48.346834,21.331492,18.785908,84.172891,82.608187,37.360173,38.106127,35.564248,42.474538,48.342633,1920.39,4.08
svt_midnight_sun_3840x2160_50_10bit_420p.y4m,49.0,44301.907692307694,1.18,32.669933,40.676654,47.622526,17.136235,15.150196,68.750017,67.257963,32.018282,35.696271,32.465566,40.615451,47.620984,1835.54,3.47
svt_midnight_sun_3840x2160_50_10bit_420p.y4m,59.0,17327.74153846154,1.18,30.049744,38.959154,46.729339,13.196618,11.887891,47.534383,46.30133,27.698589,33.43027,29.929408,38.920568,46.727575,1439.0,2.8
svt_midnight_sun_3840x2160_50_10bit_420p.y4m,63.0,7426.892307692308,1.18,28.458242,37.481172,45.735338,10.674991,9.808565,31.536404,30.584468,25.291473,31.712614,28.391601,37.465732,45.733004,1220.31,2.17
svt_midnight_sun_3840x2160_50_10bit_420p.y4m,27.0,206707.27384615387,1.19,40.190638,45.19819,49.369398,26.435436,23.445061,94.553688,93.034904,44.597788,41.302293,40.03363,45.140437,49.359229,2333.22,6.32
svt_midnight_sun_3840x2160_50_10bit_420p.y4m,39.0,96077.95692307693,1.19,35.795058,42.540869,48.342523,21.312293,18.770113,84.101544,82.54349,37.338285,38.088755,35.550784,42.469318,48.338664,1970.55,4.84
svt_midnight_sun_3840x2160_50_10bit_420p.y4m,49.0,44158.43692307692,1.19,32.658811,40.678219,47.625015,17.119793,15.136097,68.669706,67.17761,31.999605,35.691842,32.454474,40.616344,47.623421,1864.9,3.26
svt_midnight_sun_3840x2160_50_10bit_420p.y4m,59.0,17261.366153846153,1.19,30.043568,38.945033,46.696135,13.185964,11.88011,47.515988,46.289312,27.689704,33.424816,29.923392,38.906998,46.695312,1491.17,2.54
svt_midnight_sun_3840x2160_50_10bit_420p.y4m,63.0,7403.987692307692,1.19,28.449338,37.454991,45.798661,10.657205,9.794108,31.494375,30.557393,25.276618,31.698354,28.38256,37.438925,45.797533,1219.72,2.11
svt_midnight_sun_3840x2160_50_10bit_420p.y4m,27.0,205028.12307692308,1.23,40.135779,45.15664,49.343314,26.378097,23.385029,94.484128,92.95912,44.514116,41.257821,39.977278,45.09909,49.333174,1986.27,6.03
svt_midnight_sun_3840x2160_50_10bit_420p.y4m,39.0,95010.59692307693,1.23,35.740854,42.509191,48.322601,21.230053,18.702396,83.885126,82.330808,37.2489,38.049939,35.495566,42.437863,48.318648,1694.0,4.44
svt_midnight_sun_3840x2160_50_10bit_420p.y4m,49.0,43579.089230769234,1.23,32.61693,40.637476,47.610099,17.067867,15.086184,68.390575,66.908261,31.932193,35.64252,32.413079,40.577503,47.608777,1608.31,3.4
svt_midnight_sun_3840x2160_50_10bit_420p.y4m,59.0,16980.763076923075,1.23,30.00947,38.907625,46.669149,13.133716,11.835916,47.092916,45.874871,27.636871,33.38503,29.889702,38.869711,46.668362,1235.54,2.51
svt_midnight_sun_3840x2160_50_10bit_420p.y4m,63.0,7269.427692307692,1.23,28.420941,37.435597,45.671812,10.616423,9.758822,31.090011,30.187591,25.236191,31.671245,28.354744,37.420568,45.670001,1066.95,1.69
svt_midnight_sun_3840x2160_50_10bit_420p.y4m,27.0,191611.3723076923,1.59,39.646615,44.842492,49.112962,25.809993,22.850584,93.625951,92.13236,43.724972,40.887017,39.47406,44.785134,49.103269,1679.83,5.18
svt_midnight_sun_3840x2160_50_10bit_420p.y4m,39.0,86379.97538461539,1.59,35.280066,42.181767,48.108974,20.647652,18.171194,82.102816,80.584862,36.512133,37.673348,35.028647,42.110933,48.105831,1400.47,3.22
svt_midnight_sun_3840x2160_50_10bit_420p.y4m,49.0,38993.46461538462,1.59,32.2527,40.333513,47.355994,16.533856,14.629859,65.906815,64.465619,31.352747,35.312512,32.052359,40.272959,47.354836,1307.66,2.41
svt_midnight_sun_3840x2160_50_10bit_420p.y4m,59.0,15046.658461538462,1.59,29.748146,38.631874,46.422315,12.727066,11.49306,44.65523,43.491823,27.244609,33.110451,29.633629,38.596902,46.420463,1067.97,1.73
svt_midnight_sun_3840x2160_50_10bit_420p.y4m,63.0,6292.48,1.59,28.185522,37.136313,45.466427,10.244895,9.447418,28.432237,27.601956,24.89719,31.418151,28.12276,37.124142,45.464137,891.99,1.63
svt_midnight_sun_3840x2160_50_10bit_420p.y4m,27.0,165244.6153846154,2.51,38.484633,44.139215,48.652575,24.47381,21.597213,91.374877,89.938538,41.868019,40.031477,38.285319,44.081985,48.644222,1650.41,5.54
svt_midnight_sun_3840x2160_50_10bit_420p.y4m,39.0,70231.02769230769,2.51,34.239546,41.505571,47.602453,19.267846,16.946163,77.431037,75.990701,34.794594,36.833118,33.984619,41.43905,47.600661,1348.75,2.81
svt_midnight_sun_3840x2160_50_10bit_420p.y4m,49.0,30841.735384615386,2.51,31.447419,39.686698,46.764053,15.337576,13.620541,59.667526,58.363613,30.053111,34.574285,31.259197,39.630152,46.762525,1236.38,2.52
svt_midnight_sun_3840x2160_50_10bit_420p.y4m,59.0,11702.76923076923,2.51,29.178368,38.097065,45.999016,11.832575,10.753614,38.889836,37.866732,26.389919,32.48939,29.077538,38.069008,45.995001,1010.7,2.27
svt_midnight_sun_3840x2160_50_10bit_420p.y4m,63.0,4678.72,2.51,27.703897,36.608973,45.00785,9.481634,8.807366,23.223371,22.528037,24.212226,30.858806,27.651236,36.600685,45.003222,812.0,1.49
svt_midnight_sun_3840x2160_50_10bit_420p.y4m-slow,27.0,99853.25538461539,1,43.92187,47.024665,49.181814,32.371859,24.405711,97.666565,95.595977,44.829356,43.714278,43.864436,47.004898,49.168964,192373.3,13.67
svt_midnight_sun_3840x2160_50_10bit_420p.y4m-slow,39.0,52331.14461538462,1,40.055598,44.828739,48.083324,27.436035,20.361356,89.451076,87.327721,38.677128,41.098701,39.915338,44.792761,48.077922,166882.68,11.49
svt_midnight_sun_3840x2160_50_10bit_420p.y4m-slow,49.0,28507.513846153848,1,36.76785,43.023344,47.417565,23.122373,16.949502,76.066882,74.124246,33.841677,38.820257,36.613418,42.9852,47.416097,145726.49,9.61
svt_midnight_sun_3840x2160_50_10bit_420p.y4m-slow,59.0,13597.901538461538,1,33.549462,41.115343,46.734736,18.658309,13.578676,55.38451,53.894309,29.536402,36.369382,33.388988,41.084653,46.734202,93125.4,8.15
svt_midnight_sun_3840x2160_50_10bit_420p.y4m-slow,63.0,6727.969230769231,1,31.284584,39.501611,45.893449,15.277088,11.135407,37.864144,36.791613,26.740718,34.356073,31.141587,39.480139,45.892465,69395.71,6.46
svt_midnight_sun_3840x2160_50_10bit_420p.y4m-slow,27.0,95802.64307692308,1.17,43.659895,46.842288,49.060544,32.021075,24.112927,97.32147,95.231394,44.398578,43.518015,43.598128,46.82213,49.048451,155271.26,12.56
svt_midnight_sun_3840x2160_50_10bit_420p.y4m-slow,39.0,49641.77538461539,1.17,39.757948,44.634335,47.991315,27.036699,20.038258,88.528278,86.411976,38.229416,40.874228,39.608628,44.596847,47.986426,132241.77,10.32
svt_midnight_sun_3840x2160_50_10bit_420p.y4m-slow,49.0,26672.655384615384,1.17,36.461542,42.819945,47.323203,22.709562,16.621349,74.416631,72.511971,33.423513,38.576484,36.299611,42.779972,47.321858,111975.9,8.5
svt_midnight_sun_3840x2160_50_10bit_420p.y4m-slow,59.0,12530.0,1.17,33.263253,40.927859,46.680822,18.248278,13.272192,53.246634,51.804135,29.174325,36.142139,33.100035,40.896185,46.680105,66294.61,6.58
svt_midnight_sun_3840x2160_50_10bit_420p.y4m-slow,63.0,6102.335384615385,1.17,31.02094,39.289098,45.76954,14.890978,10.851358,35.771904,34.749202,26.425798,34.119195,30.880575,39.267642,45.768454,46149.97,5.35
svt_smithy_3840x2160_50_10bit_420p.y4m,27.0,66519.68,1,42.010071,45.580394,49.415555,29.455805,26.403283,94.303663,92.807332,50.226747,41.840022,41.979029,45.568746,49.415325,772.89,2.53
svt_smithy_3840x2160_50_10bit_420p.y4m,39.0,36089.72307692308,1,38.028903,42.671454,47.937639,25.0487,22.266904,90.782489,89.077423,43.604259,38.70293,37.991894,42.667422,47.937383,633.56,2.03
svt_smithy_3840x2160_50_10bit_420p.y4m,49.0,21169.636923076923,1,35.121884,40.754549,47.092894,21.741748,19.256964,86.292337,84.41413,38.7732,36.477722,35.089202,40.753119,47.092177,572.47,1.18
svt_smithy_3840x2160_50_10bit_420p.y4m,59.0,10845.723076923075,1,32.152723,38.787666,45.974491,18.091616,15.865422,78.16843,76.111392,34.041138,34.026239,32.137885,38.787371,45.973234,517.38,1.13
svt_smithy_3840x2160_50_10bit_420p.y4m,63.0,4840.923076923077,1,29.377792,36.98831,45.017225,14.36606,12.465098,64.278797,62.222341,29.83148,31.578882,29.374422,36.988065,45.013747,500.35,1.26
svt_smithy_3840x2160_50_10bit_420p.y4m,27.0,83241.62461538462,0.27,43.331224,46.528853,50.266747,31.008629,28.021159,95.095233,93.618539,52.42954,42.999687,43.310677,46.516173,50.266528,875.46,3.02
svt_smithy_3840x2160_50_10bit_420p.y4m,39.0,46248.18461538461,0.27,39.282833,43.643273,48.658771,26.64729,23.864624,92.242432,90.555029,45.743765,39.870139,39.251539,43.636836,48.658661,731.33,1.89
svt_smithy_3840x2160_50_10bit_420p.y4m,49.0,27854.953846153847,0.27,36.28841,41.743102,47.778404,23.317312,20.804413,88.561118,86.690057,40.614301,37.642222,36.256605,41.739298,47.777853,684.39,1.55
svt_smithy_3840x2160_50_10bit_420p.y4m,59.0,15080.52923076923,0.27,33.251237,39.816413,46.708944,19.644095,17.353258,81.824035,79.802152,35.648744,35.159184,33.234869,39.814711,46.707694,631.0,1.62
svt_smithy_3840x2160_50_10bit_420p.y4m,63.0,7262.424615384615,0.27,30.413726,37.985406,45.560998,15.926865,13.88398,70.754747,68.562384,31.403423,32.623387,30.409927,37.985002,45.558475,633.52,1.16
svt_smithy_3840x2160_50_10bit_420p.y4m,27.0,75946.80615384616,0.52,42.892657,46.202694,49.966307,30.493399,27.477045,94.85924,93.374052,51.702019,42.604199,42.868769,46.190405,49.966103,821.28,2.73
svt_smithy_3840x2160_50_10bit_420p.y4m,39.0,41712.27076923077,0.52,38.840595,43.288458,48.387224,26.065361,23.272168,91.786537,90.100707,44.956027,39.439731,38.807064,43.283004,48.387091,749.18,1.98
svt_smithy_3840x2160_50_10bit_420p.y4m,49.0,24881.76,0.52,35.87604,41.364868,47.512746,22.745215,20.223121,87.829637,85.94971,39.950067,37.197038,35.843481,41.362351,47.512276,669.34,1.84
svt_smithy_3840x2160_50_10bit_420p.y4m,59.0,13214.153846153846,0.52,32.870205,39.394032,46.488385,19.093817,16.82059,80.69372,78.620332,35.097619,34.729251,32.853933,39.393328,46.487362,586.39,1.41
svt_smithy_3840x2160_50_10bit_420p.y4m,63.0,6213.624615384615,0.52,30.048696,37.554897,45.365846,15.381974,13.386499,68.781222,66.597396,30.865354,32.230286,30.045088,37.554801,45.363695,574.75,1.11
svt_smithy_3840x2160_50_10bit_420p.y4m,27.0,75679.81538461539,0.53,42.868345,46.189499,49.956594,30.468062,27.444855,94.834399,93.357429,51.676335,42.583899,42.844599,46.177345,49.956417,867.01,2.85
svt_smithy_3840x2160_50_10bit_420p.y4m,39.0,41566.92923076923,0.53,38.824438,43.273493,48.387593,26.03423,23.250544,91.77624,90.073616,44.930959,39.425742,38.790673,43.268184,48.387443,738.78,1.81
svt_smithy_3840x2160_50_10bit_420p.y4m,49.0,24805.009230769232,0.53,35.862379,41.344009,47.530387,22.725061,20.214484,87.824103,85.944665,39.94389,37.179146,35.829891,41.341632,47.529907,691.2,1.85
svt_smithy_3840x2160_50_10bit_420p.y4m,59.0,13144.541538461537,0.53,32.854027,39.381465,46.495957,19.057585,16.792595,80.601175,78.561646,35.061208,34.711558,32.838106,39.38072,46.494947,625.65,1.1
svt_smithy_3840x2160_50_10bit_420p.y4m,63.0,6177.784615384615,0.53,30.036775,37.516169,45.326661,15.365638,13.363235,68.685628,66.54162,30.837914,32.199019,30.033152,37.516089,45.324635,606.26,1.05
svt_smithy_3840x2160_50_10bit_420p.y4m,27.0,75189.51384615384,0.55,42.831622,46.159344,49.925564,30.409699,27.389784,94.797787,93.318545,51.60541,42.551331,42.807367,46.147065,49.925415,1040.55,2.85
svt_smithy_3840x2160_50_10bit_420p.y4m,39.0,41277.735384615386,0.55,38.788523,43.250506,48.365962,25.979868,23.196406,91.718994,90.023668,44.861182,39.394766,38.754621,43.245323,48.365805,842.88,1.59
svt_smithy_3840x2160_50_10bit_420p.y4m,49.0,24629.846153846152,0.55,35.833396,41.317514,47.490829,22.673291,20.168567,87.690875,85.82613,39.890772,37.151892,35.800996,41.315221,47.490429,796.58,1.72
svt_smithy_3840x2160_50_10bit_420p.y4m,59.0,13035.56923076923,0.55,32.823793,39.360857,46.506581,19.001264,16.748052,80.435237,78.413037,35.010227,34.681259,32.807833,39.360225,46.505797,730.7,1.53
svt_smithy_3840x2160_50_10bit_420p.y4m,63.0,6105.415384615385,0.55,30.009427,37.511565,45.319066,15.313485,13.329545,68.560297,66.401215,30.795872,32.180076,30.005794,37.511486,45.316719,691.36,1.23
svt_smithy_3840x2160_50_10bit_420p.y4m,27.0,74768.5046153846,0.57,42.795908,46.14217,49.91044,30.369052,27.351349,94.813396,93.325772,51.543543,42.521905,42.771559,46.129915,49.910259,874.14,2.67
svt_smithy_3840x2160_50_10bit_420p.y4m,39.0,40980.76307692308,0.57,38.751352,43.212231,48.346021,25.935336,23.150879,91.659773,89.970834,44.804572,39.354003,38.71758,43.207051,48.345785,759.59,2.04
svt_smithy_3840x2160_50_10bit_420p.y4m,49.0,24431.52,0.57,35.797582,41.285883,47.459625,22.630424,20.111816,87.663302,85.788803,39.832816,37.112263,35.765148,41.28357,47.459166,690.38,1.92
svt_smithy_3840x2160_50_10bit_420p.y4m,59.0,12907.138461538461,0.57,32.79483,39.323841,46.453016,18.976693,16.719915,80.374007,78.313045,34.99398,34.650933,32.778871,39.323176,46.452152,639.96,1.5
svt_smithy_3840x2160_50_10bit_420p.y4m,63.0,6035.716923076923,0.57,29.971618,37.477762,45.326005,15.262259,13.280212,68.121547,65.957986,30.745584,32.150476,29.968044,37.47769,45.323737,628.35,1.3
svt_smithy_3840x2160_50_10bit_420p.y4m,27.0,74456.04923076923,0.58,42.776083,46.120175,49.895747,30.340209,27.324688,94.778449,93.296633,51.502446,42.502499,42.751253,46.107675,49.895614,1072.24,2.9
svt_smithy_3840x2160_50_10bit_420p.y4m,39.0,40843.40923076923,0.58,38.737099,43.205128,48.335982,25.911857,23.125401,91.653944,89.953889,44.767309,39.348185,38.703257,43.200065,48.335785,881.02,2.18
svt_smithy_3840x2160_50_10bit_420p.y4m,49.0,24318.89230769231,0.58,35.776916,41.26578,47.460248,22.583188,20.083986,87.656394,85.755562,39.789498,37.089447,35.744337,41.263542,47.459777,816.06,1.75
svt_smithy_3840x2160_50_10bit_420p.y4m,59.0,12853.181538461538,0.58,32.774858,39.321833,46.474314,18.934563,16.685727,80.291484,78.263114,34.952319,34.63595,32.758897,39.321234,46.473484,736.32,1.49
svt_smithy_3840x2160_50_10bit_420p.y4m,63.0,6006.6461538461535,0.58,29.961286,37.471534,45.285788,15.231843,13.262294,68.266206,66.079632,30.727828,32.136963,29.957638,37.471442,45.282985,720.73,1.38
svt_smithy_3840x2160_50_10bit_420p.y4m,27.0,73809.52615384616,0.61,42.720566,46.080256,49.864623,30.277393,27.255015,94.749248,93.264794,51.413876,42.455205,42.695659,46.068126,49.864441,889.52,2.71
svt_smithy_3840x2160_50_10bit_420p.y4m,39.0,40436.77538461539,0.61,38.684346,43.166716,48.302336,25.828722,23.059183,91.584534,89.889486,44.681521,39.288093,38.650358,43.161637,48.302129,723.85,1.59
svt_smithy_3840x2160_50_10bit_420p.y4m,49.0,24044.86153846154,0.61,35.727977,41.227451,47.442554,22.517834,20.018251,87.499493,85.631035,39.712487,37.042998,35.695296,41.225363,47.442018,709.73,1.85
svt_smithy_3840x2160_50_10bit_420p.y4m,59.0,12675.963076923075,0.61,32.729184,39.266934,46.443435,18.879964,16.623827,80.198654,78.140721,34.889277,34.581547,32.713078,39.266374,46.442433,615.14,1.49
svt_smithy_3840x2160_50_10bit_420p.y4m,63.0,5901.1446153846155,0.61,29.916324,37.437327,45.32485,15.172031,13.194094,67.792154,65.638143,30.658364,32.09614,29.912725,37.437257,45.322765,624.63,1.05
svt_smithy_3840x2160_50_10bit_420p.y4m,27.0,72498.53538461539,0.67,42.609078,46.001648,49.790767,30.164044,27.121725,94.687166,93.199831,51.229534,42.356899,42.58307,45.989592,49.790594,749.25,2.3
svt_smithy_3840x2160_50_10bit_420p.y4m,39.0,39659.015384615384,0.67,38.57437,43.086744,48.248547,25.679279,22.918261,91.446198,89.748727,44.491324,39.198412,38.540012,43.081931,48.24826,609.82,1.58
svt_smithy_3840x2160_50_10bit_420p.y4m,49.0,23555.704615384617,0.67,35.634524,41.149213,47.399321,22.386401,19.891836,87.30279,85.440086,39.573828,36.951176,35.602045,41.147186,47.398611,573.41,1.71
svt_smithy_3840x2160_50_10bit_420p.y4m,59.0,12349.316923076924,0.67,32.643088,39.197387,46.403174,18.733311,16.500736,79.81388,77.757757,34.753077,34.492198,32.62733,39.196895,46.402414,517.76,1.44
svt_smithy_3840x2160_50_10bit_420p.y4m,63.0,5712.270769230769,0.67,29.830005,37.350238,45.265691,15.039991,13.074524,67.404635,65.278026,30.522377,32.016203,29.826533,37.350159,45.262203,502.63,1.05
svt_smithy_3840x2160_50_10bit_420p.y4m,27.0,71262.48615384616,0.73,42.493482,45.926982,49.72352,30.008785,26.971549,94.612072,93.121316,51.026351,42.255341,42.466716,45.915136,49.723357,866.74,2.19
svt_smithy_3840x2160_50_10bit_420p.y4m,39.0,38892.627692307695,0.73,38.467787,43.004602,48.180711,25.546213,22.772405,91.336589,89.638526,44.309096,39.098947,38.432968,42.99995,48.180497,691.08,1.57
svt_smithy_3840x2160_50_10bit_420p.y4m,49.0,23042.867692307693,0.73,35.536912,41.072111,47.32589,22.273725,19.767748,87.153957,85.266428,39.406904,36.852634,35.504452,41.070276,47.325217,649.55,1.38
svt_smithy_3840x2160_50_10bit_420p.y4m,59.0,12050.44923076923,0.73,32.550792,39.111521,46.327211,18.614537,16.376567,79.573804,77.538098,34.624695,34.39684,32.535206,39.111148,46.325864,630.52,1.5
svt_smithy_3840x2160_50_10bit_420p.y4m,63.0,5528.689230769231,0.73,29.746594,37.275741,45.177422,14.920906,12.958436,66.723669,64.668159,30.399478,31.928413,29.743003,37.275648,45.173892,632.06,1.39
svt_smithy_3840x2160_50_10bit_420p.y4m,27.0,66221.10769230769,1.02,41.97306,45.551188,49.397866,29.41458,26.363265,94.272048,92.777313,50.163924,41.805291,41.941798,45.539438,49.397629,737.59,2.02
svt_smithy_3840x2160_50_10bit_420p.y4m,39.0,35896.984615384616,1.02,38.001864,42.63609,47.930596,25.011016,22.2414,90.747787,89.041503,43.550204,38.67533,37.964713,42.632086,47.930304,604.74,1.62
svt_smithy_3840x2160_50_10bit_420p.y4m,49.0,21058.14153846154,1.02,35.094298,40.729046,47.053461,21.700523,19.211425,86.205637,84.32672,38.7191,36.445256,35.06158,40.727676,47.052827,557.48,1.58
svt_smithy_3840x2160_50_10bit_420p.y4m,59.0,10761.058461538461,1.02,32.130262,38.781204,45.982258,18.046853,15.833033,78.036892,75.9804,34.008525,34.006955,32.115132,38.780985,45.980925,513.52,1.08
svt_smithy_3840x2160_50_10bit_420p.y4m,63.0,4788.369230769231,1.02,29.347714,36.972625,44.915635,14.351842,12.430487,64.069658,62.08327,29.782799,31.555117,29.344303,36.972445,44.911481,494.9,0.93
svt_smithy_3840x2160_50_10bit_420p.y4m,27.0,59306.17846153846,1.59,41.13732,44.91767,48.891877,28.610006,25.544481,93.695812,92.169445,48.859901,41.099962,41.096951,44.906912,48.891723,727.42,1.69
svt_smithy_3840x2160_50_10bit_420p.y4m,39.0,31705.03384615385,1.59,37.197138,42.033364,47.483726,24.116052,21.370963,89.657748,87.943721,42.247489,37.988239,37.156458,42.03007,47.483281,601.46,1.28
svt_smithy_3840x2160_50_10bit_420p.y4m,49.0,18265.907692307694,1.59,34.337723,40.176107,46.697276,20.791908,18.32307,84.377956,82.546428,37.549608,35.796957,34.305726,40.175134,46.696585,555.08,1.05
svt_smithy_3840x2160_50_10bit_420p.y4m,59.0,9003.446153846155,1.59,31.409063,38.227623,45.610722,17.139548,14.93167,74.833853,72.933731,32.965542,33.345237,31.395659,38.227421,45.609076,508.21,0.99
svt_smithy_3840x2160_50_10bit_420p.y4m,63.0,3776.64,1.59,28.693761,36.433063,44.397789,13.392743,11.569694,59.116771,57.287731,28.782524,30.925041,28.690649,36.432949,44.394672,494.88,0.96
svt_smithy_3840x2160_50_10bit_420p.y4m,27.0,51782.092307692306,2.51,39.993018,44.066787,48.261246,27.441844,24.407547,92.751106,91.183722,47.000397,40.172757,39.94338,44.058078,48.261067,791.62,1.61
svt_smithy_3840x2160_50_10bit_420p.y4m,39.0,27057.083076923074,2.51,36.074602,41.252923,46.974221,22.894683,20.189924,87.87584,86.128695,40.47362,37.080982,36.032423,41.250584,46.973141,676.56,1.71
svt_smithy_3840x2160_50_10bit_420p.y4m,49.0,15201.243076923076,2.51,33.293591,39.417441,46.064189,19.590885,17.156263,81.534069,79.664429,35.993405,34.873993,33.263925,39.416862,46.063008,586.13,1.1
svt_smithy_3840x2160_50_10bit_420p.y4m,59.0,7113.612307692308,2.51,30.456666,37.557589,44.835235,15.919482,13.795412,70.175734,68.279474,31.592615,32.473223,30.446042,37.557306,44.831531,552.13,1.35
svt_smithy_3840x2160_50_10bit_420p.y4m,63.0,2738.510769230769,2.51,27.826188,35.768438,43.716506,12.163766,10.472853,51.725562,50.100445,27.431577,30.123438,27.823597,35.768293,43.714621,511.83,1.14
svt_smithy_3840x2160_50_10bit_420p.y4m-slow,27.0,40313.870769230765,1,44.301791,45.119007,48.435164,34.973677,26.415575,94.918184,93.232133,49.154833,42.604731,44.283142,45.103247,48.434533,72960.5,8.63
svt_smithy_3840x2160_50_10bit_420p.y4m-slow,39.0,21030.526153846153,1,40.862897,42.294456,46.693869,30.71714,22.630971,91.562531,89.661726,43.072953,39.869525,40.840568,42.286068,46.693634,58832.54,8.09
svt_smithy_3840x2160_50_10bit_420p.y4m-slow,49.0,12390.796923076923,1,38.192924,40.538723,45.823753,27.342231,19.807818,86.952439,84.900223,38.514793,37.983541,38.168006,40.534733,45.823479,47125.9,6.15
svt_smithy_3840x2160_50_10bit_420p.y4m-slow,59.0,6678.476923076923,1,35.267384,38.908621,45.100841,23.41018,16.595493,78.598009,76.472134,33.956734,35.893997,35.249173,38.907004,45.100515,35711.62,6.88
svt_smithy_3840x2160_50_10bit_420p.y4m-slow,63.0,3474.446153846154,1,32.524798,37.339607,44.43942,19.571863,13.419508,66.36008,64.182952,30.068793,33.741118,32.516858,37.339316,44.438514,29737.86,4.96
svt_smithy_3840x2160_50_10bit_420p.y4m-slow,27.0,47939.13538461539,0.57,45.235874,45.76391,49.039385,36.17757,27.578471,95.510949,93.886672,50.873094,43.329071,45.222211,45.748816,49.038456,57977.65,8.9
svt_smithy_3840x2160_50_10bit_420p.y4m-slow,39.0,25203.88,0.57,41.797026,42.912051,47.139969,31.925126,23.749081,92.736792,90.866572,44.714677,40.575325,41.779388,42.902521,47.139631,48134.1,6.95
svt_smithy_3840x2160_50_10bit_420p.y4m-slow,49.0,15015.363076923077,0.57,39.105927,41.090545,46.165292,28.561388,20.880701,88.773261,86.765099,40.009025,38.652858,39.085218,41.085542,46.165008,36320.8,5.58
svt_smithy_3840x2160_50_10bit_420p.y4m-slow,59.0,8272.123076923077,0.57,36.169358,39.401371,45.321975,24.660798,17.637639,81.740382,79.59064,35.299842,36.575114,36.152721,39.399173,45.321722,26827.16,4.71
svt_smithy_3840x2160_50_10bit_420p.y4m-slow,63.0,4503.741538461538,0.57,33.408961,37.823998,44.562047,20.787665,14.420174,71.009313,68.787805,31.328027,34.412566,33.401321,37.82353,44.560901,22363.23,4.12
svt_smoke_sauna_3840x2160_50_10bit_420p.y4m,27.0,7021.44,1,50.240612,53.804555,54.795203,26.995462,26.419696,94.051993,92.761947,48.607473,49.017227,50.232721,53.797878,54.790395,919.13,1.52
svt_smoke_sauna_3840x2160_50_10bit_420p.y4m,39.0,3602.3015384615387,1,47.648775,51.984193,53.233608,24.255696,23.91811,89.609055,88.152421,45.345877,47.580833,47.633829,51.971924,53.225453,647.53,1.44
svt_smoke_sauna_3840x2160_50_10bit_420p.y4m,49.0,2096.1723076923076,1,45.441301,50.390977,51.939604,22.111791,21.914366,83.50109,81.880511,42.520075,46.297595,45.418156,50.375615,51.931538,546.53,0.97
svt_smoke_sauna_3840x2160_50_10bit_420p.y4m,59.0,1130.88,1,42.823614,48.548114,50.399739,19.705074,19.63688,72.386593,70.649645,39.181282,44.63561,42.792422,48.531326,50.392239,467.04,1.02
svt_smoke_sauna_3840x2160_50_10bit_420p.y4m,63.0,640.5538461538462,1,40.446578,46.574685,48.6006,17.237292,17.402315,57.672457,55.966523,36.253914,42.710255,40.413553,46.557946,48.592511,400.63,0.89
svt_smoke_sauna_3840x2160_50_10bit_420p.y4m,27.0,7077.095384615385,0.97,50.269368,53.824917,54.827846,27.020918,26.444444,94.092451,92.787658,48.638626,49.039341,50.261484,53.818084,54.822972,957.8,1.95
svt_smoke_sauna_3840x2160_50_10bit_420p.y4m,39.0,3635.4584615384615,0.97,47.686353,52.013159,53.269902,24.300952,23.95423,89.656413,88.211413,45.392099,47.594284,47.671626,52.000946,53.262093,660.43,1.42
svt_smoke_sauna_3840x2160_50_10bit_420p.y4m,49.0,2115.7784615384617,0.97,45.475725,50.421282,51.995352,22.148942,21.943081,83.665421,82.038824,42.559728,46.311679,45.452484,50.405987,51.98726,537.8,1.23
svt_smoke_sauna_3840x2160_50_10bit_420p.y4m,59.0,1146.24,0.97,42.875841,48.597284,50.395847,19.745149,19.675911,72.724936,71.029669,39.249322,44.658586,42.845691,48.580333,50.387137,466.59,0.84
svt_smoke_sauna_3840x2160_50_10bit_420p.y4m,63.0,651.7046153846154,0.97,40.4956,46.570069,48.720601,17.266409,17.419757,58.209271,56.49504,36.315516,42.760998,40.464746,46.552952,48.712151,409.09,1.04
svt_smoke_sauna_3840x2160_50_10bit_420p.y4m,27.0,6981.981538461538,1.02,50.225171,53.77934,54.781328,26.974782,26.404272,94.055364,92.738981,48.591399,49.006623,50.217164,53.772612,54.776483,902.47,1.28
svt_smoke_sauna_3840x2160_50_10bit_420p.y4m,39.0,3583.1753846153847,1.02,47.624143,51.947068,53.210306,24.241706,23.896993,89.494516,88.040816,45.317065,47.556043,47.609206,51.935027,53.202185,659.01,1.16
svt_smoke_sauna_3840x2160_50_10bit_420p.y4m,49.0,2081.7476923076924,1.02,45.417605,50.371663,51.941531,22.092441,21.890765,83.519183,81.879314,42.489145,46.274851,45.394387,50.35721,51.933956,540.73,0.94
svt_smoke_sauna_3840x2160_50_10bit_420p.y4m,59.0,1126.5476923076922,1.02,42.806494,48.545766,50.402104,19.686171,19.621159,72.18583,70.465205,39.167872,44.623907,42.775866,48.528875,50.393896,467.84,0.87
svt_smoke_sauna_3840x2160_50_10bit_420p.y4m,63.0,640.2584615384615,1.02,40.431053,46.522349,48.639023,17.221095,17.379385,57.513222,55.873752,36.237885,42.712114,40.398782,46.505168,48.630447,411.58,0.74
svt_smoke_sauna_3840x2160_50_10bit_420p.y4m,27.0,6845.452307692308,1.09,50.152423,53.743403,54.733339,26.894735,26.329558,93.950624,92.641543,48.502384,48.974033,50.144215,53.736615,54.728612,988.58,1.67
svt_smoke_sauna_3840x2160_50_10bit_420p.y4m,39.0,3515.5076923076927,1.09,47.544187,51.890395,53.143828,24.161048,23.822809,89.391525,87.929239,45.223841,47.506965,47.529029,51.87818,53.13568,712.6,1.29
svt_smoke_sauna_3840x2160_50_10bit_420p.y4m,49.0,2044.9476923076923,1.09,45.340239,50.322375,51.903204,22.016938,21.819471,83.166579,81.537327,42.391373,46.231848,45.316744,50.307305,51.895348,594.48,0.91
svt_smoke_sauna_3840x2160_50_10bit_420p.y4m,59.0,1098.4246153846154,1.09,42.717618,48.413431,50.284684,19.622275,19.553216,71.769046,70.125584,39.052199,44.573031,42.685335,48.395473,50.276319,471.98,1.06
svt_smoke_sauna_3840x2160_50_10bit_420p.y4m,63.0,624.1723076923078,1.09,40.333355,46.446236,48.505832,17.11405,17.284515,56.714369,55.097369,36.116205,42.640354,40.300899,46.429787,48.497138,441.57,1.17
svt_smoke_sauna_3840x2160_50_10bit_420p.y4m,27.0,6825.969230769231,1.1,50.138357,53.731936,54.744577,26.886125,26.31958,93.934281,92.630092,48.486062,48.965625,50.130158,53.725151,54.739623,1080.95,1.82
svt_smoke_sauna_3840x2160_50_10bit_420p.y4m,39.0,3500.5046153846156,1.1,47.532573,51.894091,53.14134,24.152657,23.808541,89.391989,87.918507,45.202834,47.507101,47.517636,51.881526,53.133934,784.82,1.37
svt_smoke_sauna_3840x2160_50_10bit_420p.y4m,49.0,2036.6646153846154,1.1,45.320276,50.316808,51.856232,22.005325,21.803219,83.175056,81.54371,42.373899,46.211547,45.296835,50.301011,51.847467,657.79,1.27
svt_smoke_sauna_3840x2160_50_10bit_420p.y4m,59.0,1091.9876923076922,1.1,42.717361,48.418907,50.270138,19.610194,19.543803,71.766945,70.078849,39.052254,44.561037,42.687424,48.402656,50.260968,510.29,1.15
svt_smoke_sauna_3840x2160_50_10bit_420p.y4m,63.0,621.5138461538461,1.1,40.309732,46.442616,48.519721,17.108699,17.274369,56.482179,54.801095,36.095294,42.63604,40.276265,46.424709,48.511095,474.71,1.05
svt_smoke_sauna_3840x2160_50_10bit_420p.y4m,27.0,6814.8553846153845,1.11,50.128812,53.717124,54.726569,26.878012,26.310414,93.933214,92.61681,48.472357,48.960008,50.12058,53.710167,54.721725,1058.21,1.71
svt_smoke_sauna_3840x2160_50_10bit_420p.y4m,39.0,3493.3415384615387,1.11,47.521133,51.856,53.14846,24.140227,23.800364,89.334159,87.881074,45.194126,47.491721,47.505921,51.843663,53.140641,783.81,1.35
svt_smoke_sauna_3840x2160_50_10bit_420p.y4m,49.0,2030.6338461538462,1.11,45.321203,50.290662,51.885108,21.99282,21.797769,83.088687,81.496215,42.368546,46.217126,45.297762,50.274782,51.876511,639.45,1.16
svt_smoke_sauna_3840x2160_50_10bit_420p.y4m,59.0,1095.803076923077,1.11,42.7012,48.433727,50.285322,19.596121,19.536069,71.73865,70.07004,39.041899,44.569666,42.669822,48.416929,50.276457,529.14,0.95
svt_smoke_sauna_3840x2160_50_10bit_420p.y4m,63.0,619.4215384615385,1.11,40.303615,46.439404,48.504999,17.096858,17.272308,56.680453,55.050147,36.08486,42.614303,40.269722,46.422826,48.496484,492.88,1.19
svt_smoke_sauna_3840x2160_50_10bit_420p.y4m,27.0,6642.793846153846,1.21,50.025426,53.654351,54.667885,26.760636,26.208337,93.794605,92.482091,48.349214,48.903422,50.016979,53.647088,54.662828,1023.92,1.35
svt_smoke_sauna_3840x2160_50_10bit_420p.y4m,39.0,3405.6246153846155,1.21,47.409104,51.792728,53.075948,24.027553,23.693388,89.121723,87.647577,45.051331,47.430978,47.393815,51.780389,53.068178,814.95,1.16
svt_smoke_sauna_3840x2160_50_10bit_420p.y4m,49.0,1981.9446153846154,1.21,45.200424,50.218602,51.802651,21.882948,21.690034,82.672985,81.109096,42.224012,46.161527,45.176686,50.202629,51.794164,647.83,1.18
svt_smoke_sauna_3840x2160_50_10bit_420p.y4m,59.0,1064.0861538461538,1.21,42.586997,48.359899,50.186021,19.47515,19.417795,71.148755,69.427126,38.892538,44.497831,42.554945,48.341337,50.176326,534.27,1.06
svt_smoke_sauna_3840x2160_50_10bit_420p.y4m,63.0,605.1815384615385,1.21,40.223133,46.345709,48.398688,17.024607,17.202271,55.738091,54.089606,35.997226,42.574739,40.189429,46.329761,48.391177,474.34,1.1
svt_smoke_sauna_3840x2160_50_10bit_420p.y4m,27.0,6115.335384615385,1.59,49.668692,53.417432,54.452239,26.383893,25.855956,93.331071,92.004227,47.914401,48.712958,49.659331,53.410152,54.447217,808.38,1.19
svt_smoke_sauna_3840x2160_50_10bit_420p.y4m,39.0,3127.6184615384614,1.59,47.006339,51.495198,52.828932,23.637727,23.317243,88.172097,86.702495,44.561424,47.215199,46.99012,51.48221,52.821304,608.32,0.89
svt_smoke_sauna_3840x2160_50_10bit_420p.y4m,49.0,1809.6615384615384,1.59,44.793904,49.853083,51.486734,21.510511,21.318382,81.159246,79.622504,41.724802,45.890741,44.770071,49.836827,51.477903,511.77,0.8
svt_smoke_sauna_3840x2160_50_10bit_420p.y4m,59.0,966.7076923076922,1.59,42.164761,47.955132,49.841652,19.07869,19.043444,68.590323,66.968007,38.377779,44.152524,42.131623,47.936956,49.833005,440.05,0.75
svt_smoke_sauna_3840x2160_50_10bit_420p.y4m,63.0,548.1107692307693,1.59,39.802046,45.974902,48.109938,16.658545,16.859402,52.053514,50.526325,35.489529,42.224849,39.765531,45.961184,48.102291,395.36,0.87
svt_smoke_sauna_3840x2160_50_10bit_420p.y4m,27.0,5256.590769230769,2.51,48.877185,52.866905,53.963663,25.567682,25.094704,92.1578,90.809209,46.961055,48.279007,48.866414,52.859322,53.958183,837.97,1.14
svt_smoke_sauna_3840x2160_50_10bit_420p.y4m,39.0,2664.0615384615385,2.51,46.12967,50.873427,52.270803,22.788919,22.498345,86.02733,84.588264,43.47975,46.714203,46.112357,50.860565,52.262797,620.15,0.87
svt_smoke_sauna_3840x2160_50_10bit_420p.y4m,49.0,1534.4738461538464,2.51,43.948081,49.123103,50.90011,20.700902,20.53618,77.90385,76.392644,40.681352,45.317777,43.924157,49.10776,50.891299,527.49,0.79
svt_smoke_sauna_3840x2160_50_10bit_420p.y4m,59.0,818.5476923076923,2.51,41.395275,47.191454,49.207996,18.288258,18.316941,63.850706,62.350623,37.436821,43.544118,41.362932,47.172811,49.197775,476.34,1.1
svt_smoke_sauna_3840x2160_50_10bit_420p.y4m,63.0,460.8,2.51,39.005839,45.145561,47.359965,15.967902,16.215753,45.301181,43.883275,34.585613,41.429697,38.962372,45.132503,47.353396,399.7,0.88
svt_smoke_sauna_3840x2160_50_10bit_420p.y4m-slow,27.0,3569.8676923076923,1,51.909315,54.758366,55.739763,30.527817,26.823344,94.979215,93.708265,48.802572,49.631421,51.904607,54.754721,55.737384,33724.16,6.07
svt_smoke_sauna_3840x2160_50_10bit_420p.y4m-slow,39.0,1831.723076923077,1,50.024668,53.329262,54.429752,27.58569,25.031803,91.743439,90.322065,46.48697,48.572712,50.014582,53.322726,54.425074,23332.43,5.54
svt_smoke_sauna_3840x2160_50_10bit_420p.y4m-slow,49.0,1095.12,1,48.187188,52.044384,53.250559,25.279673,23.411001,87.058166,85.586693,44.260058,47.536119,48.169336,52.035277,53.244298,18644.15,3.71
svt_smoke_sauna_3840x2160_50_10bit_420p.y4m-slow,59.0,614.4646153846154,1,45.822396,50.32148,51.770906,22.768448,21.399588,78.68351,77.188195,41.48139,46.144168,45.795092,50.30667,51.761813,14939.33,4.17
svt_smoke_sauna_3840x2160_50_10bit_420p.y4m-slow,63.0,355.35692307692307,1,43.456541,48.252903,50.080657,20.275755,19.309873,67.658656,66.088944,38.818446,44.398914,43.421781,48.230481,50.071517,12791.49,3.82
svt_smoke_sauna_3840x2160_50_10bit_420p.y4m-slow,27.0,3456.750769230769,1.1,51.82703,54.689877,55.677969,30.394542,26.743887,94.869108,93.591114,48.705164,49.585381,51.822171,54.686201,55.675607,27752.22,4.96
svt_smoke_sauna_3840x2160_50_10bit_420p.y4m-slow,39.0,1774.476923076923,1.1,49.922936,53.247975,54.359419,27.465306,24.943042,91.507873,90.107013,46.365606,48.512487,49.912566,53.241076,54.354748,20778.29,3.93
svt_smoke_sauna_3840x2160_50_10bit_420p.y4m-slow,49.0,1059.2953846153846,1.1,48.071282,51.938653,53.1653,25.161916,23.310083,86.691291,85.211869,44.121171,47.474245,48.052945,51.92926,53.158854,16908.19,4.4
svt_smoke_sauna_3840x2160_50_10bit_420p.y4m-slow,59.0,595.5046153846154,1.1,45.694373,50.198822,51.648417,22.662171,21.293696,78.160666,76.616793,41.335215,46.070861,45.666168,50.183788,51.63929,13568.41,3.29
svt_smoke_sauna_3840x2160_50_10bit_420p.y4m-slow,63.0,343.19692307692304,1.1,43.333801,48.146816,49.919459,20.161872,19.214334,66.932142,65.370151,38.685632,44.292731,43.299846,48.125093,49.910966,11514.51,3.85
svt_water_flyover_3840x2160_50_10bit_420p.y4m,27.0,87809.2923076923,1,41.387844,54.202719,58.880686,23.299809,21.230561,90.744743,89.218803,43.543245,43.3188,41.318856,54.195329,58.870361,1265.07,2.91
svt_water_flyover_3840x2160_50_10bit_420p.y4m,39.0,40759.015384615384,1,37.87324,52.870971,58.433346,19.640789,17.902494,80.25748,78.853771,38.66896,40.797509,37.774292,52.863025,58.421817,995.84,2.12
svt_water_flyover_3840x2160_50_10bit_420p.y4m,49.0,21156.726153846153,1,35.338772,51.574657,58.189641,16.95934,15.490772,67.89426,66.698895,35.119042,38.859998,35.223154,51.564867,58.173436,903.26,2.02
svt_water_flyover_3840x2160_50_10bit_420p.y4m,59.0,9871.704615384617,1,33.038602,49.068303,58.248763,14.148002,13.016279,52.686908,51.733244,31.804598,36.680747,32.952737,49.053095,58.236649,803.3,1.69
svt_water_flyover_3840x2160_50_10bit_420p.y4m,63.0,4292.123076923077,1,31.218926,47.217934,58.119195,11.251961,10.604046,37.031358,36.346544,29.077979,34.962673,31.180935,47.022816,58.1103,757.38,1.29
svt_water_flyover_3840x2160_50_10bit_420p.y4m,27.0,105693.74769230769,0.45,42.186184,54.76682,59.074152,24.219926,22.090394,92.711777,91.074269,44.765449,43.983868,42.133244,54.75806,59.064667,1503.29,3.49
svt_water_flyover_3840x2160_50_10bit_420p.y4m,39.0,49842.04307692308,0.45,38.60698,53.512777,58.486929,20.501989,18.71201,83.431955,81.875471,39.765582,41.472092,38.521278,53.50548,58.477284,1206.05,3.07
svt_water_flyover_3840x2160_50_10bit_420p.y4m,49.0,26028.603076923075,0.45,35.962883,52.409419,58.206892,17.74987,16.222847,71.86099,70.47637,36.039063,39.503197,35.855724,52.39774,58.197528,1063.5,2.34
svt_water_flyover_3840x2160_50_10bit_420p.y4m,59.0,12285.00923076923,0.45,33.519043,50.495249,58.147817,14.912375,13.686795,56.476796,55.373833,32.522111,37.384337,33.429766,50.488128,58.138917,922.08,1.91
svt_water_flyover_3840x2160_50_10bit_420p.y4m,63.0,5600.996923076923,0.45,31.680205,48.570075,58.119195,12.049806,11.266285,41.710752,40.859537,29.759433,35.61914,31.636959,48.540575,58.1103,863.26,1.55
svt_water_flyover_3840x2160_50_10bit_420p.y4m,27.0,100205.02153846153,0.59,41.993276,54.612649,59.073197,23.985619,21.869088,92.234662,90.633461,44.454377,43.818808,41.93679,54.604469,59.062465,1596.47,4.2
svt_water_flyover_3840x2160_50_10bit_420p.y4m,39.0,46926.129230769235,0.59,38.412468,53.346237,58.510976,20.258705,18.481058,82.59338,81.083301,39.461162,41.297389,38.323581,53.338933,58.500908,1260.19,3.08
svt_water_flyover_3840x2160_50_10bit_420p.y4m,49.0,24522.424615384614,0.59,35.810354,52.211845,58.236323,17.550834,16.03465,70.91081,69.566505,35.813114,39.339217,35.701921,52.200761,58.225192,1122.19,2.26
svt_water_flyover_3840x2160_50_10bit_420p.y4m,59.0,11531.421538461538,0.59,33.394335,50.140821,58.159648,14.709952,13.507846,55.481674,54.422544,32.335834,37.205596,33.305696,50.125631,58.150362,993.01,1.76
svt_water_flyover_3840x2160_50_10bit_420p.y4m,63.0,5194.412307692308,0.59,31.555765,48.178379,58.119195,11.833401,11.084793,40.383991,39.589798,29.577285,35.436034,31.513313,48.149241,58.1103,953.44,1.57
svt_water_flyover_3840x2160_50_10bit_420p.y4m,27.0,97744.7876923077,0.66,41.892401,54.542104,59.007595,23.873382,21.762834,92.012963,90.423229,44.303726,43.729467,41.834081,54.534204,58.996926,1737.24,4.45
svt_water_flyover_3840x2160_50_10bit_420p.y4m,39.0,45723.28615384615,0.66,38.322783,53.284974,58.526965,20.147294,18.376776,82.168929,80.690875,39.322353,41.223113,38.232385,53.277205,58.515054,1395.27,3.01
svt_water_flyover_3840x2160_50_10bit_420p.y4m,49.0,23863.90153846154,0.66,35.729561,52.157293,58.289752,17.44755,15.940444,70.387222,69.080929,35.69286,39.284319,35.619808,52.147773,58.278384,1284.76,2.38
svt_water_flyover_3840x2160_50_10bit_420p.y4m,59.0,11197.87076923077,0.66,33.336759,50.04601,58.14991,14.614075,13.424293,55.018609,53.980683,32.248692,37.140782,33.248994,50.034814,58.140697,1040.92,1.86
svt_water_flyover_3840x2160_50_10bit_420p.y4m,63.0,5020.135384615385,0.66,31.497183,48.628874,58.119195,11.741129,11.006166,39.863904,39.083319,29.48771,35.510023,31.455212,48.560149,58.1103,1041.34,1.71
svt_water_flyover_3840x2160_50_10bit_420p.y4m,27.0,97349.72307692307,0.67,41.875191,54.518978,58.965227,23.855512,21.744947,91.947211,90.367556,44.280865,43.712039,41.816448,54.511565,58.953373,1405.23,3.15
svt_water_flyover_3840x2160_50_10bit_420p.y4m,39.0,45499.31076923077,0.67,38.310319,53.276165,58.465645,20.143563,18.370118,82.15123,80.669087,39.312093,41.212258,38.220013,53.268596,58.454997,1138.24,2.62
svt_water_flyover_3840x2160_50_10bit_420p.y4m,49.0,23791.963076923075,0.67,35.721219,52.158655,58.268501,17.444375,15.932258,70.388488,69.078544,35.684302,39.277047,35.61155,52.149833,58.257571,1091.67,2.08
svt_water_flyover_3840x2160_50_10bit_420p.y4m,59.0,11151.655384615384,0.67,33.326179,49.930926,58.152162,14.595082,13.407679,54.965559,53.92313,32.231399,37.109015,33.239,49.925804,58.143143,986.33,1.74
svt_water_flyover_3840x2160_50_10bit_420p.y4m,63.0,4995.864615384615,0.67,31.488722,48.006846,58.119195,11.72079,10.991192,39.778362,38.991684,29.477205,35.353649,31.447166,47.986159,58.1103,900.47,1.36
svt_water_flyover_3840x2160_50_10bit_420p.y4m,27.0,97063.12615384615,0.68,41.861234,54.515093,59.037853,23.836606,21.728318,91.922752,90.341802,44.254802,43.705206,41.80217,54.507657,59.026494,1705.08,3.63
svt_water_flyover_3840x2160_50_10bit_420p.y4m,39.0,45358.15384615385,0.68,38.296272,53.245342,58.441001,20.119851,18.35041,82.067302,80.591189,39.28673,41.188709,38.205798,53.236895,58.431355,1380.53,3.06
svt_water_flyover_3840x2160_50_10bit_420p.y4m,49.0,23686.14153846154,0.68,35.707021,52.13628,58.280594,17.416381,15.910617,70.225588,68.928593,35.658927,39.265469,35.597153,52.127491,58.267576,1246.58,2.31
svt_water_flyover_3840x2160_50_10bit_420p.y4m,59.0,11116.836923076924,0.68,33.319401,50.005109,58.156192,14.576328,13.392211,54.806134,53.779351,32.218269,37.120891,33.231836,49.991183,58.146784,1081.22,1.94
svt_water_flyover_3840x2160_50_10bit_420p.y4m,63.0,4969.255384615385,0.68,31.479582,48.16093,58.119195,11.705544,10.976217,39.621308,38.862723,29.462067,35.402656,31.437931,48.091865,58.1103,1010.64,1.71
svt_water_flyover_3840x2160_50_10bit_420p.y4m,27.0,96719.6923076923,0.69,41.846763,54.49915,58.996707,23.82929,21.719758,91.891337,90.316697,44.245123,43.690104,41.787618,54.491794,58.986395,1429.58,3.78
svt_water_flyover_3840x2160_50_10bit_420p.y4m,39.0,45170.04307692308,0.69,38.281783,53.229024,58.46868,20.107671,18.336224,82.031639,80.557631,39.267076,41.17433,38.191079,53.221101,58.45918,1197.3,3.04
svt_water_flyover_3840x2160_50_10bit_420p.y4m,49.0,23600.763076923075,0.69,35.696297,52.151125,58.221167,17.407246,15.900888,70.247533,68.937494,35.644035,39.249528,35.586776,52.141263,58.211686,1078.25,2.15
svt_water_flyover_3840x2160_50_10bit_420p.y4m,59.0,11069.16923076923,0.69,33.312583,49.875103,58.152452,14.566297,13.384855,54.77719,53.757662,32.209688,37.078812,33.225168,49.870373,58.143172,961.68,1.91
svt_water_flyover_3840x2160_50_10bit_420p.y4m,63.0,4949.92,0.69,31.47222,47.893536,58.119195,11.694701,10.967223,39.569913,38.803837,29.451468,35.318646,31.431052,47.861564,58.1103,891.28,1.68
svt_water_flyover_3840x2160_50_10bit_420p.y4m,27.0,87387.32307692307,1.02,41.360895,54.186028,58.868499,23.264614,21.198907,90.662427,89.14453,43.496542,43.296821,41.291462,54.178316,58.85818,1277.25,3.03
svt_water_flyover_3840x2160_50_10bit_420p.y4m,39.0,40520.19692307692,1.02,37.858763,52.852459,58.46349,19.628457,17.889043,80.193918,78.79844,38.650523,40.793226,37.760032,52.842477,58.451577,1043.39,2.83
svt_water_flyover_3840x2160_50_10bit_420p.y4m,49.0,21040.46769230769,1.02,35.321695,51.467987,58.169873,16.942847,15.469972,67.832908,66.637111,35.094923,38.824136,35.205977,51.460588,58.156354,918.44,2.05
svt_water_flyover_3840x2160_50_10bit_420p.y4m,59.0,9802.707692307693,1.02,33.016867,48.958105,58.190301,14.107558,12.984006,52.409229,51.449254,31.773395,36.626259,32.931505,48.933305,58.180576,793.65,1.4
svt_water_flyover_3840x2160_50_10bit_420p.y4m,63.0,4260.923076923077,1.02,31.204549,48.49175,58.119195,11.235913,10.587142,36.783316,36.099543,29.05919,35.255979,31.166267,48.487297,58.1103,721.53,1.18
svt_water_flyover_3840x2160_50_10bit_420p.y4m,27.0,75935.82769230769,1.59,40.556781,53.53096,58.648074,22.363644,20.377588,88.495421,87.048637,42.3311,42.591183,40.470635,53.522842,58.637495,1197.55,2.79
svt_water_flyover_3840x2160_50_10bit_420p.y4m,39.0,34782.04307692308,1.59,37.156567,52.189522,58.392752,18.848821,17.169341,76.97109,75.679087,37.64398,40.126028,37.044491,52.182219,58.381315,956.05,2.49
svt_water_flyover_3840x2160_50_10bit_420p.y4m,49.0,17990.486153846152,1.59,34.744388,50.463274,58.22971,16.239519,14.828579,64.191005,63.114621,34.263414,38.156822,34.621426,50.455914,58.217151,832.52,1.83
svt_water_flyover_3840x2160_50_10bit_420p.y4m,59.0,8237.058461538461,1.59,32.553599,47.341575,58.187594,13.374071,12.357128,48.529744,47.708642,31.091186,35.908966,32.470894,47.325384,58.177874,751.77,1.37
svt_water_flyover_3840x2160_50_10bit_420p.y4m,63.0,3414.449230769231,1.59,30.7822,47.341441,58.119195,10.535167,10.006941,32.215092,31.667327,28.440274,34.650177,30.748483,47.334463,58.1103,691.32,1.15
svt_water_flyover_3840x2160_50_10bit_420p.y4m,27.0,62987.88923076923,2.51,39.48317,52.893034,58.503216,21.245396,19.33544,85.255742,83.893574,40.840612,41.727929,39.377844,52.884404,58.491153,1175.28,2.83
svt_water_flyover_3840x2160_50_10bit_420p.y4m,39.0,28663.753846153846,2.51,36.247932,51.349045,58.383941,17.854654,16.241377,72.690308,71.528863,36.379619,39.3252,36.124796,51.342439,58.372275,952.89,1.78
svt_water_flyover_3840x2160_50_10bit_420p.y4m,49.0,14821.058461538461,2.51,33.996864,48.798407,58.23625,15.23533,13.94611,59.301668,58.367479,33.160075,37.183372,33.874318,48.775207,58.22373,850.63,1.56
svt_water_flyover_3840x2160_50_10bit_420p.y4m,59.0,6551.790769230769,2.51,31.925103,46.937087,58.119195,12.316444,11.48266,42.924155,42.23884,30.143883,35.382701,31.851479,46.925489,58.1103,724.13,1.33
svt_water_flyover_3840x2160_50_10bit_420p.y4m,63.0,2539.6676923076925,2.51,30.19226,45.938538,58.119195,9.540001,9.197407,25.760517,25.36626,27.574055,33.812796,30.16627,45.928135,58.1103,662.99,1.14
svt_water_flyover_3840x2160_50_10bit_420p.y4m-slow,27.0,51424.54153846153,1,44.441067,55.367996,59.829936,28.061864,22.349051,94.917765,92.867119,43.51749,45.664263,44.379013,55.351743,59.817629,83105.92,11.58
svt_water_flyover_3840x2160_50_10bit_420p.y4m-slow,39.0,24499.07076923077,1,41.041385,54.077994,59.34194,24.262962,19.207771,85.482625,83.475906,39.029406,43.361531,40.944222,54.069818,59.326634,65816.25,12.46
svt_water_flyover_3840x2160_50_10bit_420p.y4m-slow,49.0,13022.455384615385,1,38.372013,53.48023,59.28401,21.217181,16.725627,72.820276,71.093005,35.41093,41.618691,38.260091,53.470646,59.26767,51639.89,8.62
svt_water_flyover_3840x2160_50_10bit_420p.y4m-slow,59.0,6564.763076923077,1,35.857099,52.38773,59.073144,18.214868,14.267534,56.333856,55.086945,32.115924,39.681247,35.758289,52.332975,59.056972,39110.68,7.79
svt_water_flyover_3840x2160_50_10bit_420p.y4m-slow,63.0,3421.5384615384614,1,33.926347,49.735811,59.007559,15.401082,12.096384,41.206219,40.402675,29.670279,37.611747,33.861165,49.564009,58.99394,30219.33,5.29
svt_water_flyover_3840x2160_50_10bit_420p.y4m-slow,27.0,58314.806153846155,0.67,45.03887,55.713289,59.941857,28.746534,22.938237,96.047329,93.982138,44.318184,46.097527,44.9823,55.694679,59.930148,66624.43,11.61
svt_water_flyover_3840x2160_50_10bit_420p.y4m-slow,39.0,28258.590769230766,0.67,41.621824,54.327472,59.357955,24.897109,19.767613,87.602534,85.538453,39.817505,43.764113,41.534256,54.318999,59.343986,52059.75,8.89
svt_water_flyover_3840x2160_50_10bit_420p.y4m-slow,49.0,15271.313846153846,0.67,38.956005,53.656054,59.244643,21.887037,17.30038,76.046445,74.217017,36.199892,42.031691,38.854501,53.647531,59.228572,42102.56,7.41
svt_water_flyover_3840x2160_50_10bit_420p.y4m-slow,59.0,7864.870769230769,0.67,36.426784,52.8585,59.188511,18.892658,14.842219,60.358224,59.001981,32.851849,40.173863,36.336922,52.825306,59.173033,30303.77,5.97
svt_water_flyover_3840x2160_50_10bit_420p.y4m-slow,63.0,4269.735384615385,0.67,34.495516,50.405631,59.263577,16.182808,12.707482,45.766595,44.856405,30.380457,38.171491,34.433237,50.24153,59.245379,23580.47,5.34
svt_waterfall_3840x2160_50_10bit_420p.y4m,27.0,182166.46153846153,1,40.067921,45.945391,48.597026,24.16753,21.594192,95.48885,93.844519,43.503129,40.160907,39.980696,45.934181,48.593843,1775.64,3.84
svt_waterfall_3840x2160_50_10bit_420p.y4m,39.0,82537.4276923077,1,35.936758,43.671004,47.169145,19.292602,17.292559,85.782207,84.069027,37.167401,37.058452,35.798428,43.661257,47.167042,1505.39,3.17
svt_waterfall_3840x2160_50_10bit_420p.y4m,49.0,36773.46461538462,1,32.975095,42.227061,46.394788,15.467991,13.988925,71.022524,69.37757,32.415953,34.81462,32.860485,42.219499,46.393663,1396.14,2.67
svt_waterfall_3840x2160_50_10bit_420p.y4m,59.0,13956.036923076925,1,30.415364,40.67573,45.420307,11.999975,11.015157,50.560768,49.228813,28.492625,32.618041,30.354795,40.672604,45.419933,1150.55,1.89
svt_waterfall_3840x2160_50_10bit_420p.y4m,63.0,5804.504615384615,1,28.589886,39.233655,44.527358,9.734319,8.968923,34.405142,33.381019,26.05444,30.846786,28.562546,39.233115,44.526228,955.75,1.69
svt_waterfall_3840x2160_50_10bit_420p.y4m,27.0,181243.84,1.02,40.040226,45.918721,48.583137,24.131732,21.5619,95.429166,93.797643,43.462581,40.134574,39.952512,45.907673,48.580009,2030.04,4.11
svt_waterfall_3840x2160_50_10bit_420p.y4m,39.0,82009.83384615384,1.02,35.910336,43.65495,47.162929,19.25772,17.263657,85.673021,83.961082,37.127572,37.039022,35.771934,43.64503,47.160851,1732.05,4.4
svt_waterfall_3840x2160_50_10bit_420p.y4m,49.0,36482.85538461538,1.02,32.953389,42.197358,46.397273,15.446633,13.96723,70.925218,69.294256,32.387817,34.788205,32.838865,42.189943,46.396324,1627.48,3.33
svt_waterfall_3840x2160_50_10bit_420p.y4m,59.0,13819.692307692309,1.02,30.393482,40.650221,45.381135,11.975751,10.990579,50.356365,49.035062,28.465961,32.586897,30.333112,40.647131,45.380774,1302.39,2.58
svt_waterfall_3840x2160_50_10bit_420p.y4m,63.0,5735.581538461538,1.02,28.568987,39.225868,44.403515,9.700013,8.941855,34.143474,33.094716,26.031075,30.823365,28.541734,39.225361,44.402791,1073.35,2.01
svt_waterfall_3840x2160_50_10bit_420p.y4m,27.0,173547.0153846154,1.21,39.789916,45.73004,48.420786,23.826164,21.283058,95.007515,93.395788,43.081028,39.917949,39.698972,45.718888,48.417771,2029.89,5.29
svt_waterfall_3840x2160_50_10bit_420p.y4m,39.0,77228.27076923077,1.21,35.668305,43.470652,47.006279,18.963972,16.992719,84.739391,83.073034,36.770795,36.825986,35.52937,43.460926,47.004167,1662.88,3.66
svt_waterfall_3840x2160_50_10bit_420p.y4m,49.0,33971.06461538462,1.21,32.752443,42.025222,46.23448,15.185334,13.733635,69.506417,67.933804,32.094191,34.591963,32.640407,42.017989,46.233456,1602.96,3.06
svt_waterfall_3840x2160_50_10bit_420p.y4m,59.0,12769.673846153846,1.21,30.23343,40.457699,45.235553,11.762755,10.798477,48.778129,47.510695,28.251742,32.416274,30.175409,40.45504,45.235126,1299.46,2.34
svt_waterfall_3840x2160_50_10bit_420p.y4m,63.0,5243.495384615385,1.21,28.421625,39.038886,44.115062,9.498278,8.761533,32.643109,31.653275,25.83161,30.637051,28.395495,39.038361,44.114312,1125.02,1.78
svt_waterfall_3840x2160_50_10bit_420p.y4m,27.0,172010.19076923077,1.25,39.736497,45.685375,48.399961,23.761763,21.224746,94.918118,93.311597,43.000293,39.872064,39.645022,45.674332,48.39694,2062.7,5.37
svt_waterfall_3840x2160_50_10bit_420p.y4m,39.0,76343.63076923077,1.25,35.619823,43.435,46.994473,18.90376,16.9406,84.579476,82.92209,36.701588,36.787506,35.480804,43.425208,46.992317,1715.21,4.13
svt_waterfall_3840x2160_50_10bit_420p.y4m,49.0,33485.32923076923,1.25,32.709385,41.995091,46.218562,15.129167,13.685236,69.228021,67.651251,32.031149,34.559159,32.597594,41.987775,46.21741,1625.13,3.1
svt_waterfall_3840x2160_50_10bit_420p.y4m,59.0,12556.68923076923,1.25,30.200149,40.424601,45.187938,11.71593,10.758719,48.553788,47.295753,28.204576,32.387455,30.142566,40.421761,45.187179,1221.65,2.32
svt_waterfall_3840x2160_50_10bit_420p.y4m,63.0,5140.295384615385,1.25,28.389146,39.013552,44.124984,9.45149,8.72133,32.133595,31.175365,25.784615,30.607934,28.363091,39.012896,44.124487,1037.25,1.41
svt_waterfall_3840x2160_50_10bit_420p.y4m,27.0,171661.2553846154,1.26,39.725897,45.675628,48.373982,23.744249,21.211543,94.899699,93.288637,42.982105,39.861938,39.63405,45.664673,48.371057,2381.14,5.07
svt_waterfall_3840x2160_50_10bit_420p.y4m,39.0,76069.89538461539,1.26,35.606215,43.422596,46.969593,18.888329,16.924904,84.513535,82.864973,36.680201,36.770182,35.467259,43.412648,46.96736,2055.79,4.26
svt_waterfall_3840x2160_50_10bit_420p.y4m,49.0,33367.11384615385,1.26,32.700203,41.979344,46.198312,15.114526,13.671072,69.188693,67.611478,32.015791,34.544637,32.588662,41.971879,46.197341,1854.34,3.12
svt_waterfall_3840x2160_50_10bit_420p.y4m,59.0,12500.36923076923,1.26,30.189876,40.418402,45.195158,11.706164,10.748616,48.464105,47.205253,28.192732,32.377892,30.132446,40.415729,45.194701,1468.19,2.14
svt_waterfall_3840x2160_50_10bit_420p.y4m,63.0,5117.366153846154,1.26,28.381056,38.993671,44.137613,9.439241,8.711759,32.102857,31.168692,25.774172,30.594401,28.355056,38.993148,44.137014,1234.71,1.91
svt_waterfall_3840x2160_50_10bit_420p.y4m,27.0,171295.58153846153,1.27,39.710443,45.668825,48.35848,23.727994,21.195366,94.868959,93.263054,42.962697,39.849564,39.618433,45.657942,48.355501,2355.51,5.46
svt_waterfall_3840x2160_50_10bit_420p.y4m,39.0,75896.56615384616,1.27,35.595101,43.416994,46.973911,18.87061,16.912354,84.457723,82.807318,36.662722,36.765672,35.456137,43.407313,46.971741,1990.12,4.23
svt_waterfall_3840x2160_50_10bit_420p.y4m,49.0,33263.876923076925,1.27,32.690844,41.961685,46.198094,15.108075,13.664638,69.154472,67.571446,32.005666,34.531912,32.579564,41.954352,46.197077,1837.47,3.23
svt_waterfall_3840x2160_50_10bit_420p.y4m,59.0,12456.947692307693,1.27,30.183053,40.40338,45.150067,11.697725,10.739677,48.379442,47.111089,28.183301,32.365685,30.125941,40.400851,45.149675,1515.15,1.96
svt_waterfall_3840x2160_50_10bit_420p.y4m,63.0,5110.843076923077,1.27,28.375112,38.9817,44.052447,9.434979,8.706193,32.052135,31.117715,25.764835,30.591498,28.349221,38.981173,44.051425,1262.43,2.06
svt_waterfall_3840x2160_50_10bit_420p.y4m,27.0,167296.01230769232,1.38,39.567783,45.558266,48.290031,23.552185,21.037429,94.636291,93.036396,42.743298,39.725667,39.473928,45.547454,48.287067,2279.08,5.31
svt_waterfall_3840x2160_50_10bit_420p.y4m,39.0,73478.4246153846,1.38,35.458236,43.322233,46.905857,18.701409,16.758299,83.876339,82.243706,36.456249,36.6497,35.318848,43.312578,46.903605,1964.56,4.15
svt_waterfall_3840x2160_50_10bit_420p.y4m,49.0,32012.775384615383,1.38,32.574411,41.882597,46.143325,14.960018,13.52966,68.302294,66.758674,31.830607,34.43433,32.464197,41.875681,46.14229,1854.45,2.98
svt_waterfall_3840x2160_50_10bit_420p.y4m,59.0,11950.646153846154,1.38,30.092291,40.314282,45.047807,11.581876,10.633308,47.578362,46.346165,28.060079,32.267017,30.036419,40.311809,45.047459,1437.21,2.28
svt_waterfall_3840x2160_50_10bit_420p.y4m,63.0,4868.713846153846,1.38,28.296747,38.888674,44.000075,9.332826,8.612507,31.270858,30.357639,25.662601,30.51031,28.271503,38.888214,43.99957,1236.62,1.79
svt_waterfall_3840x2160_50_10bit_420p.y4m,27.0,160446.1046153846,1.59,39.299752,45.371054,48.123638,23.225105,20.745769,94.149266,92.575721,42.338712,39.500492,39.202416,45.360246,48.120539,1694.4,3.79
svt_waterfall_3840x2160_50_10bit_420p.y4m,39.0,69352.09846153847,1.59,35.203975,43.140237,46.787268,18.392613,16.480223,82.833164,81.241292,36.079467,36.439917,35.064116,43.130585,46.785148,1482.75,2.72
svt_waterfall_3840x2160_50_10bit_420p.y4m,49.0,29922.88,1.59,32.369485,41.697101,45.986911,14.696729,13.29762,66.893224,65.399201,31.532316,34.238907,32.261775,41.69046,45.986136,1329.09,2.17
svt_waterfall_3840x2160_50_10bit_420p.y4m,59.0,11119.052307692307,1.59,29.932727,40.144831,44.901233,11.371525,10.441903,46.064109,44.898196,27.850126,32.104833,29.879483,40.142576,44.900377,1075.16,1.65
svt_waterfall_3840x2160_50_10bit_420p.y4m,63.0,4476.738461538462,1.59,28.149349,38.720196,43.947448,9.135666,8.436267,29.684059,28.828473,25.461747,30.353197,28.125266,38.719632,43.947178,914.51,1.31
svt_waterfall_3840x2160_50_10bit_420p.y4m,27.0,136618.35076923078,2.51,38.20982,44.6501,47.517207,21.910306,19.581736,91.969349,90.465836,40.707529,38.634988,38.100972,44.639496,47.512974,1694.7,4.15
svt_waterfall_3840x2160_50_10bit_420p.y4m,39.0,55640.06153846154,2.51,34.19061,42.467595,46.375012,17.161348,15.377801,78.227135,76.756072,34.562579,35.624703,34.052172,42.459092,46.373543,1396.93,2.86
svt_waterfall_3840x2160_50_10bit_420p.y4m,49.0,23218.73230769231,2.51,31.551234,41.083523,45.448493,13.652244,12.369906,60.678298,59.334533,30.344082,33.485196,31.456161,41.078728,45.447779,1268.66,2.04
svt_waterfall_3840x2160_50_10bit_420p.y4m,59.0,8508.221538461537,2.51,29.294547,39.498242,44.376104,10.580445,9.723598,40.124372,39.114508,27.014822,31.446639,29.251378,39.497174,44.374865,1003.47,2.24
svt_waterfall_3840x2160_50_10bit_420p.y4m,63.0,3318.473846153846,2.51,27.598065,38.045236,43.464779,8.422603,7.791841,24.321739,23.652609,24.722231,29.774439,27.579148,38.044816,43.463958,842.56,1.37
svt_waterfall_3840x2160_50_10bit_420p.y4m-slow,27.0,94166.46769230769,1,43.011019,46.274201,47.657551,29.63852,22.241937,97.879321,95.856765,43.549087,41.60631,42.969235,46.26565,47.652347,114405.19,13.64
svt_waterfall_3840x2160_50_10bit_420p.y4m-slow,39.0,46768.8523076923,1,39.279301,44.181171,46.269487,24.501586,18.279119,89.800555,87.709993,37.889337,38.996311,39.191309,44.175195,46.267669,93318.18,15.96
svt_waterfall_3840x2160_50_10bit_420p.y4m-slow,49.0,24151.67076923077,1,36.266889,42.823087,45.416091,20.366661,15.151894,77.064757,75.107446,33.532736,36.963445,36.172239,42.818211,45.415164,81191.7,9.38
svt_waterfall_3840x2160_50_10bit_420p.y4m-slow,59.0,10861.68,1,33.323714,41.418193,44.675235,16.40365,12.16118,58.131256,56.492683,29.639046,34.807883,33.221368,41.415019,44.674622,59748.03,9.68
svt_waterfall_3840x2160_50_10bit_420p.y4m-slow,63.0,5056.769230769231,1,31.093676,39.94816,43.956517,13.470399,9.910135,41.278725,40.047554,26.928473,32.867997,31.019187,39.947063,43.955885,44497.59,6.18
svt_waterfall_3840x2160_50_10bit_420p.y4m-slow,27.0,88342.46769230769,1.26,42.627078,45.989263,47.446393,29.157781,21.827437,97.366228,95.334874,42.990415,41.308945,42.583719,45.981086,47.441917,89246.72,11.85
svt_waterfall_3840x2160_50_10bit_420p.y4m-slow,39.0,43146.2123076923,1.26,38.880431,43.912328,46.086054,24.010646,17.865841,88.584707,86.511766,37.334801,38.689935,38.787068,43.906594,46.084593,70617.97,9.59
svt_waterfall_3840x2160_50_10bit_420p.y4m-slow,49.0,21788.39384615385,1.26,35.871004,42.578358,45.241612,19.866885,14.748309,74.96088,73.052284,33.006711,36.652029,35.771234,42.573377,45.240614,58197.98,8.01
svt_waterfall_3840x2160_50_10bit_420p.y4m-slow,59.0,9550.646153846154,1.26,32.946892,41.180416,44.582815,15.899488,11.77639,55.308172,53.761116,29.165464,34.499411,32.843834,41.17735,44.582338,40265.6,6.16
svt_waterfall_3840x2160_50_10bit_420p.y4m-slow,63.0,4382.929230769231,1.26,30.761715,39.705007,43.839995,13.015207,9.571281,38.6339,37.45241,26.53096,32.563907,30.69136,39.703929,43.839277,28520.99,5.24
